[
	{
		"ID": 1,
		"AgeType": "AgeType_Yong",
		"StartAge": 36,
		"EndAge": 50
	},
	{
		"ID": 2,
		"AgeType": "AgeType_Middle",
		"StartAge": 51,
		"EndAge": 150
	},
	{
		"ID": 3,
		"AgeType": "AgeType_Old",
		"StartAge": 151,
		"EndAge": 200
	}
]