[
	{
		"ID": 1111,
		"SalePrice": 0.824999988079071,
		"BindMoneyBuyPrice": 6.0,
		"Category": "WeaponCategory_Railgun",
		"SizeType": "ShipSizeType_S",
		"Rank": "RankType_T1",
		"SubRank": "SubRankType_S1",
		"DamageComposeList": [
			0.75,
			0.0
		],
		"DamageMulti": 1.0,
		"FireRangeMaxMulti": 0.0,
		"PackedSize": 0.0008299999753944576,
		"IconResPath": "Group02_ABS/Icon_Item_Ammo_1001"
	},
	{
		"ID": 1121,
		"SalePrice": 1.0325000286102295,
		"BindMoneyBuyPrice": 0.0,
		"Category": "WeaponCategory_Railgun",
		"SizeType": "ShipSizeType_S",
		"Rank": "RankType_T1",
		"SubRank": "SubRankType_S2",
		"DamageComposeList": [
			0.75,
			0.0
		],
		"DamageMulti": 1.0399999618530273,
		"FireRangeMaxMulti": 0.0,
		"PackedSize": 0.0008299999753944576,
		"IconResPath": "Group02_ABS/Icon_Item_Ammo_1001"
	},
	{
		"ID": 1131,
		"SalePrice": 1.2374999523162842,
		"BindMoneyBuyPrice": 0.0,
		"Category": "WeaponCategory_Railgun",
		"SizeType": "ShipSizeType_S",
		"Rank": "RankType_T1",
		"SubRank": "SubRankType_S3",
		"DamageComposeList": [
			0.75,
			0.0
		],
		"DamageMulti": 1.090000033378601,
		"FireRangeMaxMulti": 0.0,
		"PackedSize": 0.0008299999753944576,
		"IconResPath": "Group02_ABS/Icon_Item_Ammo_1001"
	},
	{
		"ID": 1141,
		"SalePrice": 2.4749999046325684,
		"BindMoneyBuyPrice": 0.0,
		"Category": "WeaponCategory_Railgun",
		"SizeType": "ShipSizeType_S",
		"Rank": "RankType_T1",
		"SubRank": "SubRankType_S4",
		"DamageComposeList": [
			0.75,
			0.0
		],
		"DamageMulti": 1.1399999856948853,
		"FireRangeMaxMulti": 0.0,
		"PackedSize": 0.0008299999753944576,
		"IconResPath": "Group02_ABS/Icon_Item_Ammo_1001"
	},
	{
		"ID": 1151,
		"SalePrice": 4.125,
		"BindMoneyBuyPrice": 0.0,
		"Category": "WeaponCategory_Railgun",
		"SizeType": "ShipSizeType_S",
		"Rank": "RankType_T1",
		"SubRank": "SubRankType_S5",
		"DamageComposeList": [
			0.75,
			0.0
		],
		"DamageMulti": 1.1399999856948853,
		"FireRangeMaxMulti": 0.0,
		"PackedSize": 0.0008299999753944576,
		"IconResPath": "Group02_ABS/Icon_Item_Ammo_1001"
	},
	{
		"ID": 1211,
		"SalePrice": 6.599999904632568,
		"BindMoneyBuyPrice": 0.0,
		"Category": "WeaponCategory_Railgun",
		"SizeType": "ShipSizeType_S",
		"Rank": "RankType_T2",
		"SubRank": "SubRankType_S1",
		"DamageComposeList": [
			0.75,
			0.0
		],
		"DamageMulti": 1.2000000476837158,
		"FireRangeMaxMulti": 0.0,
		"PackedSize": 0.0008299999753944576,
		"IconResPath": "Group02_ABS/Icon_Item_Ammo_1001"
	},
	{
		"ID": 1221,
		"SalePrice": 8.25,
		"BindMoneyBuyPrice": 0.0,
		"Category": "WeaponCategory_Railgun",
		"SizeType": "ShipSizeType_S",
		"Rank": "RankType_T2",
		"SubRank": "SubRankType_S2",
		"DamageComposeList": [
			0.75,
			0.0
		],
		"DamageMulti": 1.25,
		"FireRangeMaxMulti": 0.0,
		"PackedSize": 0.0008299999753944576,
		"IconResPath": "Group02_ABS/Icon_Item_Ammo_1001"
	},
	{
		"ID": 1231,
		"SalePrice": 9.899999618530273,
		"BindMoneyBuyPrice": 0.0,
		"Category": "WeaponCategory_Railgun",
		"SizeType": "ShipSizeType_S",
		"Rank": "RankType_T2",
		"SubRank": "SubRankType_S3",
		"DamageComposeList": [
			0.75,
			0.0
		],
		"DamageMulti": 1.309999942779541,
		"FireRangeMaxMulti": 0.0,
		"PackedSize": 0.0008299999753944576,
		"IconResPath": "Group02_ABS/Icon_Item_Ammo_1001"
	},
	{
		"ID": 1241,
		"SalePrice": 19.799999237060547,
		"BindMoneyBuyPrice": 0.0,
		"Category": "WeaponCategory_Railgun",
		"SizeType": "ShipSizeType_S",
		"Rank": "RankType_T2",
		"SubRank": "SubRankType_S4",
		"DamageComposeList": [
			0.75,
			0.0
		],
		"DamageMulti": 1.3700000047683716,
		"FireRangeMaxMulti": 0.0,
		"PackedSize": 0.0008299999753944576,
		"IconResPath": "Group02_ABS/Icon_Item_Ammo_1001"
	},
	{
		"ID": 1251,
		"SalePrice": 33.0,
		"BindMoneyBuyPrice": 0.0,
		"Category": "WeaponCategory_Railgun",
		"SizeType": "ShipSizeType_S",
		"Rank": "RankType_T2",
		"SubRank": "SubRankType_S5",
		"DamageComposeList": [
			0.75,
			0.0
		],
		"DamageMulti": 1.440000057220459,
		"FireRangeMaxMulti": 0.0,
		"PackedSize": 0.0008299999753944576,
		"IconResPath": "Group02_ABS/Icon_Item_Ammo_1001"
	},
	{
		"ID": 1311,
		"SalePrice": 66.0,
		"BindMoneyBuyPrice": 0.0,
		"Category": "WeaponCategory_Railgun",
		"SizeType": "ShipSizeType_S",
		"Rank": "RankType_T3",
		"SubRank": "SubRankType_S1",
		"DamageComposeList": [
			0.75,
			0.0
		],
		"DamageMulti": 1.5,
		"FireRangeMaxMulti": 0.0,
		"PackedSize": 0.0008299999753944576,
		"IconResPath": "Group02_ABS/Icon_Item_Ammo_1001"
	},
	{
		"ID": 1321,
		"SalePrice": 99.0,
		"BindMoneyBuyPrice": 0.0,
		"Category": "WeaponCategory_Railgun",
		"SizeType": "ShipSizeType_S",
		"Rank": "RankType_T3",
		"SubRank": "SubRankType_S2",
		"DamageComposeList": [
			0.75,
			0.0
		],
		"DamageMulti": 1.559999942779541,
		"FireRangeMaxMulti": 0.0,
		"PackedSize": 0.0008299999753944576,
		"IconResPath": "Group02_ABS/Icon_Item_Ammo_1001"
	},
	{
		"ID": 1331,
		"SalePrice": 132.0,
		"BindMoneyBuyPrice": 0.0,
		"Category": "WeaponCategory_Railgun",
		"SizeType": "ShipSizeType_S",
		"Rank": "RankType_T3",
		"SubRank": "SubRankType_S3",
		"DamageComposeList": [
			0.75,
			0.0
		],
		"DamageMulti": 1.6399999856948853,
		"FireRangeMaxMulti": 0.0,
		"PackedSize": 0.0008299999753944576,
		"IconResPath": "Group02_ABS/Icon_Item_Ammo_1001"
	},
	{
		"ID": 1341,
		"SalePrice": 264.0,
		"BindMoneyBuyPrice": 0.0,
		"Category": "WeaponCategory_Railgun",
		"SizeType": "ShipSizeType_S",
		"Rank": "RankType_T3",
		"SubRank": "SubRankType_S4",
		"DamageComposeList": [
			0.75,
			0.0
		],
		"DamageMulti": 1.7100000381469727,
		"FireRangeMaxMulti": 0.0,
		"PackedSize": 0.0008299999753944576,
		"IconResPath": "Group02_ABS/Icon_Item_Ammo_1001"
	},
	{
		"ID": 1351,
		"SalePrice": 462.0,
		"BindMoneyBuyPrice": 0.0,
		"Category": "WeaponCategory_Railgun",
		"SizeType": "ShipSizeType_S",
		"Rank": "RankType_T3",
		"SubRank": "SubRankType_S5",
		"DamageComposeList": [
			0.75,
			0.0
		],
		"DamageMulti": 1.7999999523162842,
		"FireRangeMaxMulti": 0.0,
		"PackedSize": 0.0008299999753944576,
		"IconResPath": "Group02_ABS/Icon_Item_Ammo_1001"
	},
	{
		"ID": 1112,
		"SalePrice": 3.299999952316284,
		"BindMoneyBuyPrice": 20.0,
		"Category": "WeaponCategory_Railgun",
		"SizeType": "ShipSizeType_M",
		"Rank": "RankType_T1",
		"SubRank": "SubRankType_S1",
		"DamageComposeList": [
			0.75,
			0.0
		],
		"DamageMulti": 1.0,
		"FireRangeMaxMulti": 0.0,
		"PackedSize": 0.0016599999507889152,
		"IconResPath": "Group02_ABS/Icon_Item_Ammo_1002"
	},
	{
		"ID": 1122,
		"SalePrice": 4.125,
		"BindMoneyBuyPrice": 0.0,
		"Category": "WeaponCategory_Railgun",
		"SizeType": "ShipSizeType_M",
		"Rank": "RankType_T1",
		"SubRank": "SubRankType_S2",
		"DamageComposeList": [
			0.75,
			0.0
		],
		"DamageMulti": 1.0399999618530273,
		"FireRangeMaxMulti": 0.0,
		"PackedSize": 0.0016599999507889152,
		"IconResPath": "Group02_ABS/Icon_Item_Ammo_1002"
	},
	{
		"ID": 1132,
		"SalePrice": 4.949999809265137,
		"BindMoneyBuyPrice": 0.0,
		"Category": "WeaponCategory_Railgun",
		"SizeType": "ShipSizeType_M",
		"Rank": "RankType_T1",
		"SubRank": "SubRankType_S3",
		"DamageComposeList": [
			0.75,
			0.0
		],
		"DamageMulti": 1.090000033378601,
		"FireRangeMaxMulti": 0.0,
		"PackedSize": 0.0016599999507889152,
		"IconResPath": "Group02_ABS/Icon_Item_Ammo_1002"
	},
	{
		"ID": 1142,
		"SalePrice": 9.899999618530273,
		"BindMoneyBuyPrice": 0.0,
		"Category": "WeaponCategory_Railgun",
		"SizeType": "ShipSizeType_M",
		"Rank": "RankType_T1",
		"SubRank": "SubRankType_S4",
		"DamageComposeList": [
			0.75,
			0.0
		],
		"DamageMulti": 1.1399999856948853,
		"FireRangeMaxMulti": 0.0,
		"PackedSize": 0.0016599999507889152,
		"IconResPath": "Group02_ABS/Icon_Item_Ammo_1002"
	},
	{
		"ID": 1152,
		"SalePrice": 16.5,
		"BindMoneyBuyPrice": 0.0,
		"Category": "WeaponCategory_Railgun",
		"SizeType": "ShipSizeType_M",
		"Rank": "RankType_T1",
		"SubRank": "SubRankType_S5",
		"DamageComposeList": [
			0.75,
			0.0
		],
		"DamageMulti": 1.1399999856948853,
		"FireRangeMaxMulti": 0.0,
		"PackedSize": 0.0016599999507889152,
		"IconResPath": "Group02_ABS/Icon_Item_Ammo_1002"
	},
	{
		"ID": 1212,
		"SalePrice": 26.399999618530273,
		"BindMoneyBuyPrice": 0.0,
		"Category": "WeaponCategory_Railgun",
		"SizeType": "ShipSizeType_M",
		"Rank": "RankType_T2",
		"SubRank": "SubRankType_S1",
		"DamageComposeList": [
			0.75,
			0.0
		],
		"DamageMulti": 1.2000000476837158,
		"FireRangeMaxMulti": 0.0,
		"PackedSize": 0.0016599999507889152,
		"IconResPath": "Group02_ABS/Icon_Item_Ammo_1002"
	},
	{
		"ID": 1222,
		"SalePrice": 33.0,
		"BindMoneyBuyPrice": 0.0,
		"Category": "WeaponCategory_Railgun",
		"SizeType": "ShipSizeType_M",
		"Rank": "RankType_T2",
		"SubRank": "SubRankType_S2",
		"DamageComposeList": [
			0.75,
			0.0
		],
		"DamageMulti": 1.25,
		"FireRangeMaxMulti": 0.0,
		"PackedSize": 0.0016599999507889152,
		"IconResPath": "Group02_ABS/Icon_Item_Ammo_1002"
	},
	{
		"ID": 1232,
		"SalePrice": 39.599998474121094,
		"BindMoneyBuyPrice": 0.0,
		"Category": "WeaponCategory_Railgun",
		"SizeType": "ShipSizeType_M",
		"Rank": "RankType_T2",
		"SubRank": "SubRankType_S3",
		"DamageComposeList": [
			0.75,
			0.0
		],
		"DamageMulti": 1.309999942779541,
		"FireRangeMaxMulti": 0.0,
		"PackedSize": 0.0016599999507889152,
		"IconResPath": "Group02_ABS/Icon_Item_Ammo_1002"
	},
	{
		"ID": 1242,
		"SalePrice": 79.19999694824219,
		"BindMoneyBuyPrice": 0.0,
		"Category": "WeaponCategory_Railgun",
		"SizeType": "ShipSizeType_M",
		"Rank": "RankType_T2",
		"SubRank": "SubRankType_S4",
		"DamageComposeList": [
			0.75,
			0.0
		],
		"DamageMulti": 1.3700000047683716,
		"FireRangeMaxMulti": 0.0,
		"PackedSize": 0.0016599999507889152,
		"IconResPath": "Group02_ABS/Icon_Item_Ammo_1002"
	},
	{
		"ID": 1252,
		"SalePrice": 132.0,
		"BindMoneyBuyPrice": 0.0,
		"Category": "WeaponCategory_Railgun",
		"SizeType": "ShipSizeType_M",
		"Rank": "RankType_T2",
		"SubRank": "SubRankType_S5",
		"DamageComposeList": [
			0.75,
			0.0
		],
		"DamageMulti": 1.440000057220459,
		"FireRangeMaxMulti": 0.0,
		"PackedSize": 0.0016599999507889152,
		"IconResPath": "Group02_ABS/Icon_Item_Ammo_1002"
	},
	{
		"ID": 1312,
		"SalePrice": 264.0,
		"BindMoneyBuyPrice": 0.0,
		"Category": "WeaponCategory_Railgun",
		"SizeType": "ShipSizeType_M",
		"Rank": "RankType_T3",
		"SubRank": "SubRankType_S1",
		"DamageComposeList": [
			0.75,
			0.0
		],
		"DamageMulti": 1.5,
		"FireRangeMaxMulti": 0.0,
		"PackedSize": 0.0016599999507889152,
		"IconResPath": "Group02_ABS/Icon_Item_Ammo_1002"
	},
	{
		"ID": 1322,
		"SalePrice": 396.0,
		"BindMoneyBuyPrice": 0.0,
		"Category": "WeaponCategory_Railgun",
		"SizeType": "ShipSizeType_M",
		"Rank": "RankType_T3",
		"SubRank": "SubRankType_S2",
		"DamageComposeList": [
			0.75,
			0.0
		],
		"DamageMulti": 1.559999942779541,
		"FireRangeMaxMulti": 0.0,
		"PackedSize": 0.0016599999507889152,
		"IconResPath": "Group02_ABS/Icon_Item_Ammo_1002"
	},
	{
		"ID": 1332,
		"SalePrice": 528.0,
		"BindMoneyBuyPrice": 0.0,
		"Category": "WeaponCategory_Railgun",
		"SizeType": "ShipSizeType_M",
		"Rank": "RankType_T3",
		"SubRank": "SubRankType_S3",
		"DamageComposeList": [
			0.75,
			0.0
		],
		"DamageMulti": 1.6399999856948853,
		"FireRangeMaxMulti": 0.0,
		"PackedSize": 0.0016599999507889152,
		"IconResPath": "Group02_ABS/Icon_Item_Ammo_1002"
	},
	{
		"ID": 1342,
		"SalePrice": 1056.0,
		"BindMoneyBuyPrice": 0.0,
		"Category": "WeaponCategory_Railgun",
		"SizeType": "ShipSizeType_M",
		"Rank": "RankType_T3",
		"SubRank": "SubRankType_S4",
		"DamageComposeList": [
			0.75,
			0.0
		],
		"DamageMulti": 1.7100000381469727,
		"FireRangeMaxMulti": 0.0,
		"PackedSize": 0.0016599999507889152,
		"IconResPath": "Group02_ABS/Icon_Item_Ammo_1002"
	},
	{
		"ID": 1352,
		"SalePrice": 1848.0,
		"BindMoneyBuyPrice": 0.0,
		"Category": "WeaponCategory_Railgun",
		"SizeType": "ShipSizeType_M",
		"Rank": "RankType_T3",
		"SubRank": "SubRankType_S5",
		"DamageComposeList": [
			0.75,
			0.0
		],
		"DamageMulti": 1.7999999523162842,
		"FireRangeMaxMulti": 0.0,
		"PackedSize": 0.0016599999507889152,
		"IconResPath": "Group02_ABS/Icon_Item_Ammo_1002"
	},
	{
		"ID": 1113,
		"SalePrice": 5.775000095367432,
		"BindMoneyBuyPrice": 39.0,
		"Category": "WeaponCategory_Railgun",
		"SizeType": "ShipSizeType_L",
		"Rank": "RankType_T1",
		"SubRank": "SubRankType_S1",
		"DamageComposeList": [
			0.75,
			0.0
		],
		"DamageMulti": 1.0,
		"FireRangeMaxMulti": 0.0,
		"PackedSize": 0.003329999977722764,
		"IconResPath": "Group02_ABS/Icon_Item_Ammo_1003"
	},
	{
		"ID": 1123,
		"SalePrice": 7.21999979019165,
		"BindMoneyBuyPrice": 0.0,
		"Category": "WeaponCategory_Railgun",
		"SizeType": "ShipSizeType_L",
		"Rank": "RankType_T1",
		"SubRank": "SubRankType_S2",
		"DamageComposeList": [
			0.75,
			0.0
		],
		"DamageMulti": 1.0399999618530273,
		"FireRangeMaxMulti": 0.0,
		"PackedSize": 0.003329999977722764,
		"IconResPath": "Group02_ABS/Icon_Item_Ammo_1003"
	},
	{
		"ID": 1133,
		"SalePrice": 8.662500381469727,
		"BindMoneyBuyPrice": 0.0,
		"Category": "WeaponCategory_Railgun",
		"SizeType": "ShipSizeType_L",
		"Rank": "RankType_T1",
		"SubRank": "SubRankType_S3",
		"DamageComposeList": [
			0.75,
			0.0
		],
		"DamageMulti": 1.090000033378601,
		"FireRangeMaxMulti": 0.0,
		"PackedSize": 0.003329999977722764,
		"IconResPath": "Group02_ABS/Icon_Item_Ammo_1003"
	},
	{
		"ID": 1143,
		"SalePrice": 17.325000762939453,
		"BindMoneyBuyPrice": 0.0,
		"Category": "WeaponCategory_Railgun",
		"SizeType": "ShipSizeType_L",
		"Rank": "RankType_T1",
		"SubRank": "SubRankType_S4",
		"DamageComposeList": [
			0.75,
			0.0
		],
		"DamageMulti": 1.1399999856948853,
		"FireRangeMaxMulti": 0.0,
		"PackedSize": 0.003329999977722764,
		"IconResPath": "Group02_ABS/Icon_Item_Ammo_1003"
	},
	{
		"ID": 1153,
		"SalePrice": 28.875,
		"BindMoneyBuyPrice": 0.0,
		"Category": "WeaponCategory_Railgun",
		"SizeType": "ShipSizeType_L",
		"Rank": "RankType_T1",
		"SubRank": "SubRankType_S5",
		"DamageComposeList": [
			0.75,
			0.0
		],
		"DamageMulti": 1.1399999856948853,
		"FireRangeMaxMulti": 0.0,
		"PackedSize": 0.003329999977722764,
		"IconResPath": "Group02_ABS/Icon_Item_Ammo_1003"
	},
	{
		"ID": 1213,
		"SalePrice": 46.20000076293945,
		"BindMoneyBuyPrice": 0.0,
		"Category": "WeaponCategory_Railgun",
		"SizeType": "ShipSizeType_L",
		"Rank": "RankType_T2",
		"SubRank": "SubRankType_S1",
		"DamageComposeList": [
			0.75,
			0.0
		],
		"DamageMulti": 1.2000000476837158,
		"FireRangeMaxMulti": 0.0,
		"PackedSize": 0.003329999977722764,
		"IconResPath": "Group02_ABS/Icon_Item_Ammo_1003"
	},
	{
		"ID": 1223,
		"SalePrice": 57.75,
		"BindMoneyBuyPrice": 0.0,
		"Category": "WeaponCategory_Railgun",
		"SizeType": "ShipSizeType_L",
		"Rank": "RankType_T2",
		"SubRank": "SubRankType_S2",
		"DamageComposeList": [
			0.75,
			0.0
		],
		"DamageMulti": 1.25,
		"FireRangeMaxMulti": 0.0,
		"PackedSize": 0.003329999977722764,
		"IconResPath": "Group02_ABS/Icon_Item_Ammo_1003"
	},
	{
		"ID": 1233,
		"SalePrice": 69.30000305175781,
		"BindMoneyBuyPrice": 0.0,
		"Category": "WeaponCategory_Railgun",
		"SizeType": "ShipSizeType_L",
		"Rank": "RankType_T2",
		"SubRank": "SubRankType_S3",
		"DamageComposeList": [
			0.75,
			0.0
		],
		"DamageMulti": 1.309999942779541,
		"FireRangeMaxMulti": 0.0,
		"PackedSize": 0.003329999977722764,
		"IconResPath": "Group02_ABS/Icon_Item_Ammo_1003"
	},
	{
		"ID": 1243,
		"SalePrice": 138.60000610351562,
		"BindMoneyBuyPrice": 0.0,
		"Category": "WeaponCategory_Railgun",
		"SizeType": "ShipSizeType_L",
		"Rank": "RankType_T2",
		"SubRank": "SubRankType_S4",
		"DamageComposeList": [
			0.75,
			0.0
		],
		"DamageMulti": 1.3700000047683716,
		"FireRangeMaxMulti": 0.0,
		"PackedSize": 0.003329999977722764,
		"IconResPath": "Group02_ABS/Icon_Item_Ammo_1003"
	},
	{
		"ID": 1253,
		"SalePrice": 231.0,
		"BindMoneyBuyPrice": 0.0,
		"Category": "WeaponCategory_Railgun",
		"SizeType": "ShipSizeType_L",
		"Rank": "RankType_T2",
		"SubRank": "SubRankType_S5",
		"DamageComposeList": [
			0.75,
			0.0
		],
		"DamageMulti": 1.440000057220459,
		"FireRangeMaxMulti": 0.0,
		"PackedSize": 0.003329999977722764,
		"IconResPath": "Group02_ABS/Icon_Item_Ammo_1003"
	},
	{
		"ID": 1313,
		"SalePrice": 462.0,
		"BindMoneyBuyPrice": 0.0,
		"Category": "WeaponCategory_Railgun",
		"SizeType": "ShipSizeType_L",
		"Rank": "RankType_T3",
		"SubRank": "SubRankType_S1",
		"DamageComposeList": [
			0.75,
			0.0
		],
		"DamageMulti": 1.5,
		"FireRangeMaxMulti": 0.0,
		"PackedSize": 0.003329999977722764,
		"IconResPath": "Group02_ABS/Icon_Item_Ammo_1003"
	},
	{
		"ID": 1323,
		"SalePrice": 693.0,
		"BindMoneyBuyPrice": 0.0,
		"Category": "WeaponCategory_Railgun",
		"SizeType": "ShipSizeType_L",
		"Rank": "RankType_T3",
		"SubRank": "SubRankType_S2",
		"DamageComposeList": [
			0.75,
			0.0
		],
		"DamageMulti": 1.559999942779541,
		"FireRangeMaxMulti": 0.0,
		"PackedSize": 0.003329999977722764,
		"IconResPath": "Group02_ABS/Icon_Item_Ammo_1003"
	},
	{
		"ID": 1333,
		"SalePrice": 924.0,
		"BindMoneyBuyPrice": 0.0,
		"Category": "WeaponCategory_Railgun",
		"SizeType": "ShipSizeType_L",
		"Rank": "RankType_T3",
		"SubRank": "SubRankType_S3",
		"DamageComposeList": [
			0.75,
			0.0
		],
		"DamageMulti": 1.6399999856948853,
		"FireRangeMaxMulti": 0.0,
		"PackedSize": 0.003329999977722764,
		"IconResPath": "Group02_ABS/Icon_Item_Ammo_1003"
	},
	{
		"ID": 1343,
		"SalePrice": 1848.0,
		"BindMoneyBuyPrice": 0.0,
		"Category": "WeaponCategory_Railgun",
		"SizeType": "ShipSizeType_L",
		"Rank": "RankType_T3",
		"SubRank": "SubRankType_S4",
		"DamageComposeList": [
			0.75,
			0.0
		],
		"DamageMulti": 1.7100000381469727,
		"FireRangeMaxMulti": 0.0,
		"PackedSize": 0.003329999977722764,
		"IconResPath": "Group02_ABS/Icon_Item_Ammo_1003"
	},
	{
		"ID": 1353,
		"SalePrice": 3234.0,
		"BindMoneyBuyPrice": 0.0,
		"Category": "WeaponCategory_Railgun",
		"SizeType": "ShipSizeType_L",
		"Rank": "RankType_T3",
		"SubRank": "SubRankType_S5",
		"DamageComposeList": [
			0.75,
			0.0
		],
		"DamageMulti": 1.7999999523162842,
		"FireRangeMaxMulti": 0.0,
		"PackedSize": 0.003329999977722764,
		"IconResPath": "Group02_ABS/Icon_Item_Ammo_1003"
	},
	{
		"ID": 2111,
		"SalePrice": 6.21999979019165,
		"BindMoneyBuyPrice": 42.0,
		"Category": "WeaponCategory_Laser",
		"SizeType": "ShipSizeType_S",
		"Rank": "RankType_T1",
		"SubRank": "SubRankType_S1",
		"DamageComposeList": [
			0.20000000298023224,
			0.699999988079071
		],
		"DamageMulti": 1.0,
		"FireRangeMaxMulti": 0.0,
		"PackedSize": 0.004999999888241291,
		"IconResPath": "Group02_ABS/Icon_Item_Ammo_3001"
	},
	{
		"ID": 2121,
		"SalePrice": 7.78000020980835,
		"BindMoneyBuyPrice": 0.0,
		"Category": "WeaponCategory_Laser",
		"SizeType": "ShipSizeType_S",
		"Rank": "RankType_T1",
		"SubRank": "SubRankType_S2",
		"DamageComposeList": [
			0.20000000298023224,
			0.699999988079071
		],
		"DamageMulti": 1.0399999618530273,
		"FireRangeMaxMulti": 0.0,
		"PackedSize": 0.004999999888241291,
		"IconResPath": "Group02_ABS/Icon_Item_Ammo_3001"
	},
	{
		"ID": 2131,
		"SalePrice": 9.34000015258789,
		"BindMoneyBuyPrice": 0.0,
		"Category": "WeaponCategory_Laser",
		"SizeType": "ShipSizeType_S",
		"Rank": "RankType_T1",
		"SubRank": "SubRankType_S3",
		"DamageComposeList": [
			0.20000000298023224,
			0.699999988079071
		],
		"DamageMulti": 1.090000033378601,
		"FireRangeMaxMulti": 0.0,
		"PackedSize": 0.004999999888241291,
		"IconResPath": "Group02_ABS/Icon_Item_Ammo_3001"
	},
	{
		"ID": 2141,
		"SalePrice": 18.68000030517578,
		"BindMoneyBuyPrice": 0.0,
		"Category": "WeaponCategory_Laser",
		"SizeType": "ShipSizeType_S",
		"Rank": "RankType_T1",
		"SubRank": "SubRankType_S4",
		"DamageComposeList": [
			0.20000000298023224,
			0.699999988079071
		],
		"DamageMulti": 1.1399999856948853,
		"FireRangeMaxMulti": 0.0,
		"PackedSize": 0.004999999888241291,
		"IconResPath": "Group02_ABS/Icon_Item_Ammo_3001"
	},
	{
		"ID": 2151,
		"SalePrice": 31.1200008392334,
		"BindMoneyBuyPrice": 0.0,
		"Category": "WeaponCategory_Laser",
		"SizeType": "ShipSizeType_S",
		"Rank": "RankType_T1",
		"SubRank": "SubRankType_S5",
		"DamageComposeList": [
			0.20000000298023224,
			0.699999988079071
		],
		"DamageMulti": 1.1399999856948853,
		"FireRangeMaxMulti": 0.0,
		"PackedSize": 0.004999999888241291,
		"IconResPath": "Group02_ABS/Icon_Item_Ammo_3001"
	},
	{
		"ID": 2211,
		"SalePrice": 49.79999923706055,
		"BindMoneyBuyPrice": 0.0,
		"Category": "WeaponCategory_Laser",
		"SizeType": "ShipSizeType_S",
		"Rank": "RankType_T2",
		"SubRank": "SubRankType_S1",
		"DamageComposeList": [
			0.20000000298023224,
			0.699999988079071
		],
		"DamageMulti": 1.2000000476837158,
		"FireRangeMaxMulti": 0.0,
		"PackedSize": 0.004999999888241291,
		"IconResPath": "Group02_ABS/Icon_Item_Ammo_3001"
	},
	{
		"ID": 2221,
		"SalePrice": 62.2599983215332,
		"BindMoneyBuyPrice": 0.0,
		"Category": "WeaponCategory_Laser",
		"SizeType": "ShipSizeType_S",
		"Rank": "RankType_T2",
		"SubRank": "SubRankType_S2",
		"DamageComposeList": [
			0.20000000298023224,
			0.699999988079071
		],
		"DamageMulti": 1.25,
		"FireRangeMaxMulti": 0.0,
		"PackedSize": 0.004999999888241291,
		"IconResPath": "Group02_ABS/Icon_Item_Ammo_3001"
	},
	{
		"ID": 2231,
		"SalePrice": 74.69999694824219,
		"BindMoneyBuyPrice": 0.0,
		"Category": "WeaponCategory_Laser",
		"SizeType": "ShipSizeType_S",
		"Rank": "RankType_T2",
		"SubRank": "SubRankType_S3",
		"DamageComposeList": [
			0.20000000298023224,
			0.699999988079071
		],
		"DamageMulti": 1.309999942779541,
		"FireRangeMaxMulti": 0.0,
		"PackedSize": 0.004999999888241291,
		"IconResPath": "Group02_ABS/Icon_Item_Ammo_3001"
	},
	{
		"ID": 2241,
		"SalePrice": 149.39999389648438,
		"BindMoneyBuyPrice": 0.0,
		"Category": "WeaponCategory_Laser",
		"SizeType": "ShipSizeType_S",
		"Rank": "RankType_T2",
		"SubRank": "SubRankType_S4",
		"DamageComposeList": [
			0.20000000298023224,
			0.699999988079071
		],
		"DamageMulti": 1.3700000047683716,
		"FireRangeMaxMulti": 0.0,
		"PackedSize": 0.004999999888241291,
		"IconResPath": "Group02_ABS/Icon_Item_Ammo_3001"
	},
	{
		"ID": 2251,
		"SalePrice": 249.0,
		"BindMoneyBuyPrice": 0.0,
		"Category": "WeaponCategory_Laser",
		"SizeType": "ShipSizeType_S",
		"Rank": "RankType_T2",
		"SubRank": "SubRankType_S5",
		"DamageComposeList": [
			0.20000000298023224,
			0.699999988079071
		],
		"DamageMulti": 1.440000057220459,
		"FireRangeMaxMulti": 0.0,
		"PackedSize": 0.004999999888241291,
		"IconResPath": "Group02_ABS/Icon_Item_Ammo_3001"
	},
	{
		"ID": 2311,
		"SalePrice": 498.0,
		"BindMoneyBuyPrice": 0.0,
		"Category": "WeaponCategory_Laser",
		"SizeType": "ShipSizeType_S",
		"Rank": "RankType_T3",
		"SubRank": "SubRankType_S1",
		"DamageComposeList": [
			0.20000000298023224,
			0.699999988079071
		],
		"DamageMulti": 1.5,
		"FireRangeMaxMulti": 0.0,
		"PackedSize": 0.004999999888241291,
		"IconResPath": "Group02_ABS/Icon_Item_Ammo_3001"
	},
	{
		"ID": 2321,
		"SalePrice": 747.0,
		"BindMoneyBuyPrice": 0.0,
		"Category": "WeaponCategory_Laser",
		"SizeType": "ShipSizeType_S",
		"Rank": "RankType_T3",
		"SubRank": "SubRankType_S2",
		"DamageComposeList": [
			0.20000000298023224,
			0.699999988079071
		],
		"DamageMulti": 1.559999942779541,
		"FireRangeMaxMulti": 0.0,
		"PackedSize": 0.004999999888241291,
		"IconResPath": "Group02_ABS/Icon_Item_Ammo_3001"
	},
	{
		"ID": 2331,
		"SalePrice": 996.0,
		"BindMoneyBuyPrice": 0.0,
		"Category": "WeaponCategory_Laser",
		"SizeType": "ShipSizeType_S",
		"Rank": "RankType_T3",
		"SubRank": "SubRankType_S3",
		"DamageComposeList": [
			0.20000000298023224,
			0.699999988079071
		],
		"DamageMulti": 1.6399999856948853,
		"FireRangeMaxMulti": 0.0,
		"PackedSize": 0.004999999888241291,
		"IconResPath": "Group02_ABS/Icon_Item_Ammo_3001"
	},
	{
		"ID": 2341,
		"SalePrice": 1992.0,
		"BindMoneyBuyPrice": 0.0,
		"Category": "WeaponCategory_Laser",
		"SizeType": "ShipSizeType_S",
		"Rank": "RankType_T3",
		"SubRank": "SubRankType_S4",
		"DamageComposeList": [
			0.20000000298023224,
			0.699999988079071
		],
		"DamageMulti": 1.7100000381469727,
		"FireRangeMaxMulti": 0.0,
		"PackedSize": 0.004999999888241291,
		"IconResPath": "Group02_ABS/Icon_Item_Ammo_3001"
	},
	{
		"ID": 2351,
		"SalePrice": 3486.0,
		"BindMoneyBuyPrice": 0.0,
		"Category": "WeaponCategory_Laser",
		"SizeType": "ShipSizeType_S",
		"Rank": "RankType_T3",
		"SubRank": "SubRankType_S5",
		"DamageComposeList": [
			0.20000000298023224,
			0.699999988079071
		],
		"DamageMulti": 1.7999999523162842,
		"FireRangeMaxMulti": 0.0,
		"PackedSize": 0.004999999888241291,
		"IconResPath": "Group02_ABS/Icon_Item_Ammo_3001"
	},
	{
		"ID": 2112,
		"SalePrice": 24.899999618530273,
		"BindMoneyBuyPrice": 166.0,
		"Category": "WeaponCategory_Laser",
		"SizeType": "ShipSizeType_M",
		"Rank": "RankType_T1",
		"SubRank": "SubRankType_S1",
		"DamageComposeList": [
			0.20000000298023224,
			0.699999988079071
		],
		"DamageMulti": 1.0,
		"FireRangeMaxMulti": 0.0,
		"PackedSize": 0.009999999776482582,
		"IconResPath": "Group02_ABS/Icon_Item_Ammo_3002"
	},
	{
		"ID": 2122,
		"SalePrice": 31.1200008392334,
		"BindMoneyBuyPrice": 0.0,
		"Category": "WeaponCategory_Laser",
		"SizeType": "ShipSizeType_M",
		"Rank": "RankType_T1",
		"SubRank": "SubRankType_S2",
		"DamageComposeList": [
			0.20000000298023224,
			0.699999988079071
		],
		"DamageMulti": 1.0399999618530273,
		"FireRangeMaxMulti": 0.0,
		"PackedSize": 0.009999999776482582,
		"IconResPath": "Group02_ABS/Icon_Item_Ammo_3002"
	},
	{
		"ID": 2132,
		"SalePrice": 37.36000061035156,
		"BindMoneyBuyPrice": 0.0,
		"Category": "WeaponCategory_Laser",
		"SizeType": "ShipSizeType_M",
		"Rank": "RankType_T1",
		"SubRank": "SubRankType_S3",
		"DamageComposeList": [
			0.20000000298023224,
			0.699999988079071
		],
		"DamageMulti": 1.090000033378601,
		"FireRangeMaxMulti": 0.0,
		"PackedSize": 0.009999999776482582,
		"IconResPath": "Group02_ABS/Icon_Item_Ammo_3002"
	},
	{
		"ID": 2142,
		"SalePrice": 74.69999694824219,
		"BindMoneyBuyPrice": 0.0,
		"Category": "WeaponCategory_Laser",
		"SizeType": "ShipSizeType_M",
		"Rank": "RankType_T1",
		"SubRank": "SubRankType_S4",
		"DamageComposeList": [
			0.20000000298023224,
			0.699999988079071
		],
		"DamageMulti": 1.1399999856948853,
		"FireRangeMaxMulti": 0.0,
		"PackedSize": 0.009999999776482582,
		"IconResPath": "Group02_ABS/Icon_Item_Ammo_3002"
	},
	{
		"ID": 2152,
		"SalePrice": 124.5,
		"BindMoneyBuyPrice": 0.0,
		"Category": "WeaponCategory_Laser",
		"SizeType": "ShipSizeType_M",
		"Rank": "RankType_T1",
		"SubRank": "SubRankType_S5",
		"DamageComposeList": [
			0.20000000298023224,
			0.699999988079071
		],
		"DamageMulti": 1.1399999856948853,
		"FireRangeMaxMulti": 0.0,
		"PackedSize": 0.009999999776482582,
		"IconResPath": "Group02_ABS/Icon_Item_Ammo_3002"
	},
	{
		"ID": 2212,
		"SalePrice": 199.1999969482422,
		"BindMoneyBuyPrice": 0.0,
		"Category": "WeaponCategory_Laser",
		"SizeType": "ShipSizeType_M",
		"Rank": "RankType_T2",
		"SubRank": "SubRankType_S1",
		"DamageComposeList": [
			0.20000000298023224,
			0.699999988079071
		],
		"DamageMulti": 1.2000000476837158,
		"FireRangeMaxMulti": 0.0,
		"PackedSize": 0.009999999776482582,
		"IconResPath": "Group02_ABS/Icon_Item_Ammo_3002"
	},
	{
		"ID": 2222,
		"SalePrice": 249.0,
		"BindMoneyBuyPrice": 0.0,
		"Category": "WeaponCategory_Laser",
		"SizeType": "ShipSizeType_M",
		"Rank": "RankType_T2",
		"SubRank": "SubRankType_S2",
		"DamageComposeList": [
			0.20000000298023224,
			0.699999988079071
		],
		"DamageMulti": 1.25,
		"FireRangeMaxMulti": 0.0,
		"PackedSize": 0.009999999776482582,
		"IconResPath": "Group02_ABS/Icon_Item_Ammo_3002"
	},
	{
		"ID": 2232,
		"SalePrice": 298.79998779296875,
		"BindMoneyBuyPrice": 0.0,
		"Category": "WeaponCategory_Laser",
		"SizeType": "ShipSizeType_M",
		"Rank": "RankType_T2",
		"SubRank": "SubRankType_S3",
		"DamageComposeList": [
			0.20000000298023224,
			0.699999988079071
		],
		"DamageMulti": 1.309999942779541,
		"FireRangeMaxMulti": 0.0,
		"PackedSize": 0.009999999776482582,
		"IconResPath": "Group02_ABS/Icon_Item_Ammo_3002"
	},
	{
		"ID": 2242,
		"SalePrice": 597.5999755859375,
		"BindMoneyBuyPrice": 0.0,
		"Category": "WeaponCategory_Laser",
		"SizeType": "ShipSizeType_M",
		"Rank": "RankType_T2",
		"SubRank": "SubRankType_S4",
		"DamageComposeList": [
			0.20000000298023224,
			0.699999988079071
		],
		"DamageMulti": 1.3700000047683716,
		"FireRangeMaxMulti": 0.0,
		"PackedSize": 0.009999999776482582,
		"IconResPath": "Group02_ABS/Icon_Item_Ammo_3002"
	},
	{
		"ID": 2252,
		"SalePrice": 996.0,
		"BindMoneyBuyPrice": 0.0,
		"Category": "WeaponCategory_Laser",
		"SizeType": "ShipSizeType_M",
		"Rank": "RankType_T2",
		"SubRank": "SubRankType_S5",
		"DamageComposeList": [
			0.20000000298023224,
			0.699999988079071
		],
		"DamageMulti": 1.440000057220459,
		"FireRangeMaxMulti": 0.0,
		"PackedSize": 0.009999999776482582,
		"IconResPath": "Group02_ABS/Icon_Item_Ammo_3002"
	},
	{
		"ID": 2312,
		"SalePrice": 1992.0,
		"BindMoneyBuyPrice": 0.0,
		"Category": "WeaponCategory_Laser",
		"SizeType": "ShipSizeType_M",
		"Rank": "RankType_T3",
		"SubRank": "SubRankType_S1",
		"DamageComposeList": [
			0.20000000298023224,
			0.699999988079071
		],
		"DamageMulti": 1.5,
		"FireRangeMaxMulti": 0.0,
		"PackedSize": 0.009999999776482582,
		"IconResPath": "Group02_ABS/Icon_Item_Ammo_3002"
	},
	{
		"ID": 2322,
		"SalePrice": 2988.0,
		"BindMoneyBuyPrice": 0.0,
		"Category": "WeaponCategory_Laser",
		"SizeType": "ShipSizeType_M",
		"Rank": "RankType_T3",
		"SubRank": "SubRankType_S2",
		"DamageComposeList": [
			0.20000000298023224,
			0.699999988079071
		],
		"DamageMulti": 1.559999942779541,
		"FireRangeMaxMulti": 0.0,
		"PackedSize": 0.009999999776482582,
		"IconResPath": "Group02_ABS/Icon_Item_Ammo_3002"
	},
	{
		"ID": 2332,
		"SalePrice": 3984.0,
		"BindMoneyBuyPrice": 0.0,
		"Category": "WeaponCategory_Laser",
		"SizeType": "ShipSizeType_M",
		"Rank": "RankType_T3",
		"SubRank": "SubRankType_S3",
		"DamageComposeList": [
			0.20000000298023224,
			0.699999988079071
		],
		"DamageMulti": 1.6399999856948853,
		"FireRangeMaxMulti": 0.0,
		"PackedSize": 0.009999999776482582,
		"IconResPath": "Group02_ABS/Icon_Item_Ammo_3002"
	},
	{
		"ID": 2342,
		"SalePrice": 7968.0,
		"BindMoneyBuyPrice": 0.0,
		"Category": "WeaponCategory_Laser",
		"SizeType": "ShipSizeType_M",
		"Rank": "RankType_T3",
		"SubRank": "SubRankType_S4",
		"DamageComposeList": [
			0.20000000298023224,
			0.699999988079071
		],
		"DamageMulti": 1.7100000381469727,
		"FireRangeMaxMulti": 0.0,
		"PackedSize": 0.009999999776482582,
		"IconResPath": "Group02_ABS/Icon_Item_Ammo_3002"
	},
	{
		"ID": 2352,
		"SalePrice": 13944.0,
		"BindMoneyBuyPrice": 0.0,
		"Category": "WeaponCategory_Laser",
		"SizeType": "ShipSizeType_M",
		"Rank": "RankType_T3",
		"SubRank": "SubRankType_S5",
		"DamageComposeList": [
			0.20000000298023224,
			0.699999988079071
		],
		"DamageMulti": 1.7999999523162842,
		"FireRangeMaxMulti": 0.0,
		"PackedSize": 0.009999999776482582,
		"IconResPath": "Group02_ABS/Icon_Item_Ammo_3002"
	},
	{
		"ID": 2113,
		"SalePrice": 43.58000183105469,
		"BindMoneyBuyPrice": 291.0,
		"Category": "WeaponCategory_Laser",
		"SizeType": "ShipSizeType_L",
		"Rank": "RankType_T1",
		"SubRank": "SubRankType_S1",
		"DamageComposeList": [
			0.20000000298023224,
			0.699999988079071
		],
		"DamageMulti": 1.0,
		"FireRangeMaxMulti": 0.0,
		"PackedSize": 0.019999999552965164,
		"IconResPath": "Group02_ABS/Icon_Item_Ammo_3003"
	},
	{
		"ID": 2123,
		"SalePrice": 54.459999084472656,
		"BindMoneyBuyPrice": 0.0,
		"Category": "WeaponCategory_Laser",
		"SizeType": "ShipSizeType_L",
		"Rank": "RankType_T1",
		"SubRank": "SubRankType_S2",
		"DamageComposeList": [
			0.20000000298023224,
			0.699999988079071
		],
		"DamageMulti": 1.0399999618530273,
		"FireRangeMaxMulti": 0.0,
		"PackedSize": 0.019999999552965164,
		"IconResPath": "Group02_ABS/Icon_Item_Ammo_3003"
	},
	{
		"ID": 2133,
		"SalePrice": 65.36000061035156,
		"BindMoneyBuyPrice": 0.0,
		"Category": "WeaponCategory_Laser",
		"SizeType": "ShipSizeType_L",
		"Rank": "RankType_T1",
		"SubRank": "SubRankType_S3",
		"DamageComposeList": [
			0.20000000298023224,
			0.699999988079071
		],
		"DamageMulti": 1.090000033378601,
		"FireRangeMaxMulti": 0.0,
		"PackedSize": 0.019999999552965164,
		"IconResPath": "Group02_ABS/Icon_Item_Ammo_3003"
	},
	{
		"ID": 2143,
		"SalePrice": 130.72000122070312,
		"BindMoneyBuyPrice": 0.0,
		"Category": "WeaponCategory_Laser",
		"SizeType": "ShipSizeType_L",
		"Rank": "RankType_T1",
		"SubRank": "SubRankType_S4",
		"DamageComposeList": [
			0.20000000298023224,
			0.699999988079071
		],
		"DamageMulti": 1.1399999856948853,
		"FireRangeMaxMulti": 0.0,
		"PackedSize": 0.019999999552965164,
		"IconResPath": "Group02_ABS/Icon_Item_Ammo_3003"
	},
	{
		"ID": 2153,
		"SalePrice": 217.8800048828125,
		"BindMoneyBuyPrice": 0.0,
		"Category": "WeaponCategory_Laser",
		"SizeType": "ShipSizeType_L",
		"Rank": "RankType_T1",
		"SubRank": "SubRankType_S5",
		"DamageComposeList": [
			0.20000000298023224,
			0.699999988079071
		],
		"DamageMulti": 1.1399999856948853,
		"FireRangeMaxMulti": 0.0,
		"PackedSize": 0.019999999552965164,
		"IconResPath": "Group02_ABS/Icon_Item_Ammo_3003"
	},
	{
		"ID": 2213,
		"SalePrice": 348.6000061035156,
		"BindMoneyBuyPrice": 0.0,
		"Category": "WeaponCategory_Laser",
		"SizeType": "ShipSizeType_L",
		"Rank": "RankType_T2",
		"SubRank": "SubRankType_S1",
		"DamageComposeList": [
			0.20000000298023224,
			0.699999988079071
		],
		"DamageMulti": 1.2000000476837158,
		"FireRangeMaxMulti": 0.0,
		"PackedSize": 0.019999999552965164,
		"IconResPath": "Group02_ABS/Icon_Item_Ammo_3003"
	},
	{
		"ID": 2223,
		"SalePrice": 435.760009765625,
		"BindMoneyBuyPrice": 0.0,
		"Category": "WeaponCategory_Laser",
		"SizeType": "ShipSizeType_L",
		"Rank": "RankType_T2",
		"SubRank": "SubRankType_S2",
		"DamageComposeList": [
			0.20000000298023224,
			0.699999988079071
		],
		"DamageMulti": 1.25,
		"FireRangeMaxMulti": 0.0,
		"PackedSize": 0.019999999552965164,
		"IconResPath": "Group02_ABS/Icon_Item_Ammo_3003"
	},
	{
		"ID": 2233,
		"SalePrice": 522.9000244140625,
		"BindMoneyBuyPrice": 0.0,
		"Category": "WeaponCategory_Laser",
		"SizeType": "ShipSizeType_L",
		"Rank": "RankType_T2",
		"SubRank": "SubRankType_S3",
		"DamageComposeList": [
			0.20000000298023224,
			0.699999988079071
		],
		"DamageMulti": 1.309999942779541,
		"FireRangeMaxMulti": 0.0,
		"PackedSize": 0.019999999552965164,
		"IconResPath": "Group02_ABS/Icon_Item_Ammo_3003"
	},
	{
		"ID": 2243,
		"SalePrice": 1045.800048828125,
		"BindMoneyBuyPrice": 0.0,
		"Category": "WeaponCategory_Laser",
		"SizeType": "ShipSizeType_L",
		"Rank": "RankType_T2",
		"SubRank": "SubRankType_S4",
		"DamageComposeList": [
			0.20000000298023224,
			0.699999988079071
		],
		"DamageMulti": 1.3700000047683716,
		"FireRangeMaxMulti": 0.0,
		"PackedSize": 0.019999999552965164,
		"IconResPath": "Group02_ABS/Icon_Item_Ammo_3003"
	},
	{
		"ID": 2253,
		"SalePrice": 1743.0,
		"BindMoneyBuyPrice": 0.0,
		"Category": "WeaponCategory_Laser",
		"SizeType": "ShipSizeType_L",
		"Rank": "RankType_T2",
		"SubRank": "SubRankType_S5",
		"DamageComposeList": [
			0.20000000298023224,
			0.699999988079071
		],
		"DamageMulti": 1.440000057220459,
		"FireRangeMaxMulti": 0.0,
		"PackedSize": 0.019999999552965164,
		"IconResPath": "Group02_ABS/Icon_Item_Ammo_3003"
	},
	{
		"ID": 2313,
		"SalePrice": 3486.0,
		"BindMoneyBuyPrice": 0.0,
		"Category": "WeaponCategory_Laser",
		"SizeType": "ShipSizeType_L",
		"Rank": "RankType_T3",
		"SubRank": "SubRankType_S1",
		"DamageComposeList": [
			0.20000000298023224,
			0.699999988079071
		],
		"DamageMulti": 1.5,
		"FireRangeMaxMulti": 0.0,
		"PackedSize": 0.019999999552965164,
		"IconResPath": "Group02_ABS/Icon_Item_Ammo_3003"
	},
	{
		"ID": 2323,
		"SalePrice": 5229.0,
		"BindMoneyBuyPrice": 0.0,
		"Category": "WeaponCategory_Laser",
		"SizeType": "ShipSizeType_L",
		"Rank": "RankType_T3",
		"SubRank": "SubRankType_S2",
		"DamageComposeList": [
			0.20000000298023224,
			0.699999988079071
		],
		"DamageMulti": 1.559999942779541,
		"FireRangeMaxMulti": 0.0,
		"PackedSize": 0.019999999552965164,
		"IconResPath": "Group02_ABS/Icon_Item_Ammo_3003"
	},
	{
		"ID": 2333,
		"SalePrice": 6972.0,
		"BindMoneyBuyPrice": 0.0,
		"Category": "WeaponCategory_Laser",
		"SizeType": "ShipSizeType_L",
		"Rank": "RankType_T3",
		"SubRank": "SubRankType_S3",
		"DamageComposeList": [
			0.20000000298023224,
			0.699999988079071
		],
		"DamageMulti": 1.6399999856948853,
		"FireRangeMaxMulti": 0.0,
		"PackedSize": 0.019999999552965164,
		"IconResPath": "Group02_ABS/Icon_Item_Ammo_3003"
	},
	{
		"ID": 2343,
		"SalePrice": 13944.0,
		"BindMoneyBuyPrice": 0.0,
		"Category": "WeaponCategory_Laser",
		"SizeType": "ShipSizeType_L",
		"Rank": "RankType_T3",
		"SubRank": "SubRankType_S4",
		"DamageComposeList": [
			0.20000000298023224,
			0.699999988079071
		],
		"DamageMulti": 1.7100000381469727,
		"FireRangeMaxMulti": 0.0,
		"PackedSize": 0.019999999552965164,
		"IconResPath": "Group02_ABS/Icon_Item_Ammo_3003"
	},
	{
		"ID": 2353,
		"SalePrice": 24402.0,
		"BindMoneyBuyPrice": 0.0,
		"Category": "WeaponCategory_Laser",
		"SizeType": "ShipSizeType_L",
		"Rank": "RankType_T3",
		"SubRank": "SubRankType_S5",
		"DamageComposeList": [
			0.20000000298023224,
			0.699999988079071
		],
		"DamageMulti": 1.7999999523162842,
		"FireRangeMaxMulti": 0.0,
		"PackedSize": 0.019999999552965164,
		"IconResPath": "Group02_ABS/Icon_Item_Ammo_3003"
	},
	{
		"ID": 3111,
		"SalePrice": 0.3149999976158142,
		"BindMoneyBuyPrice": 2.0,
		"Category": "WeaponCategory_Plasma",
		"SizeType": "ShipSizeType_S",
		"Rank": "RankType_T1",
		"SubRank": "SubRankType_S1",
		"DamageComposeList": [
			0.10000000149011612,
			0.20000000298023224
		],
		"DamageMulti": 1.0,
		"FireRangeMaxMulti": 0.0,
		"PackedSize": 0.00033000000985339284,
		"IconResPath": "Group02_ABS/Icon_Item_Ammo_2001"
	},
	{
		"ID": 3121,
		"SalePrice": 0.39375001192092896,
		"BindMoneyBuyPrice": 0.0,
		"Category": "WeaponCategory_Plasma",
		"SizeType": "ShipSizeType_S",
		"Rank": "RankType_T1",
		"SubRank": "SubRankType_S2",
		"DamageComposeList": [
			0.10000000149011612,
			0.20000000298023224
		],
		"DamageMulti": 1.0399999618530273,
		"FireRangeMaxMulti": 0.0,
		"PackedSize": 0.00033000000985339284,
		"IconResPath": "Group02_ABS/Icon_Item_Ammo_2001"
	},
	{
		"ID": 3131,
		"SalePrice": 0.4724999964237213,
		"BindMoneyBuyPrice": 0.0,
		"Category": "WeaponCategory_Plasma",
		"SizeType": "ShipSizeType_S",
		"Rank": "RankType_T1",
		"SubRank": "SubRankType_S3",
		"DamageComposeList": [
			0.10000000149011612,
			0.20000000298023224
		],
		"DamageMulti": 1.090000033378601,
		"FireRangeMaxMulti": 0.0,
		"PackedSize": 0.00033000000985339284,
		"IconResPath": "Group02_ABS/Icon_Item_Ammo_2001"
	},
	{
		"ID": 3141,
		"SalePrice": 0.9449999928474426,
		"BindMoneyBuyPrice": 0.0,
		"Category": "WeaponCategory_Plasma",
		"SizeType": "ShipSizeType_S",
		"Rank": "RankType_T1",
		"SubRank": "SubRankType_S4",
		"DamageComposeList": [
			0.10000000149011612,
			0.20000000298023224
		],
		"DamageMulti": 1.1399999856948853,
		"FireRangeMaxMulti": 0.0,
		"PackedSize": 0.00033000000985339284,
		"IconResPath": "Group02_ABS/Icon_Item_Ammo_2001"
	},
	{
		"ID": 3151,
		"SalePrice": 1.5750000476837158,
		"BindMoneyBuyPrice": 0.0,
		"Category": "WeaponCategory_Plasma",
		"SizeType": "ShipSizeType_S",
		"Rank": "RankType_T1",
		"SubRank": "SubRankType_S5",
		"DamageComposeList": [
			0.10000000149011612,
			0.20000000298023224
		],
		"DamageMulti": 1.1399999856948853,
		"FireRangeMaxMulti": 0.0,
		"PackedSize": 0.00033000000985339284,
		"IconResPath": "Group02_ABS/Icon_Item_Ammo_2001"
	},
	{
		"ID": 3211,
		"SalePrice": 2.5199999809265137,
		"BindMoneyBuyPrice": 0.0,
		"Category": "WeaponCategory_Plasma",
		"SizeType": "ShipSizeType_S",
		"Rank": "RankType_T2",
		"SubRank": "SubRankType_S1",
		"DamageComposeList": [
			0.10000000149011612,
			0.20000000298023224
		],
		"DamageMulti": 1.2000000476837158,
		"FireRangeMaxMulti": 0.0,
		"PackedSize": 0.00033000000985339284,
		"IconResPath": "Group02_ABS/Icon_Item_Ammo_2001"
	},
	{
		"ID": 3221,
		"SalePrice": 3.1500000953674316,
		"BindMoneyBuyPrice": 0.0,
		"Category": "WeaponCategory_Plasma",
		"SizeType": "ShipSizeType_S",
		"Rank": "RankType_T2",
		"SubRank": "SubRankType_S2",
		"DamageComposeList": [
			0.10000000149011612,
			0.20000000298023224
		],
		"DamageMulti": 1.25,
		"FireRangeMaxMulti": 0.0,
		"PackedSize": 0.00033000000985339284,
		"IconResPath": "Group02_ABS/Icon_Item_Ammo_2001"
	},
	{
		"ID": 3231,
		"SalePrice": 3.7799999713897705,
		"BindMoneyBuyPrice": 0.0,
		"Category": "WeaponCategory_Plasma",
		"SizeType": "ShipSizeType_S",
		"Rank": "RankType_T2",
		"SubRank": "SubRankType_S3",
		"DamageComposeList": [
			0.10000000149011612,
			0.20000000298023224
		],
		"DamageMulti": 1.309999942779541,
		"FireRangeMaxMulti": 0.0,
		"PackedSize": 0.00033000000985339284,
		"IconResPath": "Group02_ABS/Icon_Item_Ammo_2001"
	},
	{
		"ID": 3241,
		"SalePrice": 7.559999942779541,
		"BindMoneyBuyPrice": 0.0,
		"Category": "WeaponCategory_Plasma",
		"SizeType": "ShipSizeType_S",
		"Rank": "RankType_T2",
		"SubRank": "SubRankType_S4",
		"DamageComposeList": [
			0.10000000149011612,
			0.20000000298023224
		],
		"DamageMulti": 1.3700000047683716,
		"FireRangeMaxMulti": 0.0,
		"PackedSize": 0.00033000000985339284,
		"IconResPath": "Group02_ABS/Icon_Item_Ammo_2001"
	},
	{
		"ID": 3251,
		"SalePrice": 12.600000381469727,
		"BindMoneyBuyPrice": 0.0,
		"Category": "WeaponCategory_Plasma",
		"SizeType": "ShipSizeType_S",
		"Rank": "RankType_T2",
		"SubRank": "SubRankType_S5",
		"DamageComposeList": [
			0.10000000149011612,
			0.20000000298023224
		],
		"DamageMulti": 1.440000057220459,
		"FireRangeMaxMulti": 0.0,
		"PackedSize": 0.00033000000985339284,
		"IconResPath": "Group02_ABS/Icon_Item_Ammo_2001"
	},
	{
		"ID": 3311,
		"SalePrice": 25.200000762939453,
		"BindMoneyBuyPrice": 0.0,
		"Category": "WeaponCategory_Plasma",
		"SizeType": "ShipSizeType_S",
		"Rank": "RankType_T3",
		"SubRank": "SubRankType_S1",
		"DamageComposeList": [
			0.10000000149011612,
			0.20000000298023224
		],
		"DamageMulti": 1.5,
		"FireRangeMaxMulti": 0.0,
		"PackedSize": 0.00033000000985339284,
		"IconResPath": "Group02_ABS/Icon_Item_Ammo_2001"
	},
	{
		"ID": 3321,
		"SalePrice": 37.79999923706055,
		"BindMoneyBuyPrice": 0.0,
		"Category": "WeaponCategory_Plasma",
		"SizeType": "ShipSizeType_S",
		"Rank": "RankType_T3",
		"SubRank": "SubRankType_S2",
		"DamageComposeList": [
			0.10000000149011612,
			0.20000000298023224
		],
		"DamageMulti": 1.559999942779541,
		"FireRangeMaxMulti": 0.0,
		"PackedSize": 0.00033000000985339284,
		"IconResPath": "Group02_ABS/Icon_Item_Ammo_2001"
	},
	{
		"ID": 3331,
		"SalePrice": 50.400001525878906,
		"BindMoneyBuyPrice": 0.0,
		"Category": "WeaponCategory_Plasma",
		"SizeType": "ShipSizeType_S",
		"Rank": "RankType_T3",
		"SubRank": "SubRankType_S3",
		"DamageComposeList": [
			0.10000000149011612,
			0.20000000298023224
		],
		"DamageMulti": 1.6399999856948853,
		"FireRangeMaxMulti": 0.0,
		"PackedSize": 0.00033000000985339284,
		"IconResPath": "Group02_ABS/Icon_Item_Ammo_2001"
	},
	{
		"ID": 3341,
		"SalePrice": 100.80000305175781,
		"BindMoneyBuyPrice": 0.0,
		"Category": "WeaponCategory_Plasma",
		"SizeType": "ShipSizeType_S",
		"Rank": "RankType_T3",
		"SubRank": "SubRankType_S4",
		"DamageComposeList": [
			0.10000000149011612,
			0.20000000298023224
		],
		"DamageMulti": 1.7100000381469727,
		"FireRangeMaxMulti": 0.0,
		"PackedSize": 0.00033000000985339284,
		"IconResPath": "Group02_ABS/Icon_Item_Ammo_2001"
	},
	{
		"ID": 3351,
		"SalePrice": 176.39999389648438,
		"BindMoneyBuyPrice": 0.0,
		"Category": "WeaponCategory_Plasma",
		"SizeType": "ShipSizeType_S",
		"Rank": "RankType_T3",
		"SubRank": "SubRankType_S5",
		"DamageComposeList": [
			0.10000000149011612,
			0.20000000298023224
		],
		"DamageMulti": 1.7999999523162842,
		"FireRangeMaxMulti": 0.0,
		"PackedSize": 0.00033000000985339284,
		"IconResPath": "Group02_ABS/Icon_Item_Ammo_2001"
	},
	{
		"ID": 3112,
		"SalePrice": 1.2599999904632568,
		"BindMoneyBuyPrice": 9.0,
		"Category": "WeaponCategory_Plasma",
		"SizeType": "ShipSizeType_M",
		"Rank": "RankType_T1",
		"SubRank": "SubRankType_S1",
		"DamageComposeList": [
			0.10000000149011612,
			0.20000000298023224
		],
		"DamageMulti": 1.0,
		"FireRangeMaxMulti": 0.0,
		"PackedSize": 0.0006600000197067857,
		"IconResPath": "Group02_ABS/Icon_Item_Ammo_2002"
	},
	{
		"ID": 3122,
		"SalePrice": 1.5750000476837158,
		"BindMoneyBuyPrice": 0.0,
		"Category": "WeaponCategory_Plasma",
		"SizeType": "ShipSizeType_M",
		"Rank": "RankType_T1",
		"SubRank": "SubRankType_S2",
		"DamageComposeList": [
			0.10000000149011612,
			0.20000000298023224
		],
		"DamageMulti": 1.0399999618530273,
		"FireRangeMaxMulti": 0.0,
		"PackedSize": 0.0006600000197067857,
		"IconResPath": "Group02_ABS/Icon_Item_Ammo_2002"
	},
	{
		"ID": 3132,
		"SalePrice": 1.8899999856948853,
		"BindMoneyBuyPrice": 0.0,
		"Category": "WeaponCategory_Plasma",
		"SizeType": "ShipSizeType_M",
		"Rank": "RankType_T1",
		"SubRank": "SubRankType_S3",
		"DamageComposeList": [
			0.10000000149011612,
			0.20000000298023224
		],
		"DamageMulti": 1.090000033378601,
		"FireRangeMaxMulti": 0.0,
		"PackedSize": 0.0006600000197067857,
		"IconResPath": "Group02_ABS/Icon_Item_Ammo_2002"
	},
	{
		"ID": 3142,
		"SalePrice": 3.7799999713897705,
		"BindMoneyBuyPrice": 0.0,
		"Category": "WeaponCategory_Plasma",
		"SizeType": "ShipSizeType_M",
		"Rank": "RankType_T1",
		"SubRank": "SubRankType_S4",
		"DamageComposeList": [
			0.10000000149011612,
			0.20000000298023224
		],
		"DamageMulti": 1.1399999856948853,
		"FireRangeMaxMulti": 0.0,
		"PackedSize": 0.0006600000197067857,
		"IconResPath": "Group02_ABS/Icon_Item_Ammo_2002"
	},
	{
		"ID": 3152,
		"SalePrice": 6.300000190734863,
		"BindMoneyBuyPrice": 0.0,
		"Category": "WeaponCategory_Plasma",
		"SizeType": "ShipSizeType_M",
		"Rank": "RankType_T1",
		"SubRank": "SubRankType_S5",
		"DamageComposeList": [
			0.10000000149011612,
			0.20000000298023224
		],
		"DamageMulti": 1.1399999856948853,
		"FireRangeMaxMulti": 0.0,
		"PackedSize": 0.0006600000197067857,
		"IconResPath": "Group02_ABS/Icon_Item_Ammo_2002"
	},
	{
		"ID": 3212,
		"SalePrice": 10.079999923706055,
		"BindMoneyBuyPrice": 0.0,
		"Category": "WeaponCategory_Plasma",
		"SizeType": "ShipSizeType_M",
		"Rank": "RankType_T2",
		"SubRank": "SubRankType_S1",
		"DamageComposeList": [
			0.10000000149011612,
			0.20000000298023224
		],
		"DamageMulti": 1.2000000476837158,
		"FireRangeMaxMulti": 0.0,
		"PackedSize": 0.0006600000197067857,
		"IconResPath": "Group02_ABS/Icon_Item_Ammo_2002"
	},
	{
		"ID": 3222,
		"SalePrice": 12.600000381469727,
		"BindMoneyBuyPrice": 0.0,
		"Category": "WeaponCategory_Plasma",
		"SizeType": "ShipSizeType_M",
		"Rank": "RankType_T2",
		"SubRank": "SubRankType_S2",
		"DamageComposeList": [
			0.10000000149011612,
			0.20000000298023224
		],
		"DamageMulti": 1.25,
		"FireRangeMaxMulti": 0.0,
		"PackedSize": 0.0006600000197067857,
		"IconResPath": "Group02_ABS/Icon_Item_Ammo_2002"
	},
	{
		"ID": 3232,
		"SalePrice": 15.119999885559082,
		"BindMoneyBuyPrice": 0.0,
		"Category": "WeaponCategory_Plasma",
		"SizeType": "ShipSizeType_M",
		"Rank": "RankType_T2",
		"SubRank": "SubRankType_S3",
		"DamageComposeList": [
			0.10000000149011612,
			0.20000000298023224
		],
		"DamageMulti": 1.309999942779541,
		"FireRangeMaxMulti": 0.0,
		"PackedSize": 0.0006600000197067857,
		"IconResPath": "Group02_ABS/Icon_Item_Ammo_2002"
	},
	{
		"ID": 3242,
		"SalePrice": 30.239999771118164,
		"BindMoneyBuyPrice": 0.0,
		"Category": "WeaponCategory_Plasma",
		"SizeType": "ShipSizeType_M",
		"Rank": "RankType_T2",
		"SubRank": "SubRankType_S4",
		"DamageComposeList": [
			0.10000000149011612,
			0.20000000298023224
		],
		"DamageMulti": 1.3700000047683716,
		"FireRangeMaxMulti": 0.0,
		"PackedSize": 0.0006600000197067857,
		"IconResPath": "Group02_ABS/Icon_Item_Ammo_2002"
	},
	{
		"ID": 3252,
		"SalePrice": 50.400001525878906,
		"BindMoneyBuyPrice": 0.0,
		"Category": "WeaponCategory_Plasma",
		"SizeType": "ShipSizeType_M",
		"Rank": "RankType_T2",
		"SubRank": "SubRankType_S5",
		"DamageComposeList": [
			0.10000000149011612,
			0.20000000298023224
		],
		"DamageMulti": 1.440000057220459,
		"FireRangeMaxMulti": 0.0,
		"PackedSize": 0.0006600000197067857,
		"IconResPath": "Group02_ABS/Icon_Item_Ammo_2002"
	},
	{
		"ID": 3312,
		"SalePrice": 100.80000305175781,
		"BindMoneyBuyPrice": 0.0,
		"Category": "WeaponCategory_Plasma",
		"SizeType": "ShipSizeType_M",
		"Rank": "RankType_T3",
		"SubRank": "SubRankType_S1",
		"DamageComposeList": [
			0.10000000149011612,
			0.20000000298023224
		],
		"DamageMulti": 1.5,
		"FireRangeMaxMulti": 0.0,
		"PackedSize": 0.0006600000197067857,
		"IconResPath": "Group02_ABS/Icon_Item_Ammo_2002"
	},
	{
		"ID": 3322,
		"SalePrice": 151.1999969482422,
		"BindMoneyBuyPrice": 0.0,
		"Category": "WeaponCategory_Plasma",
		"SizeType": "ShipSizeType_M",
		"Rank": "RankType_T3",
		"SubRank": "SubRankType_S2",
		"DamageComposeList": [
			0.10000000149011612,
			0.20000000298023224
		],
		"DamageMulti": 1.559999942779541,
		"FireRangeMaxMulti": 0.0,
		"PackedSize": 0.0006600000197067857,
		"IconResPath": "Group02_ABS/Icon_Item_Ammo_2002"
	},
	{
		"ID": 3332,
		"SalePrice": 201.60000610351562,
		"BindMoneyBuyPrice": 0.0,
		"Category": "WeaponCategory_Plasma",
		"SizeType": "ShipSizeType_M",
		"Rank": "RankType_T3",
		"SubRank": "SubRankType_S3",
		"DamageComposeList": [
			0.10000000149011612,
			0.20000000298023224
		],
		"DamageMulti": 1.6399999856948853,
		"FireRangeMaxMulti": 0.0,
		"PackedSize": 0.0006600000197067857,
		"IconResPath": "Group02_ABS/Icon_Item_Ammo_2002"
	},
	{
		"ID": 3342,
		"SalePrice": 403.20001220703125,
		"BindMoneyBuyPrice": 0.0,
		"Category": "WeaponCategory_Plasma",
		"SizeType": "ShipSizeType_M",
		"Rank": "RankType_T3",
		"SubRank": "SubRankType_S4",
		"DamageComposeList": [
			0.10000000149011612,
			0.20000000298023224
		],
		"DamageMulti": 1.7100000381469727,
		"FireRangeMaxMulti": 0.0,
		"PackedSize": 0.0006600000197067857,
		"IconResPath": "Group02_ABS/Icon_Item_Ammo_2002"
	},
	{
		"ID": 3352,
		"SalePrice": 705.5999755859375,
		"BindMoneyBuyPrice": 0.0,
		"Category": "WeaponCategory_Plasma",
		"SizeType": "ShipSizeType_M",
		"Rank": "RankType_T3",
		"SubRank": "SubRankType_S5",
		"DamageComposeList": [
			0.10000000149011612,
			0.20000000298023224
		],
		"DamageMulti": 1.7999999523162842,
		"FireRangeMaxMulti": 0.0,
		"PackedSize": 0.0006600000197067857,
		"IconResPath": "Group02_ABS/Icon_Item_Ammo_2002"
	},
	{
		"ID": 3113,
		"SalePrice": 2.2049999237060547,
		"BindMoneyBuyPrice": 15.0,
		"Category": "WeaponCategory_Plasma",
		"SizeType": "ShipSizeType_L",
		"Rank": "RankType_T1",
		"SubRank": "SubRankType_S1",
		"DamageComposeList": [
			0.10000000149011612,
			0.20000000298023224
		],
		"DamageMulti": 1.0,
		"FireRangeMaxMulti": 0.0,
		"PackedSize": 0.0013299999991431832,
		"IconResPath": "Group02_ABS/Icon_Item_Ammo_2003"
	},
	{
		"ID": 3123,
		"SalePrice": 2.7562499046325684,
		"BindMoneyBuyPrice": 0.0,
		"Category": "WeaponCategory_Plasma",
		"SizeType": "ShipSizeType_L",
		"Rank": "RankType_T1",
		"SubRank": "SubRankType_S2",
		"DamageComposeList": [
			0.10000000149011612,
			0.20000000298023224
		],
		"DamageMulti": 1.0399999618530273,
		"FireRangeMaxMulti": 0.0,
		"PackedSize": 0.0013299999991431832,
		"IconResPath": "Group02_ABS/Icon_Item_Ammo_2003"
	},
	{
		"ID": 3133,
		"SalePrice": 3.307499885559082,
		"BindMoneyBuyPrice": 0.0,
		"Category": "WeaponCategory_Plasma",
		"SizeType": "ShipSizeType_L",
		"Rank": "RankType_T1",
		"SubRank": "SubRankType_S3",
		"DamageComposeList": [
			0.10000000149011612,
			0.20000000298023224
		],
		"DamageMulti": 1.090000033378601,
		"FireRangeMaxMulti": 0.0,
		"PackedSize": 0.0013299999991431832,
		"IconResPath": "Group02_ABS/Icon_Item_Ammo_2003"
	},
	{
		"ID": 3143,
		"SalePrice": 6.614999771118164,
		"BindMoneyBuyPrice": 0.0,
		"Category": "WeaponCategory_Plasma",
		"SizeType": "ShipSizeType_L",
		"Rank": "RankType_T1",
		"SubRank": "SubRankType_S4",
		"DamageComposeList": [
			0.10000000149011612,
			0.20000000298023224
		],
		"DamageMulti": 1.1399999856948853,
		"FireRangeMaxMulti": 0.0,
		"PackedSize": 0.0013299999991431832,
		"IconResPath": "Group02_ABS/Icon_Item_Ammo_2003"
	},
	{
		"ID": 3153,
		"SalePrice": 11.024999618530273,
		"BindMoneyBuyPrice": 0.0,
		"Category": "WeaponCategory_Plasma",
		"SizeType": "ShipSizeType_L",
		"Rank": "RankType_T1",
		"SubRank": "SubRankType_S5",
		"DamageComposeList": [
			0.10000000149011612,
			0.20000000298023224
		],
		"DamageMulti": 1.1399999856948853,
		"FireRangeMaxMulti": 0.0,
		"PackedSize": 0.0013299999991431832,
		"IconResPath": "Group02_ABS/Icon_Item_Ammo_2003"
	},
	{
		"ID": 3213,
		"SalePrice": 17.639999389648438,
		"BindMoneyBuyPrice": 0.0,
		"Category": "WeaponCategory_Plasma",
		"SizeType": "ShipSizeType_L",
		"Rank": "RankType_T2",
		"SubRank": "SubRankType_S1",
		"DamageComposeList": [
			0.10000000149011612,
			0.20000000298023224
		],
		"DamageMulti": 1.2000000476837158,
		"FireRangeMaxMulti": 0.0,
		"PackedSize": 0.0013299999991431832,
		"IconResPath": "Group02_ABS/Icon_Item_Ammo_2003"
	},
	{
		"ID": 3223,
		"SalePrice": 22.049999237060547,
		"BindMoneyBuyPrice": 0.0,
		"Category": "WeaponCategory_Plasma",
		"SizeType": "ShipSizeType_L",
		"Rank": "RankType_T2",
		"SubRank": "SubRankType_S2",
		"DamageComposeList": [
			0.10000000149011612,
			0.20000000298023224
		],
		"DamageMulti": 1.25,
		"FireRangeMaxMulti": 0.0,
		"PackedSize": 0.0013299999991431832,
		"IconResPath": "Group02_ABS/Icon_Item_Ammo_2003"
	},
	{
		"ID": 3233,
		"SalePrice": 26.459999084472656,
		"BindMoneyBuyPrice": 0.0,
		"Category": "WeaponCategory_Plasma",
		"SizeType": "ShipSizeType_L",
		"Rank": "RankType_T2",
		"SubRank": "SubRankType_S3",
		"DamageComposeList": [
			0.10000000149011612,
			0.20000000298023224
		],
		"DamageMulti": 1.309999942779541,
		"FireRangeMaxMulti": 0.0,
		"PackedSize": 0.0013299999991431832,
		"IconResPath": "Group02_ABS/Icon_Item_Ammo_2003"
	},
	{
		"ID": 3243,
		"SalePrice": 52.91999816894531,
		"BindMoneyBuyPrice": 0.0,
		"Category": "WeaponCategory_Plasma",
		"SizeType": "ShipSizeType_L",
		"Rank": "RankType_T2",
		"SubRank": "SubRankType_S4",
		"DamageComposeList": [
			0.10000000149011612,
			0.20000000298023224
		],
		"DamageMulti": 1.3700000047683716,
		"FireRangeMaxMulti": 0.0,
		"PackedSize": 0.0013299999991431832,
		"IconResPath": "Group02_ABS/Icon_Item_Ammo_2003"
	},
	{
		"ID": 3253,
		"SalePrice": 88.19999694824219,
		"BindMoneyBuyPrice": 0.0,
		"Category": "WeaponCategory_Plasma",
		"SizeType": "ShipSizeType_L",
		"Rank": "RankType_T2",
		"SubRank": "SubRankType_S5",
		"DamageComposeList": [
			0.10000000149011612,
			0.20000000298023224
		],
		"DamageMulti": 1.440000057220459,
		"FireRangeMaxMulti": 0.0,
		"PackedSize": 0.0013299999991431832,
		"IconResPath": "Group02_ABS/Icon_Item_Ammo_2003"
	},
	{
		"ID": 3313,
		"SalePrice": 176.39999389648438,
		"BindMoneyBuyPrice": 0.0,
		"Category": "WeaponCategory_Plasma",
		"SizeType": "ShipSizeType_L",
		"Rank": "RankType_T3",
		"SubRank": "SubRankType_S1",
		"DamageComposeList": [
			0.10000000149011612,
			0.20000000298023224
		],
		"DamageMulti": 1.5,
		"FireRangeMaxMulti": 0.0,
		"PackedSize": 0.0013299999991431832,
		"IconResPath": "Group02_ABS/Icon_Item_Ammo_2003"
	},
	{
		"ID": 3323,
		"SalePrice": 264.6000061035156,
		"BindMoneyBuyPrice": 0.0,
		"Category": "WeaponCategory_Plasma",
		"SizeType": "ShipSizeType_L",
		"Rank": "RankType_T3",
		"SubRank": "SubRankType_S2",
		"DamageComposeList": [
			0.10000000149011612,
			0.20000000298023224
		],
		"DamageMulti": 1.559999942779541,
		"FireRangeMaxMulti": 0.0,
		"PackedSize": 0.0013299999991431832,
		"IconResPath": "Group02_ABS/Icon_Item_Ammo_2003"
	},
	{
		"ID": 3333,
		"SalePrice": 352.79998779296875,
		"BindMoneyBuyPrice": 0.0,
		"Category": "WeaponCategory_Plasma",
		"SizeType": "ShipSizeType_L",
		"Rank": "RankType_T3",
		"SubRank": "SubRankType_S3",
		"DamageComposeList": [
			0.10000000149011612,
			0.20000000298023224
		],
		"DamageMulti": 1.6399999856948853,
		"FireRangeMaxMulti": 0.0,
		"PackedSize": 0.0013299999991431832,
		"IconResPath": "Group02_ABS/Icon_Item_Ammo_2003"
	},
	{
		"ID": 3343,
		"SalePrice": 705.5999755859375,
		"BindMoneyBuyPrice": 0.0,
		"Category": "WeaponCategory_Plasma",
		"SizeType": "ShipSizeType_L",
		"Rank": "RankType_T3",
		"SubRank": "SubRankType_S4",
		"DamageComposeList": [
			0.10000000149011612,
			0.20000000298023224
		],
		"DamageMulti": 1.7100000381469727,
		"FireRangeMaxMulti": 0.0,
		"PackedSize": 0.0013299999991431832,
		"IconResPath": "Group02_ABS/Icon_Item_Ammo_2003"
	},
	{
		"ID": 3353,
		"SalePrice": 1234.800048828125,
		"BindMoneyBuyPrice": 0.0,
		"Category": "WeaponCategory_Plasma",
		"SizeType": "ShipSizeType_L",
		"Rank": "RankType_T3",
		"SubRank": "SubRankType_S5",
		"DamageComposeList": [
			0.10000000149011612,
			0.20000000298023224
		],
		"DamageMulti": 1.7999999523162842,
		"FireRangeMaxMulti": 0.0,
		"PackedSize": 0.0013299999991431832,
		"IconResPath": "Group02_ABS/Icon_Item_Ammo_2003"
	},
	{
		"ID": 1,
		"SalePrice": 0.0,
		"BindMoneyBuyPrice": 0.0,
		"Category": "WeaponCategory_Railgun",
		"SizeType": "ShipSizeType_S",
		"Rank": "RankType_T1",
		"SubRank": "SubRankType_S1",
		"DamageComposeList": [
			0.800000011920929,
			0.20000000298023224
		],
		"DamageMulti": 1.0,
		"FireRangeMaxMulti": 0.0,
		"PackedSize": 0.0008299999753944576,
		"IconResPath": "Group02_ABS/Icon_Item_Ammo_1001"
	},
	{
		"ID": 2,
		"SalePrice": 0.0,
		"BindMoneyBuyPrice": 0.0,
		"Category": "WeaponCategory_Laser",
		"SizeType": "ShipSizeType_S",
		"Rank": "RankType_T1",
		"SubRank": "SubRankType_S1",
		"DamageComposeList": [
			0.10000000149011612,
			0.800000011920929
		],
		"DamageMulti": 1.0,
		"FireRangeMaxMulti": 0.0,
		"PackedSize": 0.004999999888241291,
		"IconResPath": "Group02_ABS/Icon_Item_Ammo_3001"
	},
	{
		"ID": 3,
		"SalePrice": 0.0,
		"BindMoneyBuyPrice": 0.0,
		"Category": "WeaponCategory_Plasma",
		"SizeType": "ShipSizeType_S",
		"Rank": "RankType_T1",
		"SubRank": "SubRankType_S1",
		"DamageComposeList": [
			0.20000000298023224,
			0.10000000149011612
		],
		"DamageMulti": 1.0,
		"FireRangeMaxMulti": 0.0,
		"PackedSize": 0.00033000000985339284,
		"IconResPath": "Group02_ABS/Icon_Item_Ammo_2001"
	},
	{
		"ID": 4,
		"SalePrice": 0.0,
		"BindMoneyBuyPrice": 0.0,
		"Category": "WeaponCategory_Cannon",
		"SizeType": "ShipSizeType_S",
		"Rank": "RankType_T1",
		"SubRank": "SubRankType_S1",
		"DamageComposeList": [
			0.800000011920929,
			0.20000000298023224
		],
		"DamageMulti": 1.0,
		"FireRangeMaxMulti": 0.0,
		"PackedSize": 0.0,
		"IconResPath": "Group02_ABS/Icon_Item_Ammo_1001"
	},
	{
		"ID": 992001,
		"SalePrice": 0.0,
		"BindMoneyBuyPrice": 0.0,
		"Category": "WeaponCategory_Railgun",
		"SizeType": "ShipSizeType_S",
		"Rank": "RankType_T1",
		"SubRank": "SubRankType_S1",
		"DamageComposeList": [
			0.800000011920929,
			0.20000000298023224
		],
		"DamageMulti": 1.0,
		"FireRangeMaxMulti": 0.0,
		"PackedSize": 0.0008299999753944576,
		"IconResPath": "Group02_ABS/Icon_Item_Ammo_1001"
	},
	{
		"ID": 992021,
		"SalePrice": 0.0,
		"BindMoneyBuyPrice": 0.0,
		"Category": "WeaponCategory_Laser",
		"SizeType": "ShipSizeType_S",
		"Rank": "RankType_T1",
		"SubRank": "SubRankType_S1",
		"DamageComposeList": [
			0.10000000149011612,
			0.800000011920929
		],
		"DamageMulti": 1.0,
		"FireRangeMaxMulti": 0.0,
		"PackedSize": 0.004999999888241291,
		"IconResPath": "Group02_ABS/Icon_Item_Ammo_3001"
	},
	{
		"ID": 992031,
		"SalePrice": 0.0,
		"BindMoneyBuyPrice": 0.0,
		"Category": "WeaponCategory_Plasma",
		"SizeType": "ShipSizeType_S",
		"Rank": "RankType_T1",
		"SubRank": "SubRankType_S1",
		"DamageComposeList": [
			0.20000000298023224,
			0.10000000149011612
		],
		"DamageMulti": 1.0,
		"FireRangeMaxMulti": 0.0,
		"PackedSize": 0.00033000000985339284,
		"IconResPath": "Group02_ABS/Icon_Item_Ammo_2001"
	},
	{
		"ID": 993001,
		"SalePrice": 0.0,
		"BindMoneyBuyPrice": 0.0,
		"Category": "WeaponCategory_Railgun",
		"SizeType": "ShipSizeType_S",
		"Rank": "RankType_T1",
		"SubRank": "SubRankType_S1",
		"DamageComposeList": [
			0.800000011920929,
			0.20000000298023224
		],
		"DamageMulti": 1.0,
		"FireRangeMaxMulti": 0.0,
		"PackedSize": 0.0008299999753944576,
		"IconResPath": "Group02_ABS/Icon_Item_Ammo_1001"
	},
	{
		"ID": 993002,
		"SalePrice": 0.0,
		"BindMoneyBuyPrice": 0.0,
		"Category": "WeaponCategory_Railgun",
		"SizeType": "ShipSizeType_S",
		"Rank": "RankType_T1",
		"SubRank": "SubRankType_S1",
		"DamageComposeList": [
			0.800000011920929,
			0.20000000298023224
		],
		"DamageMulti": 1.0,
		"FireRangeMaxMulti": 0.0,
		"PackedSize": 0.0008299999753944576,
		"IconResPath": "Group02_ABS/Icon_Item_Ammo_1001"
	},
	{
		"ID": 993021,
		"SalePrice": 0.0,
		"BindMoneyBuyPrice": 0.0,
		"Category": "WeaponCategory_Laser",
		"SizeType": "ShipSizeType_S",
		"Rank": "RankType_T1",
		"SubRank": "SubRankType_S1",
		"DamageComposeList": [
			0.10000000149011612,
			0.800000011920929
		],
		"DamageMulti": 1.0,
		"FireRangeMaxMulti": 0.0,
		"PackedSize": 0.004999999888241291,
		"IconResPath": "Group02_ABS/Icon_Item_Ammo_3001"
	},
	{
		"ID": 993031,
		"SalePrice": 0.0,
		"BindMoneyBuyPrice": 0.0,
		"Category": "WeaponCategory_Plasma",
		"SizeType": "ShipSizeType_S",
		"Rank": "RankType_T1",
		"SubRank": "SubRankType_S1",
		"DamageComposeList": [
			0.20000000298023224,
			0.10000000149011612
		],
		"DamageMulti": 1.0,
		"FireRangeMaxMulti": 0.0,
		"PackedSize": 0.00033000000985339284,
		"IconResPath": "Group02_ABS/Icon_Item_Ammo_2001"
	},
	{
		"ID": 993113,
		"SalePrice": 0.6299999952316284,
		"BindMoneyBuyPrice": 21.0,
		"Category": "WeaponCategory_Plasma",
		"SizeType": "ShipSizeType_L",
		"Rank": "RankType_T1",
		"SubRank": "SubRankType_S1",
		"DamageComposeList": [
			0.33329999446868896,
			0.33329999446868896
		],
		"DamageMulti": 1.0,
		"FireRangeMaxMulti": 0.0,
		"PackedSize": 0.0013299999991431832,
		"IconResPath": "Group02_ABS/Icon_Item_Ammo_2003"
	},
	{
		"ID": 991113,
		"SalePrice": 1.6799999475479126,
		"BindMoneyBuyPrice": 56.0,
		"Category": "WeaponCategory_Railgun",
		"SizeType": "ShipSizeType_L",
		"Rank": "RankType_T1",
		"SubRank": "SubRankType_S1",
		"DamageComposeList": [
			0.33329999446868896,
			0.33329999446868896
		],
		"DamageMulti": 1.0,
		"FireRangeMaxMulti": 0.0,
		"PackedSize": 0.003329999977722764,
		"IconResPath": "Group02_ABS/Icon_Item_Ammo_1003"
	},
	{
		"ID": 992113,
		"SalePrice": 11.34000015258789,
		"BindMoneyBuyPrice": 378.0,
		"Category": "WeaponCategory_Laser",
		"SizeType": "ShipSizeType_L",
		"Rank": "RankType_T1",
		"SubRank": "SubRankType_S1",
		"DamageComposeList": [
			0.33329999446868896,
			0.33329999446868896
		],
		"DamageMulti": 1.0,
		"FireRangeMaxMulti": 0.0,
		"PackedSize": 0.019999999552965164,
		"IconResPath": "Group02_ABS/Icon_Item_Ammo_3003"
	},
	{
		"ID": 993213,
		"SalePrice": 5.039999961853027,
		"BindMoneyBuyPrice": 0.0,
		"Category": "WeaponCategory_Plasma",
		"SizeType": "ShipSizeType_L",
		"Rank": "RankType_T2",
		"SubRank": "SubRankType_S1",
		"DamageComposeList": [
			0.33329999446868896,
			0.33329999446868896
		],
		"DamageMulti": 1.5,
		"FireRangeMaxMulti": 0.0,
		"PackedSize": 0.0013299999991431832,
		"IconResPath": "Group02_ABS/Icon_Item_Ammo_2003"
	},
	{
		"ID": 991213,
		"SalePrice": 13.4399995803833,
		"BindMoneyBuyPrice": 0.0,
		"Category": "WeaponCategory_Railgun",
		"SizeType": "ShipSizeType_L",
		"Rank": "RankType_T2",
		"SubRank": "SubRankType_S1",
		"DamageComposeList": [
			0.33329999446868896,
			0.33329999446868896
		],
		"DamageMulti": 1.5,
		"FireRangeMaxMulti": 0.0,
		"PackedSize": 0.003329999977722764,
		"IconResPath": "Group02_ABS/Icon_Item_Ammo_1003"
	},
	{
		"ID": 992213,
		"SalePrice": 90.72000122070312,
		"BindMoneyBuyPrice": 0.0,
		"Category": "WeaponCategory_Laser",
		"SizeType": "ShipSizeType_L",
		"Rank": "RankType_T2",
		"SubRank": "SubRankType_S1",
		"DamageComposeList": [
			0.33329999446868896,
			0.33329999446868896
		],
		"DamageMulti": 1.5,
		"FireRangeMaxMulti": 0.0,
		"PackedSize": 0.019999999552965164,
		"IconResPath": "Group02_ABS/Icon_Item_Ammo_3003"
	},
	{
		"ID": 993313,
		"SalePrice": 40.31999969482422,
		"BindMoneyBuyPrice": 0.0,
		"Category": "WeaponCategory_Plasma",
		"SizeType": "ShipSizeType_L",
		"Rank": "RankType_T3",
		"SubRank": "SubRankType_S1",
		"DamageComposeList": [
			0.33329999446868896,
			0.33329999446868896
		],
		"DamageMulti": 2.1500000953674316,
		"FireRangeMaxMulti": 0.0,
		"PackedSize": 0.0013299999991431832,
		"IconResPath": "Group02_ABS/Icon_Item_Ammo_2003"
	},
	{
		"ID": 991313,
		"SalePrice": 107.5199966430664,
		"BindMoneyBuyPrice": 0.0,
		"Category": "WeaponCategory_Railgun",
		"SizeType": "ShipSizeType_L",
		"Rank": "RankType_T3",
		"SubRank": "SubRankType_S1",
		"DamageComposeList": [
			0.33329999446868896,
			0.33329999446868896
		],
		"DamageMulti": 2.1500000953674316,
		"FireRangeMaxMulti": 0.0,
		"PackedSize": 0.003329999977722764,
		"IconResPath": "Group02_ABS/Icon_Item_Ammo_1003"
	},
	{
		"ID": 992313,
		"SalePrice": 725.760009765625,
		"BindMoneyBuyPrice": 0.0,
		"Category": "WeaponCategory_Laser",
		"SizeType": "ShipSizeType_L",
		"Rank": "RankType_T3",
		"SubRank": "SubRankType_S1",
		"DamageComposeList": [
			0.33329999446868896,
			0.33329999446868896
		],
		"DamageMulti": 2.1500000953674316,
		"FireRangeMaxMulti": 0.0,
		"PackedSize": 0.019999999552965164,
		"IconResPath": "Group02_ABS/Icon_Item_Ammo_3003"
	},
	{
		"ID": 994002,
		"SalePrice": 1.6200000047683716,
		"BindMoneyBuyPrice": 40.0,
		"Category": "WeaponCategory_Laser",
		"SizeType": "ShipSizeType_S",
		"Rank": "RankType_T1",
		"SubRank": "SubRankType_S1",
		"DamageComposeList": [
			0.20000000298023224,
			0.699999988079071
		],
		"DamageMulti": 1.0,
		"FireRangeMaxMulti": 0.0,
		"PackedSize": 0.004999999888241291,
		"IconResPath": "Group02_ABS/Icon_Item_Ammo_3001"
	},
	{
		"ID": 994003,
		"SalePrice": 0.09000000357627869,
		"BindMoneyBuyPrice": 2.0,
		"Category": "WeaponCategory_Plasma",
		"SizeType": "ShipSizeType_S",
		"Rank": "RankType_T1",
		"SubRank": "SubRankType_S1",
		"DamageComposeList": [
			0.10000000149011612,
			0.20000000298023224
		],
		"DamageMulti": 1.0,
		"FireRangeMaxMulti": 0.0,
		"PackedSize": 0.00033000000985339284,
		"IconResPath": "Group02_ABS/Icon_Item_Ammo_2001"
	},
	{
		"ID": 1000,
		"SalePrice": 0.0,
		"BindMoneyBuyPrice": 0.0,
		"Category": "WeaponCategory_NormalAttack",
		"SizeType": "ShipSizeType_S",
		"Rank": "RankType_T1",
		"SubRank": "SubRankType_S1",
		"DamageComposeList": [
			0.33000001311302185,
			0.33000001311302185
		],
		"DamageMulti": 1.0,
		"FireRangeMaxMulti": 0.0,
		"PackedSize": 0.0,
		"IconResPath": "Group02_ABS/Icon_Item_Ammo_1001"
	}
]