[
	{
		"ID": 1,
		"Index": 0,
		"QuestList": [
			9000001,
			9000002,
			9000003,
			9000004,
			9000005,
			9000006,
			9000007,
			9000008
		],
		"TemplateId": 1
	},
	{
		"ID": 2,
		"Index": 1,
		"QuestList": [
			9000009,
			9000010,
			9000011,
			9000012,
			9000013,
			9000014,
			9000015,
			9000016
		],
		"TemplateId": 1
	},
	{
		"ID": 3,
		"Index": 2,
		"QuestList": [
			9000017,
			9000018,
			9000019,
			9000020,
			9000021,
			9000022,
			9000023,
			9000024
		],
		"TemplateId": 1
	},
	{
		"ID": 4,
		"Index": 3,
		"QuestList": [
			9000025,
			9000026,
			9000027,
			9000028,
			9000029,
			9000030,
			9000031,
			9000032
		],
		"TemplateId": 1
	},
	{
		"ID": 5,
		"Index": 4,
		"QuestList": [
			9000033,
			9000034,
			9000035,
			9000036,
			9000037,
			9000038,
			9000039,
			9000040
		],
		"TemplateId": 1
	},
	{
		"ID": 6,
		"Index": 5,
		"QuestList": [
			9000041,
			9000042,
			9000043,
			9000044,
			9000045,
			9000046,
			9000047,
			9000048
		],
		"TemplateId": 1
	},
	{
		"ID": 7,
		"Index": 6,
		"QuestList": [
			9000049,
			9000050,
			9000051,
			9000052,
			9000053,
			9000054,
			9000055,
			9000056
		],
		"TemplateId": 1
	},
	{
		"ID": 8,
		"Index": 7,
		"QuestList": [
			9000057,
			9000058,
			9000059,
			9000060,
			9000061,
			9000062,
			9000063,
			9000064
		],
		"TemplateId": 1
	},
	{
		"ID": 9,
		"Index": 0,
		"QuestList": [
			9000001,
			9000002,
			9000003,
			9000004,
			9000005,
			9000006,
			9000007,
			9000008
		],
		"TemplateId": 2
	},
	{
		"ID": 10,
		"Index": 1,
		"QuestList": [
			9000009,
			9000010,
			9000011,
			9000012,
			9000013,
			9000014,
			9000015,
			9000016
		],
		"TemplateId": 2
	},
	{
		"ID": 11,
		"Index": 2,
		"QuestList": [
			9000017,
			9000018,
			9000019,
			9000020,
			9000021,
			9000022,
			9000023,
			9000024
		],
		"TemplateId": 2
	},
	{
		"ID": 12,
		"Index": 3,
		"QuestList": [
			9000025,
			9000026,
			9000027,
			9000028,
			9000029,
			9000030,
			9000031,
			9000032
		],
		"TemplateId": 2
	},
	{
		"ID": 13,
		"Index": 4,
		"QuestList": [
			9000033,
			9000034,
			9000035,
			9000036,
			9000037,
			9000038,
			9000039,
			9000040
		],
		"TemplateId": 2
	},
	{
		"ID": 14,
		"Index": 5,
		"QuestList": [
			9000041,
			9000042,
			9000043,
			9000044,
			9000045,
			9000046,
			9000047,
			9000048
		],
		"TemplateId": 2
	},
	{
		"ID": 15,
		"Index": 6,
		"QuestList": [
			9000049,
			9000050,
			9000051,
			9000052,
			9000053,
			9000054,
			9000055,
			9000056
		],
		"TemplateId": 2
	},
	{
		"ID": 16,
		"Index": 7,
		"QuestList": [
			9000057,
			9000058,
			9000059,
			9000060,
			9000061,
			9000062,
			9000063,
			9000064
		],
		"TemplateId": 2
	}
]