[
	{
		"ID": 50191,
		"IsPuzzle": true,
		"BgResPath": "",
		"DescStrKey": "ST:127235"
	},
	{
		"ID": 50101,
		"IsPuzzle": false,
		"BgResPath": "Group01_ABS/Icon_UI_Branch_2004",
		"DescStrKey": "ST:119836"
	},
	{
		"ID": 50102,
		"IsPuzzle": false,
		"BgResPath": "Group01_ABS/Icon_UI_Branch_2006",
		"DescStrKey": "ST:119837"
	},
	{
		"ID": 50103,
		"IsPuzzle": false,
		"BgResPath": "Group01_ABS/Icon_UI_Branch_2005",
		"DescStrKey": "ST:119838"
	},
	{
		"ID": 50104,
		"IsPuzzle": false,
		"BgResPath": "Group01_ABS/Icon_UI_Branch_2007",
		"DescStrKey": "ST:119839"
	},
	{
		"ID": 50201,
		"IsPuzzle": false,
		"BgResPath": "Group01_ABS/Icon_UI_Branch_2005",
		"DescStrKey": "ST:119840"
	},
	{
		"ID": 50202,
		"IsPuzzle": false,
		"BgResPath": "Group01_ABS/Icon_UI_Branch_2003",
		"DescStrKey": "ST:126805"
	},
	{
		"ID": 50203,
		"IsPuzzle": false,
		"BgResPath": "Group01_ABS/Icon_UI_Branch_2001",
		"DescStrKey": "ST:129437"
	},
	{
		"ID": 50391,
		"IsPuzzle": true,
		"BgResPath": "",
		"DescStrKey": "ST:127236"
	},
	{
		"ID": 50301,
		"IsPuzzle": false,
		"BgResPath": "Group01_ABS/Icon_UI_Branch_2002",
		"DescStrKey": "ST:129474"
	},
	{
		"ID": 50302,
		"IsPuzzle": false,
		"BgResPath": "Group01_ABS/Icon_UI_Branch_2006",
		"DescStrKey": "ST:119844"
	},
	{
		"ID": 50303,
		"IsPuzzle": false,
		"BgResPath": "Group01_ABS/Icon_UI_Branch_2004",
		"DescStrKey": "ST:119845"
	},
	{
		"ID": 50304,
		"IsPuzzle": false,
		"BgResPath": "Group01_ABS/Icon_UI_Branch_2002",
		"DescStrKey": "ST:119846"
	},
	{
		"ID": 50401,
		"IsPuzzle": false,
		"BgResPath": "Group01_ABS/Icon_UI_Branch_2005",
		"DescStrKey": "ST:127412"
	},
	{
		"ID": 50402,
		"IsPuzzle": false,
		"BgResPath": "Group01_ABS/Icon_UI_Branch_2009",
		"DescStrKey": "ST:126807"
	},
	{
		"ID": 50403,
		"IsPuzzle": false,
		"BgResPath": "Group01_ABS/Icon_UI_Branch_2002",
		"DescStrKey": "ST:126808"
	},
	{
		"ID": 50404,
		"IsPuzzle": false,
		"BgResPath": "Group01_ABS/Icon_UI_Branch_2004",
		"DescStrKey": "ST:119849"
	},
	{
		"ID": 50405,
		"IsPuzzle": false,
		"BgResPath": "Group01_ABS/Icon_UI_Branch_2008",
		"DescStrKey": "ST:119850"
	},
	{
		"ID": 50591,
		"IsPuzzle": true,
		"BgResPath": "",
		"DescStrKey": "ST:127239"
	},
	{
		"ID": 50501,
		"IsPuzzle": false,
		"BgResPath": "Group01_ABS/Icon_UI_Branch_2001",
		"DescStrKey": "ST:119851"
	},
	{
		"ID": 50502,
		"IsPuzzle": false,
		"BgResPath": "Group01_ABS/Icon_UI_Branch_2003",
		"DescStrKey": "ST:119852"
	},
	{
		"ID": 50503,
		"IsPuzzle": false,
		"BgResPath": "Group01_ABS/Icon_UI_Branch_2005",
		"DescStrKey": "ST:119853"
	},
	{
		"ID": 50504,
		"IsPuzzle": false,
		"BgResPath": "Group01_ABS/Icon_UI_Branch_2004",
		"DescStrKey": "ST:132533"
	},
	{
		"ID": 50505,
		"IsPuzzle": false,
		"BgResPath": "Group01_ABS/Icon_UI_Branch_2008",
		"DescStrKey": "ST:119855"
	},
	{
		"ID": 50506,
		"IsPuzzle": false,
		"BgResPath": "Group01_ABS/Icon_UI_Branch_2002",
		"DescStrKey": "ST:119856"
	},
	{
		"ID": 50691,
		"IsPuzzle": true,
		"BgResPath": "",
		"DescStrKey": "ST:127240"
	},
	{
		"ID": 50601,
		"IsPuzzle": false,
		"BgResPath": "Group01_ABS/Icon_UI_Branch_2008",
		"DescStrKey": "ST:126832"
	},
	{
		"ID": 50602,
		"IsPuzzle": false,
		"BgResPath": "Group01_ABS/Icon_UI_Branch_2009",
		"DescStrKey": "ST:129525"
	},
	{
		"ID": 50603,
		"IsPuzzle": false,
		"BgResPath": "Group01_ABS/Icon_UI_Branch_2005",
		"DescStrKey": "ST:129526"
	},
	{
		"ID": 50604,
		"IsPuzzle": false,
		"BgResPath": "Group01_ABS/Icon_UI_Branch_2001",
		"DescStrKey": "ST:129527"
	},
	{
		"ID": 50605,
		"IsPuzzle": false,
		"BgResPath": "Group01_ABS/Icon_UI_Branch_2001",
		"DescStrKey": "ST:126836"
	},
	{
		"ID": 50791,
		"IsPuzzle": true,
		"BgResPath": "",
		"DescStrKey": "ST:127241"
	},
	{
		"ID": 50701,
		"IsPuzzle": false,
		"BgResPath": "Group01_ABS/Icon_UI_Branch_2005",
		"DescStrKey": "ST:119861"
	},
	{
		"ID": 50702,
		"IsPuzzle": false,
		"BgResPath": "Group01_ABS/Icon_UI_Branch_2001",
		"DescStrKey": "ST:119862"
	},
	{
		"ID": 50801,
		"IsPuzzle": false,
		"BgResPath": "Group01_ABS/Icon_UI_Branch_2004",
		"DescStrKey": "ST:130752"
	},
	{
		"ID": 50802,
		"IsPuzzle": false,
		"BgResPath": "Group01_ABS/Icon_UI_Branch_2006",
		"DescStrKey": "ST:130753"
	},
	{
		"ID": 50803,
		"IsPuzzle": false,
		"BgResPath": "Group01_ABS/Icon_UI_Branch_2009",
		"DescStrKey": "ST:130754"
	},
	{
		"ID": 50805,
		"IsPuzzle": false,
		"BgResPath": "Group01_ABS/Icon_UI_Branch_2005",
		"DescStrKey": "ST:130755"
	},
	{
		"ID": 50806,
		"IsPuzzle": false,
		"BgResPath": "Group01_ABS/Icon_UI_Branch_2007",
		"DescStrKey": "ST:130756"
	},
	{
		"ID": 50901,
		"IsPuzzle": false,
		"BgResPath": "Group01_ABS/Icon_UI_Branch_2003",
		"DescStrKey": "ST:119863"
	},
	{
		"ID": 50902,
		"IsPuzzle": false,
		"BgResPath": "Group01_ABS/Icon_UI_Branch_2006",
		"DescStrKey": "ST:119864"
	},
	{
		"ID": 50903,
		"IsPuzzle": false,
		"BgResPath": "Group01_ABS/Icon_UI_Branch_2005",
		"DescStrKey": "ST:119865"
	},
	{
		"ID": 50904,
		"IsPuzzle": false,
		"BgResPath": "Group01_ABS/Icon_UI_Branch_2008",
		"DescStrKey": "ST:119866"
	},
	{
		"ID": 51091,
		"IsPuzzle": true,
		"BgResPath": "",
		"DescStrKey": "ST:127242"
	},
	{
		"ID": 51001,
		"IsPuzzle": false,
		"BgResPath": "Group01_ABS/Icon_UI_Branch_2009",
		"DescStrKey": "ST:127243"
	},
	{
		"ID": 51002,
		"IsPuzzle": false,
		"BgResPath": "Group01_ABS/Icon_UI_Branch_2005",
		"DescStrKey": "ST:117353"
	},
	{
		"ID": 51003,
		"IsPuzzle": false,
		"BgResPath": "Group01_ABS/Icon_UI_Branch_2001",
		"DescStrKey": "ST:117354"
	},
	{
		"ID": 51004,
		"IsPuzzle": false,
		"BgResPath": "Group01_ABS/Icon_UI_Branch_2003",
		"DescStrKey": "ST:117355"
	},
	{
		"ID": 51005,
		"IsPuzzle": false,
		"BgResPath": "Group01_ABS/Icon_UI_Branch_2007",
		"DescStrKey": "ST:117356"
	},
	{
		"ID": 51006,
		"IsPuzzle": false,
		"BgResPath": "Group01_ABS/Icon_UI_Branch_2007",
		"DescStrKey": "ST:117357"
	},
	{
		"ID": 51291,
		"IsPuzzle": true,
		"BgResPath": "",
		"DescStrKey": "ST:127244"
	},
	{
		"ID": 51201,
		"IsPuzzle": false,
		"BgResPath": "Group01_ABS/Icon_UI_Branch_2002",
		"DescStrKey": "ST:129014"
	},
	{
		"ID": 51202,
		"IsPuzzle": false,
		"BgResPath": "Group01_ABS/Icon_UI_Branch_2006",
		"DescStrKey": "ST:129017"
	},
	{
		"ID": 51203,
		"IsPuzzle": false,
		"BgResPath": "Group01_ABS/Icon_UI_Branch_2004",
		"DescStrKey": "ST:129018"
	},
	{
		"ID": 51204,
		"IsPuzzle": false,
		"BgResPath": "Group01_ABS/Icon_UI_Branch_2003",
		"DescStrKey": "ST:126814"
	},
	{
		"ID": 51391,
		"IsPuzzle": true,
		"BgResPath": "",
		"DescStrKey": "ST:127693"
	},
	{
		"ID": 51392,
		"IsPuzzle": true,
		"BgResPath": "",
		"DescStrKey": "ST:127694"
	},
	{
		"ID": 51302,
		"IsPuzzle": false,
		"BgResPath": "Group01_ABS/Icon_UI_Branch_2008",
		"DescStrKey": "ST:127695"
	},
	{
		"ID": 51303,
		"IsPuzzle": false,
		"BgResPath": "Group01_ABS/Icon_UI_Branch_2002",
		"DescStrKey": "ST:127696"
	},
	{
		"ID": 51304,
		"IsPuzzle": false,
		"BgResPath": "Group01_ABS/Icon_UI_Branch_2006",
		"DescStrKey": "ST:127697"
	},
	{
		"ID": 51305,
		"IsPuzzle": false,
		"BgResPath": "Group01_ABS/Icon_UI_Branch_2003",
		"DescStrKey": "ST:127698"
	},
	{
		"ID": 51306,
		"IsPuzzle": false,
		"BgResPath": "Group01_ABS/Icon_UI_Branch_2006",
		"DescStrKey": "ST:127699"
	},
	{
		"ID": 51401,
		"IsPuzzle": false,
		"BgResPath": "Group01_ABS/Icon_UI_Branch_2005",
		"DescStrKey": "ST:128893"
	},
	{
		"ID": 51402,
		"IsPuzzle": false,
		"BgResPath": "Group01_ABS/Icon_UI_Branch_2007",
		"DescStrKey": "ST:129654"
	},
	{
		"ID": 51403,
		"IsPuzzle": false,
		"BgResPath": "Group01_ABS/Icon_UI_Branch_2002",
		"DescStrKey": "ST:129655"
	},
	{
		"ID": 51404,
		"IsPuzzle": false,
		"BgResPath": "Group01_ABS/Icon_UI_Branch_2009",
		"DescStrKey": "ST:115539"
	},
	{
		"ID": 51591,
		"IsPuzzle": true,
		"BgResPath": "",
		"DescStrKey": "ST:127246"
	},
	{
		"ID": 51501,
		"IsPuzzle": false,
		"BgResPath": "Group01_ABS/Icon_UI_Branch_2006",
		"DescStrKey": "ST:126820"
	},
	{
		"ID": 51502,
		"IsPuzzle": false,
		"BgResPath": "Group01_ABS/Icon_UI_Branch_2007",
		"DescStrKey": "ST:126821"
	},
	{
		"ID": 51503,
		"IsPuzzle": false,
		"BgResPath": "Group01_ABS/Icon_UI_Branch_2002",
		"DescStrKey": "ST:126822"
	},
	{
		"ID": 51504,
		"IsPuzzle": false,
		"BgResPath": "Group01_ABS/Icon_UI_Branch_2008",
		"DescStrKey": "ST:129656"
	},
	{
		"ID": 51601,
		"IsPuzzle": false,
		"BgResPath": "Group01_ABS/Icon_UI_Branch_2005",
		"DescStrKey": "ST:115566"
	},
	{
		"ID": 51602,
		"IsPuzzle": false,
		"BgResPath": "Group01_ABS/Icon_UI_Branch_2006",
		"DescStrKey": "ST:115567"
	},
	{
		"ID": 51603,
		"IsPuzzle": false,
		"BgResPath": "Group01_ABS/Icon_UI_Branch_2002",
		"DescStrKey": "ST:115568"
	},
	{
		"ID": 51604,
		"IsPuzzle": false,
		"BgResPath": "Group01_ABS/Icon_UI_Branch_2003",
		"DescStrKey": "ST:115569"
	},
	{
		"ID": 51605,
		"IsPuzzle": false,
		"BgResPath": "Group01_ABS/Icon_UI_Branch_2004",
		"DescStrKey": "ST:115570"
	},
	{
		"ID": 51606,
		"IsPuzzle": false,
		"BgResPath": "Group01_ABS/Icon_UI_Branch_2001",
		"DescStrKey": "ST:115571"
	},
	{
		"ID": 51701,
		"IsPuzzle": false,
		"BgResPath": "Group01_ABS/Icon_UI_Branch_2002",
		"DescStrKey": "ST:117530"
	},
	{
		"ID": 51702,
		"IsPuzzle": false,
		"BgResPath": "Group01_ABS/Icon_UI_Branch_2004",
		"DescStrKey": "ST:117531"
	},
	{
		"ID": 51703,
		"IsPuzzle": false,
		"BgResPath": "Group01_ABS/Icon_UI_Branch_2007",
		"DescStrKey": "ST:117532"
	},
	{
		"ID": 51704,
		"IsPuzzle": false,
		"BgResPath": "Group01_ABS/Icon_UI_Branch_2006",
		"DescStrKey": "ST:130757"
	},
	{
		"ID": 51705,
		"IsPuzzle": false,
		"BgResPath": "Group01_ABS/Icon_UI_Branch_2007",
		"DescStrKey": "ST:117534"
	},
	{
		"ID": 51891,
		"IsPuzzle": true,
		"BgResPath": "",
		"DescStrKey": "ST:127247"
	},
	{
		"ID": 51801,
		"IsPuzzle": false,
		"BgResPath": "Group01_ABS/Icon_UI_Branch_2005",
		"DescStrKey": "ST:126824"
	},
	{
		"ID": 51802,
		"IsPuzzle": false,
		"BgResPath": "Group01_ABS/Icon_UI_Branch_2003",
		"DescStrKey": "ST:126825"
	},
	{
		"ID": 51803,
		"IsPuzzle": false,
		"BgResPath": "Group01_ABS/Icon_UI_Branch_2006",
		"DescStrKey": "ST:126826"
	},
	{
		"ID": 51804,
		"IsPuzzle": false,
		"BgResPath": "Group01_ABS/Icon_UI_Branch_2004",
		"DescStrKey": "ST:128071"
	},
	{
		"ID": 51805,
		"IsPuzzle": false,
		"BgResPath": "Group01_ABS/Icon_UI_Branch_2002",
		"DescStrKey": "ST:126828"
	},
	{
		"ID": 51806,
		"IsPuzzle": false,
		"BgResPath": "Group01_ABS/Icon_UI_Branch_2009",
		"DescStrKey": "ST:126829"
	},
	{
		"ID": 51901,
		"IsPuzzle": false,
		"BgResPath": "Group01_ABS/Icon_UI_Branch_2002",
		"DescStrKey": "ST:115581"
	},
	{
		"ID": 51902,
		"IsPuzzle": false,
		"BgResPath": "Group01_ABS/Icon_UI_Branch_2001",
		"DescStrKey": "ST:115582"
	},
	{
		"ID": 51903,
		"IsPuzzle": false,
		"BgResPath": "Group01_ABS/Icon_UI_Branch_2003",
		"DescStrKey": "ST:115583"
	},
	{
		"ID": 51904,
		"IsPuzzle": false,
		"BgResPath": "Group01_ABS/Icon_UI_Branch_2007",
		"DescStrKey": "ST:126926"
	},
	{
		"ID": 51905,
		"IsPuzzle": false,
		"BgResPath": "Group01_ABS/Icon_UI_Branch_2004",
		"DescStrKey": "ST:128072"
	},
	{
		"ID": 51906,
		"IsPuzzle": false,
		"BgResPath": "Group01_ABS/Icon_UI_Branch_2006",
		"DescStrKey": "ST:115586"
	},
	{
		"ID": 51907,
		"IsPuzzle": false,
		"BgResPath": "Group01_ABS/Icon_UI_Branch_2005",
		"DescStrKey": "ST:115587"
	},
	{
		"ID": 52001,
		"IsPuzzle": false,
		"BgResPath": "Group01_ABS/Icon_UI_Branch_2002",
		"DescStrKey": "ST:119592"
	},
	{
		"ID": 52002,
		"IsPuzzle": false,
		"BgResPath": "Group01_ABS/Icon_UI_Branch_2006",
		"DescStrKey": "ST:129657"
	},
	{
		"ID": 52003,
		"IsPuzzle": false,
		"BgResPath": "Group01_ABS/Icon_UI_Branch_2009",
		"DescStrKey": "ST:119594"
	},
	{
		"ID": 52004,
		"IsPuzzle": false,
		"BgResPath": "Group01_ABS/Icon_UI_Branch_2007",
		"DescStrKey": "ST:119595"
	},
	{
		"ID": 52005,
		"IsPuzzle": false,
		"BgResPath": "Group01_ABS/Icon_UI_Branch_2004",
		"DescStrKey": "ST:119596"
	},
	{
		"ID": 52006,
		"IsPuzzle": false,
		"BgResPath": "Group01_ABS/Icon_UI_Branch_2002",
		"DescStrKey": "ST:119597"
	},
	{
		"ID": 52007,
		"IsPuzzle": false,
		"BgResPath": "Group01_ABS/Icon_UI_Branch_2004",
		"DescStrKey": "ST:126830"
	},
	{
		"ID": 52008,
		"IsPuzzle": false,
		"BgResPath": "Group01_ABS/Icon_UI_Branch_2002",
		"DescStrKey": "ST:119599"
	},
	{
		"ID": 52191,
		"IsPuzzle": true,
		"BgResPath": "",
		"DescStrKey": "ST:127248"
	},
	{
		"ID": 52192,
		"IsPuzzle": true,
		"BgResPath": "",
		"DescStrKey": "ST:127249"
	},
	{
		"ID": 52101,
		"IsPuzzle": false,
		"BgResPath": "Group01_ABS/Icon_UI_Branch_2006",
		"DescStrKey": "ST:126831"
	},
	{
		"ID": 52291,
		"IsPuzzle": true,
		"BgResPath": "",
		"DescStrKey": "ST:127250"
	},
	{
		"ID": 52201,
		"IsPuzzle": false,
		"BgResPath": "Group01_ABS/Icon_UI_Branch_2007",
		"DescStrKey": "ST:127251"
	},
	{
		"ID": 52391,
		"IsPuzzle": true,
		"BgResPath": "",
		"DescStrKey": "ST:127250"
	},
	{
		"ID": 52301,
		"IsPuzzle": false,
		"BgResPath": "Group01_ABS/Icon_UI_Branch_2001",
		"DescStrKey": "ST:127252"
	},
	{
		"ID": 52491,
		"IsPuzzle": true,
		"BgResPath": "",
		"DescStrKey": "ST:127250"
	},
	{
		"ID": 52401,
		"IsPuzzle": false,
		"BgResPath": "Group01_ABS/Icon_UI_Branch_2004",
		"DescStrKey": "ST:127253"
	},
	{
		"ID": 52591,
		"IsPuzzle": true,
		"BgResPath": "",
		"DescStrKey": "ST:127250"
	},
	{
		"ID": 52501,
		"IsPuzzle": false,
		"BgResPath": "Group01_ABS/Icon_UI_Branch_2003",
		"DescStrKey": "ST:127254"
	},
	{
		"ID": 52691,
		"IsPuzzle": true,
		"BgResPath": "",
		"DescStrKey": "ST:127250"
	},
	{
		"ID": 52601,
		"IsPuzzle": false,
		"BgResPath": "Group01_ABS/Icon_UI_Branch_2003",
		"DescStrKey": "ST:127255"
	}
]