[
	{
		"ID": 0,
		"IsDSUnSync": false,
		"InternalError": "",
		"ValueStrKey": "ST:53241"
	},
	{
		"ID": -2147483648,
		"IsDSUnSync": true,
		"InternalError": "",
		"ValueStrKey": "ST:53242"
	},
	{
		"ID": -9,
		"IsDSUnSync": false,
		"InternalError": "1",
		"ValueStrKey": "ST:114370"
	},
	{
		"ID": -20,
		"IsDSUnSync": false,
		"InternalError": "",
		"ValueStrKey": "ST:96525"
	},
	{
		"ID": -21,
		"IsDSUnSync": false,
		"InternalError": "",
		"ValueStrKey": "ST:118194"
	},
	{
		"ID": -23,
		"IsDSUnSync": false,
		"InternalError": "",
		"ValueStrKey": "ST:108923"
	},
	{
		"ID": -24,
		"IsDSUnSync": false,
		"InternalError": "",
		"ValueStrKey": "ST:108924"
	},
	{
		"ID": -25,
		"IsDSUnSync": false,
		"InternalError": "",
		"ValueStrKey": "ST:130857"
	},
	{
		"ID": -90,
		"IsDSUnSync": false,
		"InternalError": "",
		"ValueStrKey": "ST:53517"
	},
	{
		"ID": -101,
		"IsDSUnSync": true,
		"InternalError": "1",
		"ValueStrKey": "ST:114372"
	},
	{
		"ID": -102,
		"IsDSUnSync": false,
		"InternalError": "",
		"ValueStrKey": "ST:53246"
	},
	{
		"ID": -103,
		"IsDSUnSync": false,
		"InternalError": "",
		"ValueStrKey": "ST:53247"
	},
	{
		"ID": -104,
		"IsDSUnSync": true,
		"InternalError": "1",
		"ValueStrKey": "ST:114373"
	},
	{
		"ID": -105,
		"IsDSUnSync": true,
		"InternalError": "",
		"ValueStrKey": "ST:53249"
	},
	{
		"ID": -106,
		"IsDSUnSync": true,
		"InternalError": "1",
		"ValueStrKey": "ST:114374"
	},
	{
		"ID": -107,
		"IsDSUnSync": true,
		"InternalError": "1",
		"ValueStrKey": "ST:114375"
	},
	{
		"ID": -108,
		"IsDSUnSync": false,
		"InternalError": "",
		"ValueStrKey": "ST:53252"
	},
	{
		"ID": -109,
		"IsDSUnSync": false,
		"InternalError": "",
		"ValueStrKey": "ST:53253"
	},
	{
		"ID": -110,
		"IsDSUnSync": false,
		"InternalError": "",
		"ValueStrKey": "ST:53254"
	},
	{
		"ID": -111,
		"IsDSUnSync": false,
		"InternalError": "",
		"ValueStrKey": "ST:53255"
	},
	{
		"ID": -112,
		"IsDSUnSync": false,
		"InternalError": "1",
		"ValueStrKey": "ST:114376"
	},
	{
		"ID": -113,
		"IsDSUnSync": false,
		"InternalError": "1",
		"ValueStrKey": "ST:114377"
	},
	{
		"ID": -114,
		"IsDSUnSync": false,
		"InternalError": "",
		"ValueStrKey": "ST:53258"
	},
	{
		"ID": -115,
		"IsDSUnSync": false,
		"InternalError": "",
		"ValueStrKey": "ST:95152"
	},
	{
		"ID": -116,
		"IsDSUnSync": false,
		"InternalError": "1",
		"ValueStrKey": "ST:114378"
	},
	{
		"ID": -117,
		"IsDSUnSync": false,
		"InternalError": "",
		"ValueStrKey": "ST:95153"
	},
	{
		"ID": -118,
		"IsDSUnSync": false,
		"InternalError": "1",
		"ValueStrKey": ""
	},
	{
		"ID": -150,
		"IsDSUnSync": false,
		"InternalError": "",
		"ValueStrKey": "ST:53262"
	},
	{
		"ID": -151,
		"IsDSUnSync": false,
		"InternalError": "",
		"ValueStrKey": "ST:53263"
	},
	{
		"ID": -152,
		"IsDSUnSync": false,
		"InternalError": "",
		"ValueStrKey": "ST:53264"
	},
	{
		"ID": -153,
		"IsDSUnSync": false,
		"InternalError": "",
		"ValueStrKey": "ST:95154"
	},
	{
		"ID": -154,
		"IsDSUnSync": false,
		"InternalError": "1",
		"ValueStrKey": "ST:114379"
	},
	{
		"ID": -155,
		"IsDSUnSync": false,
		"InternalError": "1",
		"ValueStrKey": "ST:114380"
	},
	{
		"ID": -156,
		"IsDSUnSync": false,
		"InternalError": "1",
		"ValueStrKey": "ST:114381"
	},
	{
		"ID": -157,
		"IsDSUnSync": false,
		"InternalError": "1",
		"ValueStrKey": "ST:114382"
	},
	{
		"ID": -160,
		"IsDSUnSync": true,
		"InternalError": "",
		"ValueStrKey": "ST:53270"
	},
	{
		"ID": -161,
		"IsDSUnSync": false,
		"InternalError": "1",
		"ValueStrKey": "ST:114383"
	},
	{
		"ID": -162,
		"IsDSUnSync": true,
		"InternalError": "1",
		"ValueStrKey": "ST:114384"
	},
	{
		"ID": -163,
		"IsDSUnSync": false,
		"InternalError": "",
		"ValueStrKey": "ST:95155"
	},
	{
		"ID": -164,
		"IsDSUnSync": false,
		"InternalError": "1",
		"ValueStrKey": "ST:114385"
	},
	{
		"ID": -165,
		"IsDSUnSync": true,
		"InternalError": "1",
		"ValueStrKey": "ST:114386"
	},
	{
		"ID": -166,
		"IsDSUnSync": true,
		"InternalError": "1",
		"ValueStrKey": "ST:53276"
	},
	{
		"ID": -167,
		"IsDSUnSync": false,
		"InternalError": "",
		"ValueStrKey": "ST:53277"
	},
	{
		"ID": -168,
		"IsDSUnSync": false,
		"InternalError": "",
		"ValueStrKey": "ST:53278"
	},
	{
		"ID": -169,
		"IsDSUnSync": false,
		"InternalError": "",
		"ValueStrKey": "ST:53279"
	},
	{
		"ID": -170,
		"IsDSUnSync": false,
		"InternalError": "",
		"ValueStrKey": "ST:95156"
	},
	{
		"ID": -171,
		"IsDSUnSync": true,
		"InternalError": "1",
		"ValueStrKey": "ST:114387"
	},
	{
		"ID": -172,
		"IsDSUnSync": true,
		"InternalError": "1",
		"ValueStrKey": "ST:114388"
	},
	{
		"ID": -173,
		"IsDSUnSync": true,
		"InternalError": "1",
		"ValueStrKey": "ST:114389"
	},
	{
		"ID": -174,
		"IsDSUnSync": true,
		"InternalError": "1",
		"ValueStrKey": "ST:114390"
	},
	{
		"ID": -175,
		"IsDSUnSync": false,
		"InternalError": "",
		"ValueStrKey": "ST:95157"
	},
	{
		"ID": -176,
		"IsDSUnSync": false,
		"InternalError": "",
		"ValueStrKey": "ST:95158"
	},
	{
		"ID": -177,
		"IsDSUnSync": true,
		"InternalError": "",
		"ValueStrKey": "ST:53287"
	},
	{
		"ID": -178,
		"IsDSUnSync": false,
		"InternalError": "",
		"ValueStrKey": "ST:53288"
	},
	{
		"ID": -179,
		"IsDSUnSync": false,
		"InternalError": "1",
		"ValueStrKey": "ST:128861"
	},
	{
		"ID": -180,
		"IsDSUnSync": false,
		"InternalError": "",
		"ValueStrKey": "ST:95159"
	},
	{
		"ID": -181,
		"IsDSUnSync": false,
		"InternalError": "",
		"ValueStrKey": "ST:53291"
	},
	{
		"ID": -182,
		"IsDSUnSync": false,
		"InternalError": "",
		"ValueStrKey": "ST:53292"
	},
	{
		"ID": -183,
		"IsDSUnSync": true,
		"InternalError": "1",
		"ValueStrKey": "ST:114391"
	},
	{
		"ID": -184,
		"IsDSUnSync": false,
		"InternalError": "",
		"ValueStrKey": "ST:53294"
	},
	{
		"ID": -185,
		"IsDSUnSync": false,
		"InternalError": "",
		"ValueStrKey": "ST:53295"
	},
	{
		"ID": -186,
		"IsDSUnSync": true,
		"InternalError": "1",
		"ValueStrKey": "ST:114392"
	},
	{
		"ID": -187,
		"IsDSUnSync": true,
		"InternalError": "1",
		"ValueStrKey": "ST:114393"
	},
	{
		"ID": -188,
		"IsDSUnSync": true,
		"InternalError": "1",
		"ValueStrKey": "ST:114394"
	},
	{
		"ID": -189,
		"IsDSUnSync": false,
		"InternalError": "",
		"ValueStrKey": "ST:53299"
	},
	{
		"ID": -190,
		"IsDSUnSync": false,
		"InternalError": "",
		"ValueStrKey": "ST:53300"
	},
	{
		"ID": -191,
		"IsDSUnSync": false,
		"InternalError": "",
		"ValueStrKey": "ST:53301"
	},
	{
		"ID": -192,
		"IsDSUnSync": true,
		"InternalError": "1",
		"ValueStrKey": "ST:114395"
	},
	{
		"ID": -193,
		"IsDSUnSync": false,
		"InternalError": "",
		"ValueStrKey": "ST:53303"
	},
	{
		"ID": -194,
		"IsDSUnSync": false,
		"InternalError": "",
		"ValueStrKey": "ST:53304"
	},
	{
		"ID": -195,
		"IsDSUnSync": false,
		"InternalError": "",
		"ValueStrKey": "ST:95160"
	},
	{
		"ID": -196,
		"IsDSUnSync": false,
		"InternalError": "",
		"ValueStrKey": "ST:95161"
	},
	{
		"ID": -198,
		"IsDSUnSync": false,
		"InternalError": "",
		"ValueStrKey": "ST:110221"
	},
	{
		"ID": -199,
		"IsDSUnSync": false,
		"InternalError": "",
		"ValueStrKey": "ST:53307"
	},
	{
		"ID": -201,
		"IsDSUnSync": true,
		"InternalError": "1",
		"ValueStrKey": "ST:114396"
	},
	{
		"ID": -202,
		"IsDSUnSync": true,
		"InternalError": "1",
		"ValueStrKey": "ST:114397"
	},
	{
		"ID": -203,
		"IsDSUnSync": true,
		"InternalError": "1",
		"ValueStrKey": "ST:114398"
	},
	{
		"ID": -204,
		"IsDSUnSync": true,
		"InternalError": "1",
		"ValueStrKey": "ST:114399"
	},
	{
		"ID": -205,
		"IsDSUnSync": true,
		"InternalError": "1",
		"ValueStrKey": "ST:114400"
	},
	{
		"ID": -206,
		"IsDSUnSync": false,
		"InternalError": "",
		"ValueStrKey": "ST:95162"
	},
	{
		"ID": -207,
		"IsDSUnSync": true,
		"InternalError": "1",
		"ValueStrKey": "ST:114401"
	},
	{
		"ID": -208,
		"IsDSUnSync": false,
		"InternalError": "",
		"ValueStrKey": "ST:53314"
	},
	{
		"ID": -209,
		"IsDSUnSync": false,
		"InternalError": "",
		"ValueStrKey": "ST:53315"
	},
	{
		"ID": -210,
		"IsDSUnSync": false,
		"InternalError": "",
		"ValueStrKey": "ST:53316"
	},
	{
		"ID": -211,
		"IsDSUnSync": false,
		"InternalError": "",
		"ValueStrKey": "ST:53317"
	},
	{
		"ID": -212,
		"IsDSUnSync": false,
		"InternalError": "",
		"ValueStrKey": "ST:53318"
	},
	{
		"ID": -213,
		"IsDSUnSync": false,
		"InternalError": "",
		"ValueStrKey": "ST:53319"
	},
	{
		"ID": -214,
		"IsDSUnSync": false,
		"InternalError": "1",
		"ValueStrKey": "ST:129902"
	},
	{
		"ID": -215,
		"IsDSUnSync": false,
		"InternalError": "",
		"ValueStrKey": "ST:129973"
	},
	{
		"ID": -400,
		"IsDSUnSync": false,
		"InternalError": "",
		"ValueStrKey": "ST:53320"
	},
	{
		"ID": -401,
		"IsDSUnSync": false,
		"InternalError": "1",
		"ValueStrKey": "ST:114402"
	},
	{
		"ID": -402,
		"IsDSUnSync": false,
		"InternalError": "1",
		"ValueStrKey": "ST:114403"
	},
	{
		"ID": -403,
		"IsDSUnSync": false,
		"InternalError": "1",
		"ValueStrKey": "ST:114404"
	},
	{
		"ID": -404,
		"IsDSUnSync": false,
		"InternalError": "1",
		"ValueStrKey": "ST:114405"
	},
	{
		"ID": -405,
		"IsDSUnSync": false,
		"InternalError": "",
		"ValueStrKey": "ST:95163"
	},
	{
		"ID": -406,
		"IsDSUnSync": false,
		"InternalError": "1",
		"ValueStrKey": "ST:114406"
	},
	{
		"ID": -407,
		"IsDSUnSync": false,
		"InternalError": "",
		"ValueStrKey": "ST:53327"
	},
	{
		"ID": -408,
		"IsDSUnSync": false,
		"InternalError": "1",
		"ValueStrKey": "ST:114407"
	},
	{
		"ID": -409,
		"IsDSUnSync": false,
		"InternalError": "",
		"ValueStrKey": "ST:53329"
	},
	{
		"ID": -410,
		"IsDSUnSync": false,
		"InternalError": "",
		"ValueStrKey": "ST:53330"
	},
	{
		"ID": -411,
		"IsDSUnSync": false,
		"InternalError": "",
		"ValueStrKey": "ST:53331"
	},
	{
		"ID": -412,
		"IsDSUnSync": false,
		"InternalError": "",
		"ValueStrKey": "ST:95164"
	},
	{
		"ID": -413,
		"IsDSUnSync": false,
		"InternalError": "",
		"ValueStrKey": "ST:53333"
	},
	{
		"ID": -414,
		"IsDSUnSync": true,
		"InternalError": "1",
		"ValueStrKey": "ST:114408"
	},
	{
		"ID": -415,
		"IsDSUnSync": true,
		"InternalError": "1",
		"ValueStrKey": "ST:114409"
	},
	{
		"ID": -416,
		"IsDSUnSync": false,
		"InternalError": "",
		"ValueStrKey": "ST:95165"
	},
	{
		"ID": -417,
		"IsDSUnSync": true,
		"InternalError": "1",
		"ValueStrKey": "ST:114410"
	},
	{
		"ID": -418,
		"IsDSUnSync": false,
		"InternalError": "",
		"ValueStrKey": "ST:109225"
	},
	{
		"ID": -419,
		"IsDSUnSync": false,
		"InternalError": "",
		"ValueStrKey": "ST:109226"
	},
	{
		"ID": -420,
		"IsDSUnSync": true,
		"InternalError": "1",
		"ValueStrKey": "ST:114411"
	},
	{
		"ID": -421,
		"IsDSUnSync": false,
		"InternalError": "",
		"ValueStrKey": "ST:53341"
	},
	{
		"ID": -422,
		"IsDSUnSync": false,
		"InternalError": "",
		"ValueStrKey": "ST:121924"
	},
	{
		"ID": -423,
		"IsDSUnSync": false,
		"InternalError": "",
		"ValueStrKey": "ST:116218"
	},
	{
		"ID": -501,
		"IsDSUnSync": false,
		"InternalError": "",
		"ValueStrKey": "ST:53342"
	},
	{
		"ID": -502,
		"IsDSUnSync": true,
		"InternalError": "1",
		"ValueStrKey": "ST:114412"
	},
	{
		"ID": -503,
		"IsDSUnSync": true,
		"InternalError": "1",
		"ValueStrKey": "ST:114413"
	},
	{
		"ID": -504,
		"IsDSUnSync": false,
		"InternalError": "",
		"ValueStrKey": "ST:53345"
	},
	{
		"ID": -505,
		"IsDSUnSync": false,
		"InternalError": "",
		"ValueStrKey": "ST:53346"
	},
	{
		"ID": -601,
		"IsDSUnSync": false,
		"InternalError": "",
		"ValueStrKey": "ST:53347"
	},
	{
		"ID": -602,
		"IsDSUnSync": false,
		"InternalError": "",
		"ValueStrKey": "ST:95167"
	},
	{
		"ID": -603,
		"IsDSUnSync": false,
		"InternalError": "",
		"ValueStrKey": "ST:53349"
	},
	{
		"ID": -604,
		"IsDSUnSync": false,
		"InternalError": "",
		"ValueStrKey": "ST:53350"
	},
	{
		"ID": -605,
		"IsDSUnSync": false,
		"InternalError": "",
		"ValueStrKey": "ST:53351"
	},
	{
		"ID": -606,
		"IsDSUnSync": false,
		"InternalError": "",
		"ValueStrKey": "ST:53352"
	},
	{
		"ID": -607,
		"IsDSUnSync": false,
		"InternalError": "",
		"ValueStrKey": "ST:53353"
	},
	{
		"ID": -608,
		"IsDSUnSync": false,
		"InternalError": "",
		"ValueStrKey": "ST:53354"
	},
	{
		"ID": -609,
		"IsDSUnSync": false,
		"InternalError": "",
		"ValueStrKey": "ST:53355"
	},
	{
		"ID": -610,
		"IsDSUnSync": false,
		"InternalError": "",
		"ValueStrKey": "ST:53356"
	},
	{
		"ID": -611,
		"IsDSUnSync": false,
		"InternalError": "",
		"ValueStrKey": "ST:53357"
	},
	{
		"ID": -612,
		"IsDSUnSync": false,
		"InternalError": "",
		"ValueStrKey": "ST:53358"
	},
	{
		"ID": -613,
		"IsDSUnSync": false,
		"InternalError": "",
		"ValueStrKey": "ST:95168"
	},
	{
		"ID": -614,
		"IsDSUnSync": false,
		"InternalError": "",
		"ValueStrKey": "ST:53360"
	},
	{
		"ID": -615,
		"IsDSUnSync": false,
		"InternalError": "",
		"ValueStrKey": "ST:53361"
	},
	{
		"ID": -616,
		"IsDSUnSync": false,
		"InternalError": "",
		"ValueStrKey": "ST:53362"
	},
	{
		"ID": -617,
		"IsDSUnSync": false,
		"InternalError": "",
		"ValueStrKey": "ST:53363"
	},
	{
		"ID": -618,
		"IsDSUnSync": false,
		"InternalError": "",
		"ValueStrKey": "ST:53364"
	},
	{
		"ID": -619,
		"IsDSUnSync": false,
		"InternalError": "",
		"ValueStrKey": "ST:111179"
	},
	{
		"ID": -620,
		"IsDSUnSync": false,
		"InternalError": "",
		"ValueStrKey": "ST:111180"
	},
	{
		"ID": -621,
		"IsDSUnSync": false,
		"InternalError": "",
		"ValueStrKey": "ST:111181"
	},
	{
		"ID": -622,
		"IsDSUnSync": false,
		"InternalError": "",
		"ValueStrKey": "ST:53368"
	},
	{
		"ID": -623,
		"IsDSUnSync": false,
		"InternalError": "",
		"ValueStrKey": "ST:53369"
	},
	{
		"ID": -624,
		"IsDSUnSync": false,
		"InternalError": "",
		"ValueStrKey": "ST:53370"
	},
	{
		"ID": -625,
		"IsDSUnSync": false,
		"InternalError": "",
		"ValueStrKey": "ST:95169"
	},
	{
		"ID": -626,
		"IsDSUnSync": false,
		"InternalError": "",
		"ValueStrKey": "ST:98432"
	},
	{
		"ID": -627,
		"IsDSUnSync": false,
		"InternalError": "",
		"ValueStrKey": "ST:107229"
	},
	{
		"ID": -628,
		"IsDSUnSync": false,
		"InternalError": "",
		"ValueStrKey": "ST:122802"
	},
	{
		"ID": -629,
		"IsDSUnSync": false,
		"InternalError": "",
		"ValueStrKey": "ST:128492"
	},
	{
		"ID": -630,
		"IsDSUnSync": false,
		"InternalError": "",
		"ValueStrKey": "ST:130806"
	},
	{
		"ID": -701,
		"IsDSUnSync": false,
		"InternalError": "",
		"ValueStrKey": "ST:95170"
	},
	{
		"ID": -702,
		"IsDSUnSync": true,
		"InternalError": "1",
		"ValueStrKey": "ST:114414"
	},
	{
		"ID": -703,
		"IsDSUnSync": true,
		"InternalError": "1",
		"ValueStrKey": "ST:114415"
	},
	{
		"ID": -704,
		"IsDSUnSync": true,
		"InternalError": "1",
		"ValueStrKey": "ST:114416"
	},
	{
		"ID": -705,
		"IsDSUnSync": false,
		"InternalError": "",
		"ValueStrKey": "ST:53375"
	},
	{
		"ID": -706,
		"IsDSUnSync": false,
		"InternalError": "",
		"ValueStrKey": "ST:95171"
	},
	{
		"ID": -707,
		"IsDSUnSync": false,
		"InternalError": "",
		"ValueStrKey": "ST:95172"
	},
	{
		"ID": -708,
		"IsDSUnSync": false,
		"InternalError": "",
		"ValueStrKey": "ST:95172"
	},
	{
		"ID": -709,
		"IsDSUnSync": false,
		"InternalError": "",
		"ValueStrKey": "ST:53378"
	},
	{
		"ID": -710,
		"IsDSUnSync": false,
		"InternalError": "",
		"ValueStrKey": "ST:95173"
	},
	{
		"ID": -711,
		"IsDSUnSync": false,
		"InternalError": "",
		"ValueStrKey": "ST:95174"
	},
	{
		"ID": -712,
		"IsDSUnSync": false,
		"InternalError": "",
		"ValueStrKey": "ST:95175"
	},
	{
		"ID": -713,
		"IsDSUnSync": false,
		"InternalError": "",
		"ValueStrKey": "ST:53382"
	},
	{
		"ID": -714,
		"IsDSUnSync": false,
		"InternalError": "",
		"ValueStrKey": "ST:101486"
	},
	{
		"ID": -715,
		"IsDSUnSync": false,
		"InternalError": "",
		"ValueStrKey": "ST:101486"
	},
	{
		"ID": -716,
		"IsDSUnSync": false,
		"InternalError": "",
		"ValueStrKey": "ST:95176"
	},
	{
		"ID": -717,
		"IsDSUnSync": false,
		"InternalError": "",
		"ValueStrKey": "ST:53385"
	},
	{
		"ID": -718,
		"IsDSUnSync": false,
		"InternalError": "",
		"ValueStrKey": "ST:95177"
	},
	{
		"ID": -719,
		"IsDSUnSync": false,
		"InternalError": "",
		"ValueStrKey": "ST:53387"
	},
	{
		"ID": -720,
		"IsDSUnSync": false,
		"InternalError": "",
		"ValueStrKey": "ST:95178"
	},
	{
		"ID": -721,
		"IsDSUnSync": false,
		"InternalError": "",
		"ValueStrKey": "ST:95179"
	},
	{
		"ID": -722,
		"IsDSUnSync": false,
		"InternalError": "",
		"ValueStrKey": "ST:95180"
	},
	{
		"ID": -723,
		"IsDSUnSync": false,
		"InternalError": "",
		"ValueStrKey": "ST:95836"
	},
	{
		"ID": -724,
		"IsDSUnSync": false,
		"InternalError": "",
		"ValueStrKey": "ST:95182"
	},
	{
		"ID": -725,
		"IsDSUnSync": false,
		"InternalError": "",
		"ValueStrKey": "ST:95183"
	},
	{
		"ID": -726,
		"IsDSUnSync": true,
		"InternalError": "1",
		"ValueStrKey": "ST:114417"
	},
	{
		"ID": -727,
		"IsDSUnSync": false,
		"InternalError": "",
		"ValueStrKey": "ST:95185"
	},
	{
		"ID": -728,
		"IsDSUnSync": false,
		"InternalError": "",
		"ValueStrKey": "ST:95186"
	},
	{
		"ID": -729,
		"IsDSUnSync": false,
		"InternalError": "",
		"ValueStrKey": "ST:95187"
	},
	{
		"ID": -730,
		"IsDSUnSync": false,
		"InternalError": "",
		"ValueStrKey": "ST:95188"
	},
	{
		"ID": -731,
		"IsDSUnSync": false,
		"InternalError": "",
		"ValueStrKey": "ST:95189"
	},
	{
		"ID": -732,
		"IsDSUnSync": false,
		"InternalError": "",
		"ValueStrKey": "ST:53400"
	},
	{
		"ID": -733,
		"IsDSUnSync": false,
		"InternalError": "",
		"ValueStrKey": "ST:95190"
	},
	{
		"ID": -734,
		"IsDSUnSync": false,
		"InternalError": "",
		"ValueStrKey": "ST:95191"
	},
	{
		"ID": -735,
		"IsDSUnSync": false,
		"InternalError": "",
		"ValueStrKey": "ST:110256"
	},
	{
		"ID": -736,
		"IsDSUnSync": false,
		"InternalError": "",
		"ValueStrKey": "ST:122803"
	},
	{
		"ID": -737,
		"IsDSUnSync": false,
		"InternalError": "",
		"ValueStrKey": "ST:122804"
	},
	{
		"ID": -738,
		"IsDSUnSync": false,
		"InternalError": "",
		"ValueStrKey": "ST:128292"
	},
	{
		"ID": -739,
		"IsDSUnSync": false,
		"InternalError": "",
		"ValueStrKey": "ST:128293"
	},
	{
		"ID": -740,
		"IsDSUnSync": false,
		"InternalError": "",
		"ValueStrKey": "ST:132550"
	},
	{
		"ID": -800,
		"IsDSUnSync": false,
		"InternalError": "",
		"ValueStrKey": "ST:78237"
	},
	{
		"ID": -801,
		"IsDSUnSync": false,
		"InternalError": "1",
		"ValueStrKey": "ST:114418"
	},
	{
		"ID": -802,
		"IsDSUnSync": false,
		"InternalError": "",
		"ValueStrKey": "ST:95192"
	},
	{
		"ID": -803,
		"IsDSUnSync": false,
		"InternalError": "",
		"ValueStrKey": "ST:53404"
	},
	{
		"ID": -804,
		"IsDSUnSync": false,
		"InternalError": "",
		"ValueStrKey": "ST:53405"
	},
	{
		"ID": -805,
		"IsDSUnSync": false,
		"InternalError": "1",
		"ValueStrKey": "ST:114419"
	},
	{
		"ID": -806,
		"IsDSUnSync": false,
		"InternalError": "1",
		"ValueStrKey": "ST:114420"
	},
	{
		"ID": -807,
		"IsDSUnSync": false,
		"InternalError": "1",
		"ValueStrKey": "ST:114421"
	},
	{
		"ID": -813,
		"IsDSUnSync": false,
		"InternalError": "",
		"ValueStrKey": "ST:53409"
	},
	{
		"ID": -815,
		"IsDSUnSync": false,
		"InternalError": "1",
		"ValueStrKey": "ST:114422"
	},
	{
		"ID": -816,
		"IsDSUnSync": false,
		"InternalError": "",
		"ValueStrKey": "ST:95193"
	},
	{
		"ID": -817,
		"IsDSUnSync": false,
		"InternalError": "",
		"ValueStrKey": "ST:53412"
	},
	{
		"ID": -818,
		"IsDSUnSync": false,
		"InternalError": "",
		"ValueStrKey": "ST:53413"
	},
	{
		"ID": -819,
		"IsDSUnSync": false,
		"InternalError": "1",
		"ValueStrKey": "ST:114423"
	},
	{
		"ID": -821,
		"IsDSUnSync": false,
		"InternalError": "1",
		"ValueStrKey": "ST:114424"
	},
	{
		"ID": -822,
		"IsDSUnSync": false,
		"InternalError": "",
		"ValueStrKey": "ST:95321"
	},
	{
		"ID": -823,
		"IsDSUnSync": false,
		"InternalError": "",
		"ValueStrKey": "ST:53417"
	},
	{
		"ID": -824,
		"IsDSUnSync": false,
		"InternalError": "",
		"ValueStrKey": "ST:95322"
	},
	{
		"ID": -825,
		"IsDSUnSync": false,
		"InternalError": "1",
		"ValueStrKey": "ST:114425"
	},
	{
		"ID": -826,
		"IsDSUnSync": false,
		"InternalError": "1",
		"ValueStrKey": "ST:114426"
	},
	{
		"ID": -827,
		"IsDSUnSync": false,
		"InternalError": "1",
		"ValueStrKey": "ST:114427"
	},
	{
		"ID": -828,
		"IsDSUnSync": false,
		"InternalError": "",
		"ValueStrKey": "ST:53417"
	},
	{
		"ID": -829,
		"IsDSUnSync": false,
		"InternalError": "1",
		"ValueStrKey": "ST:114428"
	},
	{
		"ID": -831,
		"IsDSUnSync": false,
		"InternalError": "",
		"ValueStrKey": "ST:122807"
	},
	{
		"ID": -832,
		"IsDSUnSync": false,
		"InternalError": "1",
		"ValueStrKey": "ST:122808"
	},
	{
		"ID": -833,
		"IsDSUnSync": false,
		"InternalError": "1",
		"ValueStrKey": "ST:122809"
	},
	{
		"ID": -834,
		"IsDSUnSync": false,
		"InternalError": "1",
		"ValueStrKey": "ST:122810"
	},
	{
		"ID": -835,
		"IsDSUnSync": false,
		"InternalError": "1",
		"ValueStrKey": "ST:122811"
	},
	{
		"ID": -836,
		"IsDSUnSync": false,
		"InternalError": "1",
		"ValueStrKey": "ST:122812"
	},
	{
		"ID": -837,
		"IsDSUnSync": false,
		"InternalError": "",
		"ValueStrKey": "ST:122813"
	},
	{
		"ID": -838,
		"IsDSUnSync": false,
		"InternalError": "",
		"ValueStrKey": "ST:122814"
	},
	{
		"ID": -839,
		"IsDSUnSync": false,
		"InternalError": "1",
		"ValueStrKey": "ST:122815"
	},
	{
		"ID": -840,
		"IsDSUnSync": false,
		"InternalError": "1",
		"ValueStrKey": "ST:122816"
	},
	{
		"ID": -841,
		"IsDSUnSync": false,
		"InternalError": "1",
		"ValueStrKey": "ST:122817"
	},
	{
		"ID": -842,
		"IsDSUnSync": false,
		"InternalError": "1",
		"ValueStrKey": "ST:122818"
	},
	{
		"ID": -843,
		"IsDSUnSync": false,
		"InternalError": "1",
		"ValueStrKey": "ST:122819"
	},
	{
		"ID": -844,
		"IsDSUnSync": false,
		"InternalError": "",
		"ValueStrKey": "ST:122820"
	},
	{
		"ID": -845,
		"IsDSUnSync": false,
		"InternalError": "",
		"ValueStrKey": "ST:122821"
	},
	{
		"ID": -846,
		"IsDSUnSync": false,
		"InternalError": "",
		"ValueStrKey": "ST:122822"
	},
	{
		"ID": -847,
		"IsDSUnSync": false,
		"InternalError": "",
		"ValueStrKey": "ST:122823"
	},
	{
		"ID": -900,
		"IsDSUnSync": false,
		"InternalError": "",
		"ValueStrKey": "ST:95323"
	},
	{
		"ID": -901,
		"IsDSUnSync": false,
		"InternalError": "1",
		"ValueStrKey": "ST:114429"
	},
	{
		"ID": -902,
		"IsDSUnSync": false,
		"InternalError": "",
		"ValueStrKey": "ST:53425"
	},
	{
		"ID": -903,
		"IsDSUnSync": false,
		"InternalError": "",
		"ValueStrKey": "ST:53426"
	},
	{
		"ID": -904,
		"IsDSUnSync": false,
		"InternalError": "1",
		"ValueStrKey": "ST:114430"
	},
	{
		"ID": -905,
		"IsDSUnSync": false,
		"InternalError": "",
		"ValueStrKey": "ST:95324"
	},
	{
		"ID": -906,
		"IsDSUnSync": false,
		"InternalError": "",
		"ValueStrKey": "ST:109227"
	},
	{
		"ID": -907,
		"IsDSUnSync": false,
		"InternalError": "",
		"ValueStrKey": "ST:109228"
	},
	{
		"ID": -908,
		"IsDSUnSync": false,
		"InternalError": "",
		"ValueStrKey": "ST:95326"
	},
	{
		"ID": -909,
		"IsDSUnSync": false,
		"InternalError": "",
		"ValueStrKey": "ST:53432"
	},
	{
		"ID": -910,
		"IsDSUnSync": false,
		"InternalError": "",
		"ValueStrKey": "ST:53433"
	},
	{
		"ID": -911,
		"IsDSUnSync": false,
		"InternalError": "",
		"ValueStrKey": "ST:95327"
	},
	{
		"ID": -913,
		"IsDSUnSync": false,
		"InternalError": "",
		"ValueStrKey": "ST:95328"
	},
	{
		"ID": -914,
		"IsDSUnSync": false,
		"InternalError": "",
		"ValueStrKey": "ST:95329"
	},
	{
		"ID": -915,
		"IsDSUnSync": false,
		"InternalError": "",
		"ValueStrKey": "ST:95330"
	},
	{
		"ID": -1001,
		"IsDSUnSync": false,
		"InternalError": "1",
		"ValueStrKey": "ST:114431"
	},
	{
		"ID": -1002,
		"IsDSUnSync": false,
		"InternalError": "1",
		"ValueStrKey": "ST:114432"
	},
	{
		"ID": -1003,
		"IsDSUnSync": false,
		"InternalError": "1",
		"ValueStrKey": "ST:114433"
	},
	{
		"ID": -1004,
		"IsDSUnSync": false,
		"InternalError": "1",
		"ValueStrKey": "ST:114434"
	},
	{
		"ID": -1005,
		"IsDSUnSync": false,
		"InternalError": "1",
		"ValueStrKey": "ST:114435"
	},
	{
		"ID": -1006,
		"IsDSUnSync": false,
		"InternalError": "1",
		"ValueStrKey": "ST:114436"
	},
	{
		"ID": -1007,
		"IsDSUnSync": false,
		"InternalError": "1",
		"ValueStrKey": "ST:114437"
	},
	{
		"ID": -1008,
		"IsDSUnSync": false,
		"InternalError": "1",
		"ValueStrKey": "ST:114438"
	},
	{
		"ID": -1009,
		"IsDSUnSync": false,
		"InternalError": "1",
		"ValueStrKey": "ST:114439"
	},
	{
		"ID": -1010,
		"IsDSUnSync": false,
		"InternalError": "",
		"ValueStrKey": "ST:95331"
	},
	{
		"ID": -1015,
		"IsDSUnSync": false,
		"InternalError": "",
		"ValueStrKey": "ST:111440"
	},
	{
		"ID": -1016,
		"IsDSUnSync": false,
		"InternalError": "1",
		"ValueStrKey": "ST:114440"
	},
	{
		"ID": -1017,
		"IsDSUnSync": false,
		"InternalError": "1",
		"ValueStrKey": "ST:114441"
	},
	{
		"ID": -1018,
		"IsDSUnSync": false,
		"InternalError": "",
		"ValueStrKey": "ST:106606"
	},
	{
		"ID": -1019,
		"IsDSUnSync": false,
		"InternalError": "",
		"ValueStrKey": "ST:106607"
	},
	{
		"ID": -1020,
		"IsDSUnSync": false,
		"InternalError": "",
		"ValueStrKey": "ST:95333"
	},
	{
		"ID": -1021,
		"IsDSUnSync": false,
		"InternalError": "",
		"ValueStrKey": "ST:53454"
	},
	{
		"ID": -1022,
		"IsDSUnSync": false,
		"InternalError": "",
		"ValueStrKey": "ST:53455"
	},
	{
		"ID": -1023,
		"IsDSUnSync": false,
		"InternalError": "",
		"ValueStrKey": "ST:53456"
	},
	{
		"ID": -1024,
		"IsDSUnSync": false,
		"InternalError": "",
		"ValueStrKey": "ST:53457"
	},
	{
		"ID": -1025,
		"IsDSUnSync": false,
		"InternalError": "",
		"ValueStrKey": "ST:53458"
	},
	{
		"ID": -1026,
		"IsDSUnSync": false,
		"InternalError": "",
		"ValueStrKey": "ST:95334"
	},
	{
		"ID": -1027,
		"IsDSUnSync": false,
		"InternalError": "",
		"ValueStrKey": "ST:95335"
	},
	{
		"ID": -1028,
		"IsDSUnSync": false,
		"InternalError": "",
		"ValueStrKey": "ST:53459"
	},
	{
		"ID": -1029,
		"IsDSUnSync": false,
		"InternalError": "",
		"ValueStrKey": "ST:95336"
	},
	{
		"ID": -1030,
		"IsDSUnSync": false,
		"InternalError": "1",
		"ValueStrKey": "ST:114442"
	},
	{
		"ID": -1031,
		"IsDSUnSync": false,
		"InternalError": "1",
		"ValueStrKey": "ST:114443"
	},
	{
		"ID": -1032,
		"IsDSUnSync": false,
		"InternalError": "",
		"ValueStrKey": "ST:130005"
	},
	{
		"ID": -1033,
		"IsDSUnSync": false,
		"InternalError": "",
		"ValueStrKey": "ST:130006"
	},
	{
		"ID": -1034,
		"IsDSUnSync": false,
		"InternalError": "",
		"ValueStrKey": "ST:95337"
	},
	{
		"ID": -1035,
		"IsDSUnSync": false,
		"InternalError": "1",
		"ValueStrKey": "ST:114444"
	},
	{
		"ID": -1036,
		"IsDSUnSync": false,
		"InternalError": "",
		"ValueStrKey": "ST:128584"
	},
	{
		"ID": -1037,
		"IsDSUnSync": false,
		"InternalError": "",
		"ValueStrKey": "ST:53469"
	},
	{
		"ID": -1038,
		"IsDSUnSync": false,
		"InternalError": "",
		"ValueStrKey": "ST:95338"
	},
	{
		"ID": -1039,
		"IsDSUnSync": false,
		"InternalError": "",
		"ValueStrKey": "ST:129452"
	},
	{
		"ID": -1040,
		"IsDSUnSync": false,
		"InternalError": "",
		"ValueStrKey": "ST:77720"
	},
	{
		"ID": -1041,
		"IsDSUnSync": false,
		"InternalError": "1",
		"ValueStrKey": "ST:128661"
	},
	{
		"ID": -1042,
		"IsDSUnSync": false,
		"InternalError": "1",
		"ValueStrKey": "ST:128662"
	},
	{
		"ID": -1043,
		"IsDSUnSync": false,
		"InternalError": "1",
		"ValueStrKey": "ST:128663"
	},
	{
		"ID": -1044,
		"IsDSUnSync": false,
		"InternalError": "1",
		"ValueStrKey": "ST:128664"
	},
	{
		"ID": -1045,
		"IsDSUnSync": false,
		"InternalError": "1",
		"ValueStrKey": "ST:128665"
	},
	{
		"ID": -1046,
		"IsDSUnSync": false,
		"InternalError": "1",
		"ValueStrKey": "ST:128666"
	},
	{
		"ID": -1047,
		"IsDSUnSync": false,
		"InternalError": "",
		"ValueStrKey": "ST:107010"
	},
	{
		"ID": -1048,
		"IsDSUnSync": false,
		"InternalError": "",
		"ValueStrKey": "ST:128667"
	},
	{
		"ID": -1049,
		"IsDSUnSync": false,
		"InternalError": "1",
		"ValueStrKey": "ST:128668"
	},
	{
		"ID": -1050,
		"IsDSUnSync": false,
		"InternalError": "1",
		"ValueStrKey": "ST:128669"
	},
	{
		"ID": -1051,
		"IsDSUnSync": false,
		"InternalError": "1",
		"ValueStrKey": "ST:128670"
	},
	{
		"ID": -1052,
		"IsDSUnSync": false,
		"InternalError": "1",
		"ValueStrKey": "ST:128671"
	},
	{
		"ID": -1053,
		"IsDSUnSync": false,
		"InternalError": "1",
		"ValueStrKey": "ST:128672"
	},
	{
		"ID": -1054,
		"IsDSUnSync": false,
		"InternalError": "1",
		"ValueStrKey": "ST:128673"
	},
	{
		"ID": -1055,
		"IsDSUnSync": false,
		"InternalError": "1",
		"ValueStrKey": "ST:128674"
	},
	{
		"ID": -1056,
		"IsDSUnSync": false,
		"InternalError": "",
		"ValueStrKey": "ST:114872"
	},
	{
		"ID": -1057,
		"IsDSUnSync": false,
		"InternalError": "",
		"ValueStrKey": "ST:111902"
	},
	{
		"ID": -1101,
		"IsDSUnSync": false,
		"InternalError": "1",
		"ValueStrKey": "ST:114445"
	},
	{
		"ID": -1102,
		"IsDSUnSync": false,
		"InternalError": "1",
		"ValueStrKey": "ST:114446"
	},
	{
		"ID": -1103,
		"IsDSUnSync": false,
		"InternalError": "1",
		"ValueStrKey": "ST:114447"
	},
	{
		"ID": -1104,
		"IsDSUnSync": false,
		"InternalError": "",
		"ValueStrKey": "ST:53475"
	},
	{
		"ID": -1105,
		"IsDSUnSync": false,
		"InternalError": "1",
		"ValueStrKey": "ST:114448"
	},
	{
		"ID": -1106,
		"IsDSUnSync": false,
		"InternalError": "1",
		"ValueStrKey": "ST:114449"
	},
	{
		"ID": -1107,
		"IsDSUnSync": false,
		"InternalError": "1",
		"ValueStrKey": "ST:114450"
	},
	{
		"ID": -1108,
		"IsDSUnSync": false,
		"InternalError": "1",
		"ValueStrKey": "ST:114451"
	},
	{
		"ID": -1109,
		"IsDSUnSync": false,
		"InternalError": "1",
		"ValueStrKey": "ST:114452"
	},
	{
		"ID": -1110,
		"IsDSUnSync": false,
		"InternalError": "",
		"ValueStrKey": "ST:53481"
	},
	{
		"ID": -1111,
		"IsDSUnSync": false,
		"InternalError": "",
		"ValueStrKey": "ST:53482"
	},
	{
		"ID": -1112,
		"IsDSUnSync": false,
		"InternalError": "1",
		"ValueStrKey": "ST:114453"
	},
	{
		"ID": -1113,
		"IsDSUnSync": false,
		"InternalError": "1",
		"ValueStrKey": "ST:114454"
	},
	{
		"ID": -1114,
		"IsDSUnSync": false,
		"InternalError": "1",
		"ValueStrKey": "ST:114455"
	},
	{
		"ID": -1115,
		"IsDSUnSync": false,
		"InternalError": "1",
		"ValueStrKey": "ST:114456"
	},
	{
		"ID": -1116,
		"IsDSUnSync": false,
		"InternalError": "1",
		"ValueStrKey": "ST:114457"
	},
	{
		"ID": -1117,
		"IsDSUnSync": true,
		"InternalError": "1",
		"ValueStrKey": "ST:114458"
	},
	{
		"ID": -1118,
		"IsDSUnSync": false,
		"InternalError": "",
		"ValueStrKey": "ST:53489"
	},
	{
		"ID": -1119,
		"IsDSUnSync": true,
		"InternalError": "1",
		"ValueStrKey": "ST:114459"
	},
	{
		"ID": -1120,
		"IsDSUnSync": false,
		"InternalError": "",
		"ValueStrKey": "ST:95339"
	},
	{
		"ID": -1130,
		"IsDSUnSync": false,
		"InternalError": "1",
		"ValueStrKey": "ST:114460"
	},
	{
		"ID": -1140,
		"IsDSUnSync": false,
		"InternalError": "",
		"ValueStrKey": "ST:95341"
	},
	{
		"ID": -1141,
		"IsDSUnSync": false,
		"InternalError": "",
		"ValueStrKey": "ST:95342"
	},
	{
		"ID": -1201,
		"IsDSUnSync": false,
		"InternalError": "1",
		"ValueStrKey": "ST:114461"
	},
	{
		"ID": -1202,
		"IsDSUnSync": false,
		"InternalError": "1",
		"ValueStrKey": "ST:114462"
	},
	{
		"ID": -1203,
		"IsDSUnSync": false,
		"InternalError": "",
		"ValueStrKey": "ST:95343"
	},
	{
		"ID": -1204,
		"IsDSUnSync": false,
		"InternalError": "",
		"ValueStrKey": "ST:53499"
	},
	{
		"ID": -1205,
		"IsDSUnSync": false,
		"InternalError": "",
		"ValueStrKey": "ST:53500"
	},
	{
		"ID": -1206,
		"IsDSUnSync": false,
		"InternalError": "",
		"ValueStrKey": "ST:95344"
	},
	{
		"ID": -1207,
		"IsDSUnSync": false,
		"InternalError": "1",
		"ValueStrKey": "ST:114463"
	},
	{
		"ID": -1208,
		"IsDSUnSync": false,
		"InternalError": "1",
		"ValueStrKey": "ST:114464"
	},
	{
		"ID": -1209,
		"IsDSUnSync": false,
		"InternalError": "",
		"ValueStrKey": "ST:53504"
	},
	{
		"ID": -1210,
		"IsDSUnSync": false,
		"InternalError": "1",
		"ValueStrKey": "ST:114465"
	},
	{
		"ID": -1211,
		"IsDSUnSync": false,
		"InternalError": "",
		"ValueStrKey": "ST:53506"
	},
	{
		"ID": -1212,
		"IsDSUnSync": false,
		"InternalError": "",
		"ValueStrKey": "ST:53507"
	},
	{
		"ID": -1213,
		"IsDSUnSync": false,
		"InternalError": "",
		"ValueStrKey": "ST:53508"
	},
	{
		"ID": -1214,
		"IsDSUnSync": false,
		"InternalError": "",
		"ValueStrKey": "ST:95345"
	},
	{
		"ID": -1215,
		"IsDSUnSync": false,
		"InternalError": "",
		"ValueStrKey": "ST:131414"
	},
	{
		"ID": -1250,
		"IsDSUnSync": false,
		"InternalError": "",
		"ValueStrKey": "ST:95346"
	},
	{
		"ID": -1251,
		"IsDSUnSync": false,
		"InternalError": "1",
		"ValueStrKey": "ST:114466"
	},
	{
		"ID": -1252,
		"IsDSUnSync": false,
		"InternalError": "",
		"ValueStrKey": "ST:95347"
	},
	{
		"ID": -1253,
		"IsDSUnSync": false,
		"InternalError": "",
		"ValueStrKey": "ST:95348"
	},
	{
		"ID": -1254,
		"IsDSUnSync": false,
		"InternalError": "",
		"ValueStrKey": "ST:77721"
	},
	{
		"ID": -1255,
		"IsDSUnSync": false,
		"InternalError": "",
		"ValueStrKey": "ST:53515"
	},
	{
		"ID": -1256,
		"IsDSUnSync": false,
		"InternalError": "1",
		"ValueStrKey": "ST:114467"
	},
	{
		"ID": -1257,
		"IsDSUnSync": false,
		"InternalError": "",
		"ValueStrKey": "ST:53517"
	},
	{
		"ID": -1258,
		"IsDSUnSync": false,
		"InternalError": "",
		"ValueStrKey": "ST:95349"
	},
	{
		"ID": -1259,
		"IsDSUnSync": false,
		"InternalError": "",
		"ValueStrKey": "ST:53519"
	},
	{
		"ID": -1260,
		"IsDSUnSync": false,
		"InternalError": "",
		"ValueStrKey": "ST:95350"
	},
	{
		"ID": -1261,
		"IsDSUnSync": false,
		"InternalError": "",
		"ValueStrKey": "ST:95351"
	},
	{
		"ID": -1262,
		"IsDSUnSync": false,
		"InternalError": "",
		"ValueStrKey": "ST:95352"
	},
	{
		"ID": -1263,
		"IsDSUnSync": false,
		"InternalError": "",
		"ValueStrKey": "ST:96528"
	},
	{
		"ID": -1270,
		"IsDSUnSync": false,
		"InternalError": "",
		"ValueStrKey": "ST:53523"
	},
	{
		"ID": -1271,
		"IsDSUnSync": false,
		"InternalError": "1",
		"ValueStrKey": "ST:114468"
	},
	{
		"ID": -1272,
		"IsDSUnSync": false,
		"InternalError": "1",
		"ValueStrKey": "ST:90071"
	},
	{
		"ID": -1290,
		"IsDSUnSync": false,
		"InternalError": "",
		"ValueStrKey": "ST:53469"
	},
	{
		"ID": -1300,
		"IsDSUnSync": false,
		"InternalError": "1",
		"ValueStrKey": "ST:114469"
	},
	{
		"ID": -1301,
		"IsDSUnSync": false,
		"InternalError": "",
		"ValueStrKey": "ST:95353"
	},
	{
		"ID": -1302,
		"IsDSUnSync": false,
		"InternalError": "",
		"ValueStrKey": "ST:95354"
	},
	{
		"ID": -1303,
		"IsDSUnSync": false,
		"InternalError": "1",
		"ValueStrKey": "ST:114470"
	},
	{
		"ID": -1304,
		"IsDSUnSync": false,
		"InternalError": "",
		"ValueStrKey": "ST:95355"
	},
	{
		"ID": -1305,
		"IsDSUnSync": false,
		"InternalError": "1",
		"ValueStrKey": "ST:114471"
	},
	{
		"ID": -1306,
		"IsDSUnSync": false,
		"InternalError": "1",
		"ValueStrKey": "ST:114472"
	},
	{
		"ID": -1307,
		"IsDSUnSync": false,
		"InternalError": "",
		"ValueStrKey": "ST:53532"
	},
	{
		"ID": -1308,
		"IsDSUnSync": false,
		"InternalError": "",
		"ValueStrKey": "ST:95356"
	},
	{
		"ID": -1309,
		"IsDSUnSync": false,
		"InternalError": "",
		"ValueStrKey": "ST:95357"
	},
	{
		"ID": -1310,
		"IsDSUnSync": false,
		"InternalError": "",
		"ValueStrKey": "ST:95358"
	},
	{
		"ID": -1311,
		"IsDSUnSync": false,
		"InternalError": "1",
		"ValueStrKey": "ST:114473"
	},
	{
		"ID": -1312,
		"IsDSUnSync": false,
		"InternalError": "1",
		"ValueStrKey": "ST:114474"
	},
	{
		"ID": -1313,
		"IsDSUnSync": false,
		"InternalError": "",
		"ValueStrKey": "ST:95359"
	},
	{
		"ID": -1314,
		"IsDSUnSync": false,
		"InternalError": "",
		"ValueStrKey": "ST:109231"
	},
	{
		"ID": -1315,
		"IsDSUnSync": false,
		"InternalError": "",
		"ValueStrKey": "ST:53540"
	},
	{
		"ID": -1320,
		"IsDSUnSync": false,
		"InternalError": "",
		"ValueStrKey": "ST:118195"
	},
	{
		"ID": -1321,
		"IsDSUnSync": false,
		"InternalError": "1",
		"ValueStrKey": "ST:114475"
	},
	{
		"ID": -1322,
		"IsDSUnSync": false,
		"InternalError": "1",
		"ValueStrKey": "ST:114476"
	},
	{
		"ID": -1323,
		"IsDSUnSync": false,
		"InternalError": "",
		"ValueStrKey": "ST:53544"
	},
	{
		"ID": -1324,
		"IsDSUnSync": false,
		"InternalError": "",
		"ValueStrKey": "ST:53545"
	},
	{
		"ID": -1325,
		"IsDSUnSync": false,
		"InternalError": "",
		"ValueStrKey": "ST:95362"
	},
	{
		"ID": -1326,
		"IsDSUnSync": false,
		"InternalError": "1",
		"ValueStrKey": "ST:114477"
	},
	{
		"ID": -1327,
		"IsDSUnSync": false,
		"InternalError": "",
		"ValueStrKey": "ST:95363"
	},
	{
		"ID": -1328,
		"IsDSUnSync": false,
		"InternalError": "",
		"ValueStrKey": "ST:53549"
	},
	{
		"ID": -1329,
		"IsDSUnSync": false,
		"InternalError": "1",
		"ValueStrKey": "ST:114478"
	},
	{
		"ID": -1330,
		"IsDSUnSync": false,
		"InternalError": "",
		"ValueStrKey": "ST:53551"
	},
	{
		"ID": -1331,
		"IsDSUnSync": true,
		"InternalError": "1",
		"ValueStrKey": "ST:114479"
	},
	{
		"ID": -1332,
		"IsDSUnSync": true,
		"InternalError": "1",
		"ValueStrKey": "ST:114480"
	},
	{
		"ID": -1333,
		"IsDSUnSync": false,
		"InternalError": "",
		"ValueStrKey": "ST:53554"
	},
	{
		"ID": -1334,
		"IsDSUnSync": false,
		"InternalError": "",
		"ValueStrKey": "ST:53555"
	},
	{
		"ID": -1340,
		"IsDSUnSync": false,
		"InternalError": "",
		"ValueStrKey": "ST:108547"
	},
	{
		"ID": -1341,
		"IsDSUnSync": false,
		"InternalError": "",
		"ValueStrKey": "ST:53557"
	},
	{
		"ID": -1342,
		"IsDSUnSync": false,
		"InternalError": "",
		"ValueStrKey": "ST:53558"
	},
	{
		"ID": -1343,
		"IsDSUnSync": false,
		"InternalError": "",
		"ValueStrKey": "ST:53559"
	},
	{
		"ID": -1344,
		"IsDSUnSync": false,
		"InternalError": "",
		"ValueStrKey": "ST:53560"
	},
	{
		"ID": -1345,
		"IsDSUnSync": false,
		"InternalError": "",
		"ValueStrKey": "ST:53561"
	},
	{
		"ID": -1346,
		"IsDSUnSync": false,
		"InternalError": "",
		"ValueStrKey": "ST:53434"
	},
	{
		"ID": -1347,
		"IsDSUnSync": false,
		"InternalError": "",
		"ValueStrKey": "ST:53562"
	},
	{
		"ID": -1348,
		"IsDSUnSync": false,
		"InternalError": "",
		"ValueStrKey": "ST:53562"
	},
	{
		"ID": -1349,
		"IsDSUnSync": false,
		"InternalError": "",
		"ValueStrKey": "ST:95364"
	},
	{
		"ID": -1350,
		"IsDSUnSync": false,
		"InternalError": "",
		"ValueStrKey": "ST:53564"
	},
	{
		"ID": -1351,
		"IsDSUnSync": false,
		"InternalError": "",
		"ValueStrKey": "ST:95365"
	},
	{
		"ID": -1352,
		"IsDSUnSync": false,
		"InternalError": "1",
		"ValueStrKey": "ST:114481"
	},
	{
		"ID": -1353,
		"IsDSUnSync": false,
		"InternalError": "",
		"ValueStrKey": "ST:95366"
	},
	{
		"ID": -1354,
		"IsDSUnSync": false,
		"InternalError": "",
		"ValueStrKey": "ST:95367"
	},
	{
		"ID": -1355,
		"IsDSUnSync": false,
		"InternalError": "",
		"ValueStrKey": "ST:95368"
	},
	{
		"ID": -1356,
		"IsDSUnSync": false,
		"InternalError": "",
		"ValueStrKey": "ST:53569"
	},
	{
		"ID": -1357,
		"IsDSUnSync": false,
		"InternalError": "",
		"ValueStrKey": "ST:96914"
	},
	{
		"ID": -1358,
		"IsDSUnSync": false,
		"InternalError": "",
		"ValueStrKey": "ST:130985"
	},
	{
		"ID": -1359,
		"IsDSUnSync": false,
		"InternalError": "",
		"ValueStrKey": "ST:108548"
	},
	{
		"ID": -1360,
		"IsDSUnSync": false,
		"InternalError": "",
		"ValueStrKey": "ST:108549"
	},
	{
		"ID": -1361,
		"IsDSUnSync": false,
		"InternalError": "",
		"ValueStrKey": "ST:111047"
	},
	{
		"ID": -1362,
		"IsDSUnSync": false,
		"InternalError": "",
		"ValueStrKey": "ST:111066"
	},
	{
		"ID": -1363,
		"IsDSUnSync": true,
		"InternalError": "",
		"ValueStrKey": "ST:111435"
	},
	{
		"ID": -1364,
		"IsDSUnSync": false,
		"InternalError": "1",
		"ValueStrKey": "ST:126435"
	},
	{
		"ID": -1365,
		"IsDSUnSync": false,
		"InternalError": "1",
		"ValueStrKey": "ST:126436"
	},
	{
		"ID": -1366,
		"IsDSUnSync": false,
		"InternalError": "",
		"ValueStrKey": "ST:129974"
	},
	{
		"ID": -1367,
		"IsDSUnSync": false,
		"InternalError": "",
		"ValueStrKey": "ST:130630"
	},
	{
		"ID": -1368,
		"IsDSUnSync": false,
		"InternalError": "",
		"ValueStrKey": "ST:131649"
	},
	{
		"ID": -1380,
		"IsDSUnSync": false,
		"InternalError": "1",
		"ValueStrKey": "ST:114482"
	},
	{
		"ID": -1381,
		"IsDSUnSync": false,
		"InternalError": "1",
		"ValueStrKey": "ST:114483"
	},
	{
		"ID": -1385,
		"IsDSUnSync": false,
		"InternalError": "",
		"ValueStrKey": "ST:96197"
	},
	{
		"ID": -1400,
		"IsDSUnSync": false,
		"InternalError": "",
		"ValueStrKey": "ST:53572"
	},
	{
		"ID": -1401,
		"IsDSUnSync": false,
		"InternalError": "",
		"ValueStrKey": "ST:53573"
	},
	{
		"ID": -1402,
		"IsDSUnSync": false,
		"InternalError": "",
		"ValueStrKey": "ST:95369"
	},
	{
		"ID": -1403,
		"IsDSUnSync": false,
		"InternalError": "",
		"ValueStrKey": "ST:53575"
	},
	{
		"ID": -1404,
		"IsDSUnSync": false,
		"InternalError": "",
		"ValueStrKey": "ST:53575"
	},
	{
		"ID": -1405,
		"IsDSUnSync": false,
		"InternalError": "",
		"ValueStrKey": "ST:95370"
	},
	{
		"ID": -1406,
		"IsDSUnSync": false,
		"InternalError": "",
		"ValueStrKey": "ST:53577"
	},
	{
		"ID": -1407,
		"IsDSUnSync": false,
		"InternalError": "",
		"ValueStrKey": "ST:95371"
	},
	{
		"ID": -1410,
		"IsDSUnSync": false,
		"InternalError": "",
		"ValueStrKey": "ST:53579"
	},
	{
		"ID": -1420,
		"IsDSUnSync": false,
		"InternalError": "",
		"ValueStrKey": "ST:53580"
	},
	{
		"ID": -1421,
		"IsDSUnSync": true,
		"InternalError": "1",
		"ValueStrKey": "ST:114484"
	},
	{
		"ID": -1422,
		"IsDSUnSync": true,
		"InternalError": "1",
		"ValueStrKey": "ST:114485"
	},
	{
		"ID": -1423,
		"IsDSUnSync": false,
		"InternalError": "",
		"ValueStrKey": "ST:53583"
	},
	{
		"ID": -1424,
		"IsDSUnSync": false,
		"InternalError": "",
		"ValueStrKey": "ST:53584"
	},
	{
		"ID": -1425,
		"IsDSUnSync": false,
		"InternalError": "",
		"ValueStrKey": "ST:53585"
	},
	{
		"ID": -1426,
		"IsDSUnSync": false,
		"InternalError": "",
		"ValueStrKey": "ST:53586"
	},
	{
		"ID": -1427,
		"IsDSUnSync": false,
		"InternalError": "",
		"ValueStrKey": "ST:53587"
	},
	{
		"ID": -1428,
		"IsDSUnSync": true,
		"InternalError": "1",
		"ValueStrKey": "ST:114486"
	},
	{
		"ID": -1429,
		"IsDSUnSync": false,
		"InternalError": "",
		"ValueStrKey": "ST:53585"
	},
	{
		"ID": -1430,
		"IsDSUnSync": false,
		"InternalError": "",
		"ValueStrKey": "ST:53587"
	},
	{
		"ID": -1431,
		"IsDSUnSync": true,
		"InternalError": "1",
		"ValueStrKey": "ST:114487"
	},
	{
		"ID": -1432,
		"IsDSUnSync": false,
		"InternalError": "",
		"ValueStrKey": "ST:53590"
	},
	{
		"ID": -1450,
		"IsDSUnSync": false,
		"InternalError": "",
		"ValueStrKey": "ST:53591"
	},
	{
		"ID": -1451,
		"IsDSUnSync": true,
		"InternalError": "1",
		"ValueStrKey": "ST:114488"
	},
	{
		"ID": -1452,
		"IsDSUnSync": true,
		"InternalError": "1",
		"ValueStrKey": "ST:114489"
	},
	{
		"ID": -1453,
		"IsDSUnSync": false,
		"InternalError": "",
		"ValueStrKey": "ST:111702"
	},
	{
		"ID": -1454,
		"IsDSUnSync": false,
		"InternalError": "",
		"ValueStrKey": "ST:53595"
	},
	{
		"ID": -1455,
		"IsDSUnSync": false,
		"InternalError": "",
		"ValueStrKey": "ST:95372"
	},
	{
		"ID": -1456,
		"IsDSUnSync": false,
		"InternalError": "",
		"ValueStrKey": "ST:53597"
	},
	{
		"ID": -1457,
		"IsDSUnSync": false,
		"InternalError": "",
		"ValueStrKey": "ST:53598"
	},
	{
		"ID": -1458,
		"IsDSUnSync": true,
		"InternalError": "1",
		"ValueStrKey": "ST:114490"
	},
	{
		"ID": -1459,
		"IsDSUnSync": false,
		"InternalError": "",
		"ValueStrKey": "ST:53600"
	},
	{
		"ID": -1460,
		"IsDSUnSync": false,
		"InternalError": "",
		"ValueStrKey": "ST:53587"
	},
	{
		"ID": -1461,
		"IsDSUnSync": false,
		"InternalError": "",
		"ValueStrKey": "ST:53597"
	},
	{
		"ID": -1462,
		"IsDSUnSync": false,
		"InternalError": "",
		"ValueStrKey": "ST:53601"
	},
	{
		"ID": -1463,
		"IsDSUnSync": false,
		"InternalError": "",
		"ValueStrKey": "ST:53598"
	},
	{
		"ID": -1464,
		"IsDSUnSync": false,
		"InternalError": "",
		"ValueStrKey": "ST:101008"
	},
	{
		"ID": -1480,
		"IsDSUnSync": false,
		"InternalError": "",
		"ValueStrKey": "ST:95373"
	},
	{
		"ID": -1481,
		"IsDSUnSync": true,
		"InternalError": "1",
		"ValueStrKey": "ST:114491"
	},
	{
		"ID": -1482,
		"IsDSUnSync": false,
		"InternalError": "",
		"ValueStrKey": "ST:95374"
	},
	{
		"ID": -1483,
		"IsDSUnSync": false,
		"InternalError": "1",
		"ValueStrKey": "ST:114492"
	},
	{
		"ID": -1484,
		"IsDSUnSync": false,
		"InternalError": "",
		"ValueStrKey": "ST:95375"
	},
	{
		"ID": -1485,
		"IsDSUnSync": false,
		"InternalError": "",
		"ValueStrKey": "ST:95376"
	},
	{
		"ID": -1486,
		"IsDSUnSync": false,
		"InternalError": "",
		"ValueStrKey": "ST:53608"
	},
	{
		"ID": -1487,
		"IsDSUnSync": false,
		"InternalError": "1",
		"ValueStrKey": "ST:114493"
	},
	{
		"ID": -1488,
		"IsDSUnSync": false,
		"InternalError": "",
		"ValueStrKey": "ST:53587"
	},
	{
		"ID": -1489,
		"IsDSUnSync": false,
		"InternalError": "",
		"ValueStrKey": "ST:53608"
	},
	{
		"ID": -1500,
		"IsDSUnSync": false,
		"InternalError": "1",
		"ValueStrKey": "ST:114494"
	},
	{
		"ID": -1501,
		"IsDSUnSync": false,
		"InternalError": "1",
		"ValueStrKey": "ST:114495"
	},
	{
		"ID": -1502,
		"IsDSUnSync": false,
		"InternalError": "",
		"ValueStrKey": "ST:53612"
	},
	{
		"ID": -1503,
		"IsDSUnSync": false,
		"InternalError": "",
		"ValueStrKey": "ST:53613"
	},
	{
		"ID": -1504,
		"IsDSUnSync": false,
		"InternalError": "",
		"ValueStrKey": "ST:95377"
	},
	{
		"ID": -1505,
		"IsDSUnSync": false,
		"InternalError": "",
		"ValueStrKey": "ST:53615"
	},
	{
		"ID": -1506,
		"IsDSUnSync": false,
		"InternalError": "1",
		"ValueStrKey": "ST:114496"
	},
	{
		"ID": -1507,
		"IsDSUnSync": false,
		"InternalError": "1",
		"ValueStrKey": "ST:114497"
	},
	{
		"ID": -1508,
		"IsDSUnSync": false,
		"InternalError": "1",
		"ValueStrKey": "ST:114498"
	},
	{
		"ID": -1509,
		"IsDSUnSync": false,
		"InternalError": "",
		"ValueStrKey": "ST:95378"
	},
	{
		"ID": -1511,
		"IsDSUnSync": false,
		"InternalError": "",
		"ValueStrKey": "ST:95379"
	},
	{
		"ID": -1512,
		"IsDSUnSync": false,
		"InternalError": "1",
		"ValueStrKey": "ST:114499"
	},
	{
		"ID": -1513,
		"IsDSUnSync": false,
		"InternalError": "",
		"ValueStrKey": "ST:53622"
	},
	{
		"ID": -1514,
		"IsDSUnSync": false,
		"InternalError": "",
		"ValueStrKey": "ST:95380"
	},
	{
		"ID": -1515,
		"IsDSUnSync": false,
		"InternalError": "",
		"ValueStrKey": "ST:95381"
	},
	{
		"ID": -1530,
		"IsDSUnSync": false,
		"InternalError": "1",
		"ValueStrKey": "ST:114500"
	},
	{
		"ID": -1531,
		"IsDSUnSync": false,
		"InternalError": "",
		"ValueStrKey": "ST:53625"
	},
	{
		"ID": -1532,
		"IsDSUnSync": false,
		"InternalError": "",
		"ValueStrKey": "ST:53587"
	},
	{
		"ID": -1533,
		"IsDSUnSync": true,
		"InternalError": "1",
		"ValueStrKey": "ST:114501"
	},
	{
		"ID": -1534,
		"IsDSUnSync": false,
		"InternalError": "",
		"ValueStrKey": "ST:53627"
	},
	{
		"ID": -1535,
		"IsDSUnSync": true,
		"InternalError": "1",
		"ValueStrKey": "ST:114502"
	},
	{
		"ID": -1536,
		"IsDSUnSync": false,
		"InternalError": "",
		"ValueStrKey": "ST:53629"
	},
	{
		"ID": -1537,
		"IsDSUnSync": true,
		"InternalError": "1",
		"ValueStrKey": "ST:114503"
	},
	{
		"ID": -1538,
		"IsDSUnSync": true,
		"InternalError": "",
		"ValueStrKey": "ST:53587"
	},
	{
		"ID": -1539,
		"IsDSUnSync": true,
		"InternalError": "1",
		"ValueStrKey": "ST:114504"
	},
	{
		"ID": -1540,
		"IsDSUnSync": false,
		"InternalError": "",
		"ValueStrKey": "ST:53632"
	},
	{
		"ID": -1550,
		"IsDSUnSync": false,
		"InternalError": "1",
		"ValueStrKey": "ST:114505"
	},
	{
		"ID": -1551,
		"IsDSUnSync": true,
		"InternalError": "1",
		"ValueStrKey": "ST:114506"
	},
	{
		"ID": -1552,
		"IsDSUnSync": false,
		"InternalError": "1",
		"ValueStrKey": "ST:114507"
	},
	{
		"ID": -1553,
		"IsDSUnSync": false,
		"InternalError": "",
		"ValueStrKey": "ST:53632"
	},
	{
		"ID": -1554,
		"IsDSUnSync": false,
		"InternalError": "1",
		"ValueStrKey": "ST:116120"
	},
	{
		"ID": -1555,
		"IsDSUnSync": false,
		"InternalError": "",
		"ValueStrKey": "ST:53637"
	},
	{
		"ID": -1556,
		"IsDSUnSync": false,
		"InternalError": "",
		"ValueStrKey": "ST:53638"
	},
	{
		"ID": -1557,
		"IsDSUnSync": false,
		"InternalError": "",
		"ValueStrKey": "ST:95382"
	},
	{
		"ID": -1558,
		"IsDSUnSync": false,
		"InternalError": "",
		"ValueStrKey": "ST:95383"
	},
	{
		"ID": -1601,
		"IsDSUnSync": false,
		"InternalError": "",
		"ValueStrKey": "ST:130007"
	},
	{
		"ID": -1602,
		"IsDSUnSync": false,
		"InternalError": "",
		"ValueStrKey": "ST:118197"
	},
	{
		"ID": -1603,
		"IsDSUnSync": false,
		"InternalError": "",
		"ValueStrKey": "ST:118198"
	},
	{
		"ID": -1604,
		"IsDSUnSync": false,
		"InternalError": "",
		"ValueStrKey": "ST:118199"
	},
	{
		"ID": -1605,
		"IsDSUnSync": false,
		"InternalError": "",
		"ValueStrKey": "ST:118200"
	},
	{
		"ID": -1606,
		"IsDSUnSync": false,
		"InternalError": "",
		"ValueStrKey": "ST:118201"
	},
	{
		"ID": -1607,
		"IsDSUnSync": false,
		"InternalError": "",
		"ValueStrKey": "ST:118202"
	},
	{
		"ID": -1608,
		"IsDSUnSync": false,
		"InternalError": "",
		"ValueStrKey": "ST:128866"
	},
	{
		"ID": -1609,
		"IsDSUnSync": false,
		"InternalError": "",
		"ValueStrKey": "ST:132050"
	},
	{
		"ID": -1610,
		"IsDSUnSync": false,
		"InternalError": "",
		"ValueStrKey": "ST:118205"
	},
	{
		"ID": -1611,
		"IsDSUnSync": false,
		"InternalError": "",
		"ValueStrKey": "ST:118206"
	},
	{
		"ID": -1612,
		"IsDSUnSync": false,
		"InternalError": "",
		"ValueStrKey": "ST:118207"
	},
	{
		"ID": -1613,
		"IsDSUnSync": false,
		"InternalError": "",
		"ValueStrKey": "ST:118208"
	},
	{
		"ID": -1614,
		"IsDSUnSync": false,
		"InternalError": "",
		"ValueStrKey": "ST:118209"
	},
	{
		"ID": -1615,
		"IsDSUnSync": false,
		"InternalError": "",
		"ValueStrKey": "ST:53654"
	},
	{
		"ID": -1616,
		"IsDSUnSync": false,
		"InternalError": "",
		"ValueStrKey": "ST:118210"
	},
	{
		"ID": -1617,
		"IsDSUnSync": false,
		"InternalError": "",
		"ValueStrKey": "ST:118211"
	},
	{
		"ID": -1618,
		"IsDSUnSync": false,
		"InternalError": "",
		"ValueStrKey": "ST:118212"
	},
	{
		"ID": -1619,
		"IsDSUnSync": false,
		"InternalError": "",
		"ValueStrKey": "ST:129580"
	},
	{
		"ID": -1620,
		"IsDSUnSync": false,
		"InternalError": "",
		"ValueStrKey": "ST:53659"
	},
	{
		"ID": -1621,
		"IsDSUnSync": false,
		"InternalError": "",
		"ValueStrKey": "ST:129581"
	},
	{
		"ID": -1622,
		"IsDSUnSync": false,
		"InternalError": "",
		"ValueStrKey": "ST:129582"
	},
	{
		"ID": -1623,
		"IsDSUnSync": false,
		"InternalError": "",
		"ValueStrKey": "ST:118213"
	},
	{
		"ID": -1624,
		"IsDSUnSync": false,
		"InternalError": "",
		"ValueStrKey": "ST:119222"
	},
	{
		"ID": -1625,
		"IsDSUnSync": false,
		"InternalError": "",
		"ValueStrKey": "ST:128675"
	},
	{
		"ID": -1626,
		"IsDSUnSync": false,
		"InternalError": "",
		"ValueStrKey": "ST:118215"
	},
	{
		"ID": -1627,
		"IsDSUnSync": false,
		"InternalError": "",
		"ValueStrKey": "ST:118216"
	},
	{
		"ID": -1628,
		"IsDSUnSync": false,
		"InternalError": "",
		"ValueStrKey": "ST:118217"
	},
	{
		"ID": -1629,
		"IsDSUnSync": false,
		"InternalError": "",
		"ValueStrKey": "ST:118218"
	},
	{
		"ID": -1630,
		"IsDSUnSync": false,
		"InternalError": "",
		"ValueStrKey": "ST:118219"
	},
	{
		"ID": -1631,
		"IsDSUnSync": false,
		"InternalError": "",
		"ValueStrKey": "ST:129583"
	},
	{
		"ID": -1632,
		"IsDSUnSync": false,
		"InternalError": "",
		"ValueStrKey": "ST:118221"
	},
	{
		"ID": -1633,
		"IsDSUnSync": false,
		"InternalError": "",
		"ValueStrKey": "ST:118222"
	},
	{
		"ID": -1634,
		"IsDSUnSync": false,
		"InternalError": "",
		"ValueStrKey": "ST:118223"
	},
	{
		"ID": -1635,
		"IsDSUnSync": false,
		"InternalError": "",
		"ValueStrKey": "ST:118224"
	},
	{
		"ID": -1636,
		"IsDSUnSync": false,
		"InternalError": "",
		"ValueStrKey": "ST:118198"
	},
	{
		"ID": -1637,
		"IsDSUnSync": false,
		"InternalError": "1",
		"ValueStrKey": "ST:114508"
	},
	{
		"ID": -1638,
		"IsDSUnSync": false,
		"InternalError": "1",
		"ValueStrKey": "ST:114509"
	},
	{
		"ID": -1639,
		"IsDSUnSync": false,
		"InternalError": "",
		"ValueStrKey": "ST:53677"
	},
	{
		"ID": -1640,
		"IsDSUnSync": false,
		"InternalError": "",
		"ValueStrKey": "ST:129584"
	},
	{
		"ID": -1641,
		"IsDSUnSync": false,
		"InternalError": "",
		"ValueStrKey": "ST:53679"
	},
	{
		"ID": -1642,
		"IsDSUnSync": false,
		"InternalError": "",
		"ValueStrKey": "ST:95384"
	},
	{
		"ID": -1643,
		"IsDSUnSync": false,
		"InternalError": "",
		"ValueStrKey": "ST:129585"
	},
	{
		"ID": -1644,
		"IsDSUnSync": false,
		"InternalError": "",
		"ValueStrKey": "ST:118225"
	},
	{
		"ID": -1645,
		"IsDSUnSync": false,
		"InternalError": "",
		"ValueStrKey": "ST:132051"
	},
	{
		"ID": -1646,
		"IsDSUnSync": false,
		"InternalError": "",
		"ValueStrKey": "ST:118226"
	},
	{
		"ID": -1647,
		"IsDSUnSync": false,
		"InternalError": "",
		"ValueStrKey": "ST:129586"
	},
	{
		"ID": -1648,
		"IsDSUnSync": false,
		"InternalError": "",
		"ValueStrKey": "ST:129587"
	},
	{
		"ID": -1649,
		"IsDSUnSync": false,
		"InternalError": "",
		"ValueStrKey": "ST:129588"
	},
	{
		"ID": -1650,
		"IsDSUnSync": false,
		"InternalError": "",
		"ValueStrKey": "ST:131579"
	},
	{
		"ID": -1651,
		"IsDSUnSync": false,
		"InternalError": "",
		"ValueStrKey": "ST:129590"
	},
	{
		"ID": -1652,
		"IsDSUnSync": false,
		"InternalError": "",
		"ValueStrKey": "ST:129591"
	},
	{
		"ID": -1700,
		"IsDSUnSync": false,
		"InternalError": "1",
		"ValueStrKey": "ST:128493"
	},
	{
		"ID": -1701,
		"IsDSUnSync": false,
		"InternalError": "",
		"ValueStrKey": "ST:128494"
	},
	{
		"ID": -1702,
		"IsDSUnSync": false,
		"InternalError": "1",
		"ValueStrKey": "ST:128495"
	},
	{
		"ID": -1703,
		"IsDSUnSync": false,
		"InternalError": "1",
		"ValueStrKey": "ST:128496"
	},
	{
		"ID": -1704,
		"IsDSUnSync": false,
		"InternalError": "1",
		"ValueStrKey": "ST:128497"
	},
	{
		"ID": -1705,
		"IsDSUnSync": false,
		"InternalError": "1",
		"ValueStrKey": "ST:128498"
	},
	{
		"ID": -1706,
		"IsDSUnSync": false,
		"InternalError": "1",
		"ValueStrKey": "ST:128499"
	},
	{
		"ID": -1707,
		"IsDSUnSync": false,
		"InternalError": "1",
		"ValueStrKey": "ST:128500"
	},
	{
		"ID": -1708,
		"IsDSUnSync": false,
		"InternalError": "1",
		"ValueStrKey": "ST:128501"
	},
	{
		"ID": -1709,
		"IsDSUnSync": false,
		"InternalError": "1",
		"ValueStrKey": "ST:128502"
	},
	{
		"ID": -1710,
		"IsDSUnSync": false,
		"InternalError": "1",
		"ValueStrKey": "ST:128503"
	},
	{
		"ID": -1711,
		"IsDSUnSync": false,
		"InternalError": "1",
		"ValueStrKey": "ST:128551"
	},
	{
		"ID": -1712,
		"IsDSUnSync": false,
		"InternalError": "",
		"ValueStrKey": "ST:128552"
	},
	{
		"ID": -1713,
		"IsDSUnSync": false,
		"InternalError": "1",
		"ValueStrKey": "ST:128504"
	},
	{
		"ID": -1714,
		"IsDSUnSync": false,
		"InternalError": "1",
		"ValueStrKey": "ST:128505"
	},
	{
		"ID": -1715,
		"IsDSUnSync": false,
		"InternalError": "1",
		"ValueStrKey": "ST:128506"
	},
	{
		"ID": -1716,
		"IsDSUnSync": false,
		"InternalError": "1",
		"ValueStrKey": "ST:128507"
	},
	{
		"ID": -1721,
		"IsDSUnSync": false,
		"InternalError": "",
		"ValueStrKey": "ST:95389"
	},
	{
		"ID": -1722,
		"IsDSUnSync": false,
		"InternalError": "",
		"ValueStrKey": "ST:95390"
	},
	{
		"ID": -1723,
		"IsDSUnSync": false,
		"InternalError": "",
		"ValueStrKey": "ST:53696"
	},
	{
		"ID": -1740,
		"IsDSUnSync": false,
		"InternalError": "",
		"ValueStrKey": "ST:53697"
	},
	{
		"ID": -1750,
		"IsDSUnSync": false,
		"InternalError": "",
		"ValueStrKey": "ST:53698"
	},
	{
		"ID": -1751,
		"IsDSUnSync": false,
		"InternalError": "",
		"ValueStrKey": "ST:53699"
	},
	{
		"ID": -1752,
		"IsDSUnSync": false,
		"InternalError": "",
		"ValueStrKey": "ST:74783"
	},
	{
		"ID": -1753,
		"IsDSUnSync": false,
		"InternalError": "1",
		"ValueStrKey": "ST:114514"
	},
	{
		"ID": -1754,
		"IsDSUnSync": false,
		"InternalError": "1",
		"ValueStrKey": "ST:114515"
	},
	{
		"ID": -1755,
		"IsDSUnSync": false,
		"InternalError": "",
		"ValueStrKey": "ST:53703"
	},
	{
		"ID": -1756,
		"IsDSUnSync": false,
		"InternalError": "",
		"ValueStrKey": "ST:53704"
	},
	{
		"ID": -1757,
		"IsDSUnSync": false,
		"InternalError": "",
		"ValueStrKey": "ST:95391"
	},
	{
		"ID": -1758,
		"IsDSUnSync": false,
		"InternalError": "",
		"ValueStrKey": "ST:95392"
	},
	{
		"ID": -1759,
		"IsDSUnSync": false,
		"InternalError": "",
		"ValueStrKey": "ST:74783"
	},
	{
		"ID": -1760,
		"IsDSUnSync": false,
		"InternalError": "1",
		"ValueStrKey": "ST:114516"
	},
	{
		"ID": -1761,
		"IsDSUnSync": false,
		"InternalError": "1",
		"ValueStrKey": "ST:114517"
	},
	{
		"ID": -1762,
		"IsDSUnSync": false,
		"InternalError": "",
		"ValueStrKey": "ST:53710"
	},
	{
		"ID": -1763,
		"IsDSUnSync": false,
		"InternalError": "",
		"ValueStrKey": "ST:53711"
	},
	{
		"ID": -1764,
		"IsDSUnSync": false,
		"InternalError": "",
		"ValueStrKey": "ST:53712"
	},
	{
		"ID": -1765,
		"IsDSUnSync": false,
		"InternalError": "1",
		"ValueStrKey": "ST:114518"
	},
	{
		"ID": -1766,
		"IsDSUnSync": false,
		"InternalError": "",
		"ValueStrKey": "ST:95393"
	},
	{
		"ID": -1767,
		"IsDSUnSync": false,
		"InternalError": "",
		"ValueStrKey": "ST:111068"
	},
	{
		"ID": -1770,
		"IsDSUnSync": false,
		"InternalError": "",
		"ValueStrKey": "ST:113491"
	},
	{
		"ID": -1771,
		"IsDSUnSync": false,
		"InternalError": "1",
		"ValueStrKey": "ST:126437"
	},
	{
		"ID": -1772,
		"IsDSUnSync": false,
		"InternalError": "1",
		"ValueStrKey": "ST:126438"
	},
	{
		"ID": -1773,
		"IsDSUnSync": false,
		"InternalError": "",
		"ValueStrKey": "ST:111901"
	},
	{
		"ID": -1774,
		"IsDSUnSync": false,
		"InternalError": "",
		"ValueStrKey": "ST:111903"
	},
	{
		"ID": -1797,
		"IsDSUnSync": false,
		"InternalError": "",
		"ValueStrKey": "ST:132577"
	},
	{
		"ID": -1798,
		"IsDSUnSync": false,
		"InternalError": "",
		"ValueStrKey": "ST:132578"
	},
	{
		"ID": -1799,
		"IsDSUnSync": false,
		"InternalError": "",
		"ValueStrKey": "ST:95394"
	},
	{
		"ID": -1800,
		"IsDSUnSync": true,
		"InternalError": "",
		"ValueStrKey": "ST:96667"
	},
	{
		"ID": -1801,
		"IsDSUnSync": false,
		"InternalError": "",
		"ValueStrKey": "ST:99736"
	},
	{
		"ID": -1802,
		"IsDSUnSync": false,
		"InternalError": "",
		"ValueStrKey": "ST:99737"
	},
	{
		"ID": -1803,
		"IsDSUnSync": false,
		"InternalError": "",
		"ValueStrKey": "ST:99738"
	},
	{
		"ID": -1804,
		"IsDSUnSync": false,
		"InternalError": "",
		"ValueStrKey": "ST:99739"
	},
	{
		"ID": -1805,
		"IsDSUnSync": false,
		"InternalError": "",
		"ValueStrKey": "ST:53721"
	},
	{
		"ID": -1806,
		"IsDSUnSync": false,
		"InternalError": "1",
		"ValueStrKey": "ST:114519"
	},
	{
		"ID": -1807,
		"IsDSUnSync": true,
		"InternalError": "",
		"ValueStrKey": "ST:53723"
	},
	{
		"ID": -1808,
		"IsDSUnSync": false,
		"InternalError": "",
		"ValueStrKey": "ST:95395"
	},
	{
		"ID": -1809,
		"IsDSUnSync": false,
		"InternalError": "",
		"ValueStrKey": "ST:53725"
	},
	{
		"ID": -1810,
		"IsDSUnSync": false,
		"InternalError": "1",
		"ValueStrKey": "ST:114520"
	},
	{
		"ID": -1811,
		"IsDSUnSync": false,
		"InternalError": "",
		"ValueStrKey": "ST:53727"
	},
	{
		"ID": -1812,
		"IsDSUnSync": false,
		"InternalError": "",
		"ValueStrKey": "ST:53728"
	},
	{
		"ID": -1813,
		"IsDSUnSync": false,
		"InternalError": "",
		"ValueStrKey": "ST:82685"
	},
	{
		"ID": -1814,
		"IsDSUnSync": false,
		"InternalError": "",
		"ValueStrKey": "ST:111410"
	},
	{
		"ID": -1815,
		"IsDSUnSync": false,
		"InternalError": "",
		"ValueStrKey": "ST:111418"
	},
	{
		"ID": -1816,
		"IsDSUnSync": false,
		"InternalError": "",
		"ValueStrKey": "ST:111442"
	},
	{
		"ID": -1820,
		"IsDSUnSync": false,
		"InternalError": "",
		"ValueStrKey": "ST:53730"
	},
	{
		"ID": -1821,
		"IsDSUnSync": false,
		"InternalError": "",
		"ValueStrKey": "ST:53731"
	},
	{
		"ID": -1822,
		"IsDSUnSync": false,
		"InternalError": "",
		"ValueStrKey": "ST:53732"
	},
	{
		"ID": -1823,
		"IsDSUnSync": false,
		"InternalError": "",
		"ValueStrKey": "ST:53733"
	},
	{
		"ID": -1824,
		"IsDSUnSync": false,
		"InternalError": "",
		"ValueStrKey": "ST:53734"
	},
	{
		"ID": -1825,
		"IsDSUnSync": false,
		"InternalError": "1",
		"ValueStrKey": "ST:114521"
	},
	{
		"ID": -1826,
		"IsDSUnSync": false,
		"InternalError": "1",
		"ValueStrKey": "ST:114522"
	},
	{
		"ID": -1827,
		"IsDSUnSync": false,
		"InternalError": "",
		"ValueStrKey": "ST:53737"
	},
	{
		"ID": -1828,
		"IsDSUnSync": false,
		"InternalError": "",
		"ValueStrKey": "ST:101488"
	},
	{
		"ID": -1829,
		"IsDSUnSync": true,
		"InternalError": "",
		"ValueStrKey": "ST:100536"
	},
	{
		"ID": -1830,
		"IsDSUnSync": false,
		"InternalError": "",
		"ValueStrKey": "ST:101489"
	},
	{
		"ID": -1831,
		"IsDSUnSync": false,
		"InternalError": "",
		"ValueStrKey": "ST:53740"
	},
	{
		"ID": -1832,
		"IsDSUnSync": false,
		"InternalError": "1",
		"ValueStrKey": "ST:114523"
	},
	{
		"ID": -1833,
		"IsDSUnSync": false,
		"InternalError": "",
		"ValueStrKey": "ST:53742"
	},
	{
		"ID": -1834,
		"IsDSUnSync": false,
		"InternalError": "",
		"ValueStrKey": "ST:101490"
	},
	{
		"ID": -1835,
		"IsDSUnSync": false,
		"InternalError": "",
		"ValueStrKey": "ST:101491"
	},
	{
		"ID": -1836,
		"IsDSUnSync": false,
		"InternalError": "",
		"ValueStrKey": "ST:101492"
	},
	{
		"ID": -1837,
		"IsDSUnSync": false,
		"InternalError": "",
		"ValueStrKey": "ST:53746"
	},
	{
		"ID": -1838,
		"IsDSUnSync": false,
		"InternalError": "",
		"ValueStrKey": "ST:95866"
	},
	{
		"ID": -1839,
		"IsDSUnSync": false,
		"InternalError": "",
		"ValueStrKey": "ST:101493"
	},
	{
		"ID": -1840,
		"IsDSUnSync": false,
		"InternalError": "",
		"ValueStrKey": "ST:53517"
	},
	{
		"ID": -1841,
		"IsDSUnSync": false,
		"InternalError": "",
		"ValueStrKey": "ST:53746"
	},
	{
		"ID": -1842,
		"IsDSUnSync": false,
		"InternalError": "",
		"ValueStrKey": "ST:96423"
	},
	{
		"ID": -1843,
		"IsDSUnSync": false,
		"InternalError": "",
		"ValueStrKey": "ST:96424"
	},
	{
		"ID": -1844,
		"IsDSUnSync": false,
		"InternalError": "",
		"ValueStrKey": "ST:96425"
	},
	{
		"ID": -1845,
		"IsDSUnSync": false,
		"InternalError": "",
		"ValueStrKey": "ST:96902"
	},
	{
		"ID": -1846,
		"IsDSUnSync": false,
		"InternalError": "",
		"ValueStrKey": "ST:110222"
	},
	{
		"ID": -1847,
		"IsDSUnSync": false,
		"InternalError": "",
		"ValueStrKey": "ST:99742"
	},
	{
		"ID": -1848,
		"IsDSUnSync": false,
		"InternalError": "",
		"ValueStrKey": "ST:53517"
	},
	{
		"ID": -1849,
		"IsDSUnSync": false,
		"InternalError": "",
		"ValueStrKey": "ST:99743"
	},
	{
		"ID": -1850,
		"IsDSUnSync": false,
		"InternalError": "",
		"ValueStrKey": "ST:99744"
	},
	{
		"ID": -1851,
		"IsDSUnSync": false,
		"InternalError": "",
		"ValueStrKey": "ST:99745"
	},
	{
		"ID": -1852,
		"IsDSUnSync": false,
		"InternalError": "1",
		"ValueStrKey": "ST:114524"
	},
	{
		"ID": -1853,
		"IsDSUnSync": false,
		"InternalError": "1",
		"ValueStrKey": "ST:114525"
	},
	{
		"ID": -1854,
		"IsDSUnSync": false,
		"InternalError": "",
		"ValueStrKey": "ST:114292"
	},
	{
		"ID": -1855,
		"IsDSUnSync": false,
		"InternalError": "1",
		"ValueStrKey": "ST:122915"
	},
	{
		"ID": -1860,
		"IsDSUnSync": false,
		"InternalError": "",
		"ValueStrKey": "ST:98484"
	},
	{
		"ID": -1861,
		"IsDSUnSync": false,
		"InternalError": "",
		"ValueStrKey": "ST:101494"
	},
	{
		"ID": -1862,
		"IsDSUnSync": false,
		"InternalError": "",
		"ValueStrKey": "ST:101495"
	},
	{
		"ID": -1863,
		"IsDSUnSync": false,
		"InternalError": "",
		"ValueStrKey": "ST:101496"
	},
	{
		"ID": -1864,
		"IsDSUnSync": false,
		"InternalError": "",
		"ValueStrKey": "ST:128700"
	},
	{
		"ID": -1865,
		"IsDSUnSync": false,
		"InternalError": "",
		"ValueStrKey": "ST:101498"
	},
	{
		"ID": -1866,
		"IsDSUnSync": false,
		"InternalError": "",
		"ValueStrKey": "ST:110223"
	},
	{
		"ID": -1867,
		"IsDSUnSync": false,
		"InternalError": "",
		"ValueStrKey": "ST:110215"
	},
	{
		"ID": -1868,
		"IsDSUnSync": false,
		"InternalError": "",
		"ValueStrKey": "ST:101499"
	},
	{
		"ID": -1869,
		"IsDSUnSync": false,
		"InternalError": "",
		"ValueStrKey": "ST:103349"
	},
	{
		"ID": -1870,
		"IsDSUnSync": false,
		"InternalError": "",
		"ValueStrKey": "ST:106614"
	},
	{
		"ID": -1871,
		"IsDSUnSync": false,
		"InternalError": "",
		"ValueStrKey": "ST:106615"
	},
	{
		"ID": -1872,
		"IsDSUnSync": false,
		"InternalError": "",
		"ValueStrKey": "ST:106616"
	},
	{
		"ID": -1873,
		"IsDSUnSync": false,
		"InternalError": "",
		"ValueStrKey": "ST:106617"
	},
	{
		"ID": -1874,
		"IsDSUnSync": false,
		"InternalError": "",
		"ValueStrKey": "ST:103490"
	},
	{
		"ID": -1875,
		"IsDSUnSync": false,
		"InternalError": "",
		"ValueStrKey": "ST:109044"
	},
	{
		"ID": -1876,
		"IsDSUnSync": false,
		"InternalError": "",
		"ValueStrKey": "ST:109045"
	},
	{
		"ID": -1877,
		"IsDSUnSync": false,
		"InternalError": "",
		"ValueStrKey": "ST:108879"
	},
	{
		"ID": -1880,
		"IsDSUnSync": false,
		"InternalError": "",
		"ValueStrKey": "ST:96093"
	},
	{
		"ID": -1881,
		"IsDSUnSync": false,
		"InternalError": "",
		"ValueStrKey": "ST:96094"
	},
	{
		"ID": -1882,
		"IsDSUnSync": false,
		"InternalError": "",
		"ValueStrKey": "ST:96095"
	},
	{
		"ID": -1883,
		"IsDSUnSync": false,
		"InternalError": "",
		"ValueStrKey": "ST:96096"
	},
	{
		"ID": -1884,
		"IsDSUnSync": false,
		"InternalError": "",
		"ValueStrKey": "ST:96097"
	},
	{
		"ID": -1885,
		"IsDSUnSync": false,
		"InternalError": "",
		"ValueStrKey": "ST:96904"
	},
	{
		"ID": -1886,
		"IsDSUnSync": false,
		"InternalError": "",
		"ValueStrKey": "ST:96099"
	},
	{
		"ID": -1887,
		"IsDSUnSync": false,
		"InternalError": "",
		"ValueStrKey": "ST:96100"
	},
	{
		"ID": -1888,
		"IsDSUnSync": false,
		"InternalError": "",
		"ValueStrKey": "ST:96101"
	},
	{
		"ID": -1889,
		"IsDSUnSync": false,
		"InternalError": "",
		"ValueStrKey": "ST:96905"
	},
	{
		"ID": -1890,
		"IsDSUnSync": false,
		"InternalError": "",
		"ValueStrKey": "ST:96103"
	},
	{
		"ID": -1891,
		"IsDSUnSync": false,
		"InternalError": "",
		"ValueStrKey": "ST:96104"
	},
	{
		"ID": -1892,
		"IsDSUnSync": false,
		"InternalError": "",
		"ValueStrKey": "ST:96906"
	},
	{
		"ID": -1893,
		"IsDSUnSync": false,
		"InternalError": "",
		"ValueStrKey": "ST:96907"
	},
	{
		"ID": -1894,
		"IsDSUnSync": false,
		"InternalError": "",
		"ValueStrKey": "ST:96908"
	},
	{
		"ID": -1895,
		"IsDSUnSync": false,
		"InternalError": "",
		"ValueStrKey": "ST:96909"
	},
	{
		"ID": -1896,
		"IsDSUnSync": false,
		"InternalError": "",
		"ValueStrKey": "ST:96910"
	},
	{
		"ID": -1897,
		"IsDSUnSync": false,
		"InternalError": "",
		"ValueStrKey": "ST:96911"
	},
	{
		"ID": -1948,
		"IsDSUnSync": false,
		"InternalError": "",
		"ValueStrKey": "ST:110097"
	},
	{
		"ID": -1949,
		"IsDSUnSync": false,
		"InternalError": "",
		"ValueStrKey": "ST:102147"
	},
	{
		"ID": -1950,
		"IsDSUnSync": false,
		"InternalError": "",
		"ValueStrKey": "ST:101500"
	},
	{
		"ID": -1951,
		"IsDSUnSync": false,
		"InternalError": "",
		"ValueStrKey": "ST:110263"
	},
	{
		"ID": -1952,
		"IsDSUnSync": false,
		"InternalError": "",
		"ValueStrKey": "ST:128862"
	},
	{
		"ID": -1953,
		"IsDSUnSync": false,
		"InternalError": "",
		"ValueStrKey": "ST:101502"
	},
	{
		"ID": -1954,
		"IsDSUnSync": false,
		"InternalError": "",
		"ValueStrKey": "ST:101503"
	},
	{
		"ID": -1955,
		"IsDSUnSync": false,
		"InternalError": "",
		"ValueStrKey": "ST:101504"
	},
	{
		"ID": -1956,
		"IsDSUnSync": false,
		"InternalError": "",
		"ValueStrKey": "ST:102090"
	},
	{
		"ID": -1957,
		"IsDSUnSync": false,
		"InternalError": "",
		"ValueStrKey": "ST:102091"
	},
	{
		"ID": -1958,
		"IsDSUnSync": false,
		"InternalError": "",
		"ValueStrKey": "ST:102092"
	},
	{
		"ID": -1959,
		"IsDSUnSync": false,
		"InternalError": "",
		"ValueStrKey": "ST:102093"
	},
	{
		"ID": -1960,
		"IsDSUnSync": false,
		"InternalError": "",
		"ValueStrKey": "ST:102094"
	},
	{
		"ID": -1961,
		"IsDSUnSync": false,
		"InternalError": "",
		"ValueStrKey": "ST:101509"
	},
	{
		"ID": -1962,
		"IsDSUnSync": false,
		"InternalError": "",
		"ValueStrKey": "ST:101510"
	},
	{
		"ID": -1963,
		"IsDSUnSync": false,
		"InternalError": "",
		"ValueStrKey": "ST:110264"
	},
	{
		"ID": -1964,
		"IsDSUnSync": false,
		"InternalError": "",
		"ValueStrKey": "ST:110265"
	},
	{
		"ID": -1965,
		"IsDSUnSync": false,
		"InternalError": "",
		"ValueStrKey": "ST:101513"
	},
	{
		"ID": -1966,
		"IsDSUnSync": false,
		"InternalError": "",
		"ValueStrKey": "ST:110266"
	},
	{
		"ID": -1967,
		"IsDSUnSync": false,
		"InternalError": "",
		"ValueStrKey": "ST:110267"
	},
	{
		"ID": -1968,
		"IsDSUnSync": false,
		"InternalError": "",
		"ValueStrKey": "ST:110268"
	},
	{
		"ID": -1969,
		"IsDSUnSync": false,
		"InternalError": "",
		"ValueStrKey": "ST:110269"
	},
	{
		"ID": -1970,
		"IsDSUnSync": false,
		"InternalError": "",
		"ValueStrKey": "ST:106630"
	},
	{
		"ID": -1971,
		"IsDSUnSync": false,
		"InternalError": "",
		"ValueStrKey": "ST:109841"
	},
	{
		"ID": -1972,
		"IsDSUnSync": false,
		"InternalError": "",
		"ValueStrKey": "ST:110270"
	},
	{
		"ID": -1973,
		"IsDSUnSync": true,
		"InternalError": "1",
		"ValueStrKey": "ST:126493"
	},
	{
		"ID": -1974,
		"IsDSUnSync": false,
		"InternalError": "",
		"ValueStrKey": "ST:129467"
	},
	{
		"ID": -1975,
		"IsDSUnSync": false,
		"InternalError": "",
		"ValueStrKey": "ST:129468"
	},
	{
		"ID": -2050,
		"IsDSUnSync": true,
		"InternalError": "",
		"ValueStrKey": "ST:98527"
	},
	{
		"ID": -2051,
		"IsDSUnSync": true,
		"InternalError": "",
		"ValueStrKey": "ST:130939"
	},
	{
		"ID": -2052,
		"IsDSUnSync": true,
		"InternalError": "",
		"ValueStrKey": "ST:110272"
	},
	{
		"ID": -2053,
		"IsDSUnSync": true,
		"InternalError": "",
		"ValueStrKey": "ST:110273"
	},
	{
		"ID": -2054,
		"IsDSUnSync": false,
		"InternalError": "",
		"ValueStrKey": "ST:98531"
	},
	{
		"ID": -2055,
		"IsDSUnSync": true,
		"InternalError": "",
		"ValueStrKey": "ST:102097"
	},
	{
		"ID": -2056,
		"IsDSUnSync": true,
		"InternalError": "",
		"ValueStrKey": "ST:102098"
	},
	{
		"ID": -2057,
		"IsDSUnSync": false,
		"InternalError": "",
		"ValueStrKey": "ST:102099"
	},
	{
		"ID": -2058,
		"IsDSUnSync": true,
		"InternalError": "",
		"ValueStrKey": "ST:102100"
	},
	{
		"ID": -2059,
		"IsDSUnSync": true,
		"InternalError": "",
		"ValueStrKey": "ST:102101"
	},
	{
		"ID": -2060,
		"IsDSUnSync": false,
		"InternalError": "",
		"ValueStrKey": "ST:98537"
	},
	{
		"ID": -2061,
		"IsDSUnSync": true,
		"InternalError": "",
		"ValueStrKey": "ST:102102"
	},
	{
		"ID": -2062,
		"IsDSUnSync": true,
		"InternalError": "",
		"ValueStrKey": "ST:101515"
	},
	{
		"ID": -2063,
		"IsDSUnSync": false,
		"InternalError": "",
		"ValueStrKey": "ST:130927"
	},
	{
		"ID": -2070,
		"IsDSUnSync": false,
		"InternalError": "",
		"ValueStrKey": "ST:109043"
	},
	{
		"ID": -2071,
		"IsDSUnSync": false,
		"InternalError": "",
		"ValueStrKey": "ST:108892"
	},
	{
		"ID": -2072,
		"IsDSUnSync": false,
		"InternalError": "",
		"ValueStrKey": "ST:108893"
	},
	{
		"ID": -2073,
		"IsDSUnSync": false,
		"InternalError": "",
		"ValueStrKey": "ST:108894"
	},
	{
		"ID": -2074,
		"IsDSUnSync": false,
		"InternalError": "",
		"ValueStrKey": "ST:108895"
	},
	{
		"ID": -2075,
		"IsDSUnSync": false,
		"InternalError": "",
		"ValueStrKey": "ST:111346"
	},
	{
		"ID": -2076,
		"IsDSUnSync": false,
		"InternalError": "",
		"ValueStrKey": "ST:110199"
	},
	{
		"ID": -2080,
		"IsDSUnSync": false,
		"InternalError": "",
		"ValueStrKey": "ST:108897"
	},
	{
		"ID": -2081,
		"IsDSUnSync": false,
		"InternalError": "",
		"ValueStrKey": "ST:108898"
	},
	{
		"ID": -2082,
		"IsDSUnSync": true,
		"InternalError": "",
		"ValueStrKey": "ST:108899"
	},
	{
		"ID": -2083,
		"IsDSUnSync": true,
		"InternalError": "",
		"ValueStrKey": "ST:109030"
	},
	{
		"ID": -2084,
		"IsDSUnSync": false,
		"InternalError": "",
		"ValueStrKey": "ST:108900"
	},
	{
		"ID": -2085,
		"IsDSUnSync": false,
		"InternalError": "",
		"ValueStrKey": "ST:108901"
	},
	{
		"ID": -2086,
		"IsDSUnSync": false,
		"InternalError": "",
		"ValueStrKey": "ST:108902"
	},
	{
		"ID": -2087,
		"IsDSUnSync": false,
		"InternalError": "",
		"ValueStrKey": "ST:108903"
	},
	{
		"ID": -2088,
		"IsDSUnSync": false,
		"InternalError": "",
		"ValueStrKey": "ST:111347"
	},
	{
		"ID": -2089,
		"IsDSUnSync": false,
		"InternalError": "",
		"ValueStrKey": "ST:108905"
	},
	{
		"ID": -2090,
		"IsDSUnSync": false,
		"InternalError": "",
		"ValueStrKey": "ST:108906"
	},
	{
		"ID": -2091,
		"IsDSUnSync": false,
		"InternalError": "",
		"ValueStrKey": "ST:108876"
	},
	{
		"ID": -2092,
		"IsDSUnSync": false,
		"InternalError": "1",
		"ValueStrKey": "ST:132099"
	},
	{
		"ID": -2093,
		"IsDSUnSync": false,
		"InternalError": "",
		"ValueStrKey": "ST:131650"
	},
	{
		"ID": -2100,
		"IsDSUnSync": true,
		"InternalError": "",
		"ValueStrKey": "ST:102103"
	},
	{
		"ID": -2101,
		"IsDSUnSync": true,
		"InternalError": "",
		"ValueStrKey": "ST:108907"
	},
	{
		"ID": -2102,
		"IsDSUnSync": false,
		"InternalError": "1",
		"ValueStrKey": "ST:114526"
	},
	{
		"ID": -2103,
		"IsDSUnSync": false,
		"InternalError": "",
		"ValueStrKey": "ST:110274"
	},
	{
		"ID": -2104,
		"IsDSUnSync": true,
		"InternalError": "",
		"ValueStrKey": "ST:102105"
	},
	{
		"ID": -2105,
		"IsDSUnSync": true,
		"InternalError": "",
		"ValueStrKey": "ST:99301"
	},
	{
		"ID": -2106,
		"IsDSUnSync": true,
		"InternalError": "",
		"ValueStrKey": "ST:102106"
	},
	{
		"ID": -2107,
		"IsDSUnSync": false,
		"InternalError": "",
		"ValueStrKey": "ST:110275"
	},
	{
		"ID": -2108,
		"IsDSUnSync": true,
		"InternalError": "",
		"ValueStrKey": "ST:109031"
	},
	{
		"ID": -2109,
		"IsDSUnSync": true,
		"InternalError": "",
		"ValueStrKey": "ST:102107"
	},
	{
		"ID": -2110,
		"IsDSUnSync": true,
		"InternalError": "",
		"ValueStrKey": "ST:102108"
	},
	{
		"ID": -2111,
		"IsDSUnSync": false,
		"InternalError": "",
		"ValueStrKey": "ST:102109"
	},
	{
		"ID": -2112,
		"IsDSUnSync": false,
		"InternalError": "",
		"ValueStrKey": "ST:109819"
	},
	{
		"ID": -2113,
		"IsDSUnSync": true,
		"InternalError": "",
		"ValueStrKey": "ST:110099"
	},
	{
		"ID": -2114,
		"IsDSUnSync": true,
		"InternalError": "",
		"ValueStrKey": "ST:109821"
	},
	{
		"ID": -2115,
		"IsDSUnSync": true,
		"InternalError": "",
		"ValueStrKey": "ST:111194"
	},
	{
		"ID": -2116,
		"IsDSUnSync": true,
		"InternalError": "",
		"ValueStrKey": "ST:111195"
	},
	{
		"ID": -2117,
		"IsDSUnSync": false,
		"InternalError": "",
		"ValueStrKey": "ST:108911"
	},
	{
		"ID": -2118,
		"IsDSUnSync": false,
		"InternalError": "",
		"ValueStrKey": "ST:108912"
	},
	{
		"ID": -2119,
		"IsDSUnSync": false,
		"InternalError": "",
		"ValueStrKey": "ST:110276"
	},
	{
		"ID": -2120,
		"IsDSUnSync": false,
		"InternalError": "",
		"ValueStrKey": "ST:108913"
	},
	{
		"ID": -2121,
		"IsDSUnSync": false,
		"InternalError": "",
		"ValueStrKey": "ST:108914"
	},
	{
		"ID": -2122,
		"IsDSUnSync": false,
		"InternalError": "",
		"ValueStrKey": "ST:111196"
	},
	{
		"ID": -2123,
		"IsDSUnSync": false,
		"InternalError": "",
		"ValueStrKey": "ST:108915"
	},
	{
		"ID": -2124,
		"IsDSUnSync": false,
		"InternalError": "",
		"ValueStrKey": "ST:111403"
	},
	{
		"ID": -2125,
		"IsDSUnSync": false,
		"InternalError": "",
		"ValueStrKey": "ST:53517"
	},
	{
		"ID": -2126,
		"IsDSUnSync": false,
		"InternalError": "",
		"ValueStrKey": "ST:130990"
	},
	{
		"ID": -2127,
		"IsDSUnSync": false,
		"InternalError": "",
		"ValueStrKey": "ST:132274"
	},
	{
		"ID": -2128,
		"IsDSUnSync": false,
		"InternalError": "",
		"ValueStrKey": "ST:132275"
	},
	{
		"ID": -2180,
		"IsDSUnSync": false,
		"InternalError": "",
		"ValueStrKey": "ST:102112"
	},
	{
		"ID": -2181,
		"IsDSUnSync": false,
		"InternalError": "1",
		"ValueStrKey": "ST:128728"
	},
	{
		"ID": -2182,
		"IsDSUnSync": false,
		"InternalError": "",
		"ValueStrKey": "ST:99872"
	},
	{
		"ID": -2183,
		"IsDSUnSync": false,
		"InternalError": "",
		"ValueStrKey": "ST:111197"
	},
	{
		"ID": -2184,
		"IsDSUnSync": false,
		"InternalError": "",
		"ValueStrKey": "ST:108916"
	},
	{
		"ID": -2185,
		"IsDSUnSync": false,
		"InternalError": "",
		"ValueStrKey": "ST:108917"
	},
	{
		"ID": -2186,
		"IsDSUnSync": false,
		"InternalError": "",
		"ValueStrKey": "ST:99876"
	},
	{
		"ID": -2187,
		"IsDSUnSync": false,
		"InternalError": "",
		"ValueStrKey": "ST:99877"
	},
	{
		"ID": -2188,
		"IsDSUnSync": false,
		"InternalError": "",
		"ValueStrKey": "ST:108918"
	},
	{
		"ID": -2189,
		"IsDSUnSync": false,
		"InternalError": "",
		"ValueStrKey": "ST:111198"
	},
	{
		"ID": -2190,
		"IsDSUnSync": false,
		"InternalError": "",
		"ValueStrKey": "ST:111199"
	},
	{
		"ID": -2191,
		"IsDSUnSync": false,
		"InternalError": "",
		"ValueStrKey": "ST:108920"
	},
	{
		"ID": -2192,
		"IsDSUnSync": false,
		"InternalError": "",
		"ValueStrKey": "ST:99882"
	},
	{
		"ID": -2193,
		"IsDSUnSync": false,
		"InternalError": "",
		"ValueStrKey": "ST:108921"
	},
	{
		"ID": -2194,
		"IsDSUnSync": false,
		"InternalError": "",
		"ValueStrKey": "ST:110004"
	},
	{
		"ID": -2195,
		"IsDSUnSync": false,
		"InternalError": "",
		"ValueStrKey": "ST:108922"
	},
	{
		"ID": -2196,
		"IsDSUnSync": false,
		"InternalError": "",
		"ValueStrKey": "ST:116232"
	},
	{
		"ID": -2250,
		"IsDSUnSync": false,
		"InternalError": "",
		"ValueStrKey": "ST:130008"
	},
	{
		"ID": -2251,
		"IsDSUnSync": false,
		"InternalError": "1",
		"ValueStrKey": "ST:126494"
	},
	{
		"ID": -2252,
		"IsDSUnSync": false,
		"InternalError": "",
		"ValueStrKey": "ST:122827"
	},
	{
		"ID": -2253,
		"IsDSUnSync": false,
		"InternalError": "",
		"ValueStrKey": "ST:122828"
	},
	{
		"ID": -2254,
		"IsDSUnSync": false,
		"InternalError": "1",
		"ValueStrKey": "ST:126495"
	},
	{
		"ID": -2255,
		"IsDSUnSync": false,
		"InternalError": "1",
		"ValueStrKey": "ST:126496"
	},
	{
		"ID": -2256,
		"IsDSUnSync": false,
		"InternalError": "",
		"ValueStrKey": "ST:130009"
	},
	{
		"ID": -2257,
		"IsDSUnSync": true,
		"InternalError": "1",
		"ValueStrKey": "ST:126497"
	},
	{
		"ID": -2258,
		"IsDSUnSync": false,
		"InternalError": "",
		"ValueStrKey": "ST:122833"
	},
	{
		"ID": -2259,
		"IsDSUnSync": false,
		"InternalError": "",
		"ValueStrKey": "ST:122834"
	},
	{
		"ID": -2260,
		"IsDSUnSync": false,
		"InternalError": "",
		"ValueStrKey": "ST:130010"
	},
	{
		"ID": -2261,
		"IsDSUnSync": false,
		"InternalError": "1",
		"ValueStrKey": "ST:126498"
	},
	{
		"ID": -2300,
		"IsDSUnSync": false,
		"InternalError": "",
		"ValueStrKey": "ST:101519"
	},
	{
		"ID": -2301,
		"IsDSUnSync": false,
		"InternalError": "",
		"ValueStrKey": "ST:109032"
	},
	{
		"ID": -2302,
		"IsDSUnSync": false,
		"InternalError": "",
		"ValueStrKey": "ST:111668"
	},
	{
		"ID": -2303,
		"IsDSUnSync": false,
		"InternalError": "",
		"ValueStrKey": "ST:111669"
	},
	{
		"ID": -2304,
		"IsDSUnSync": false,
		"InternalError": "",
		"ValueStrKey": "ST:111670"
	},
	{
		"ID": -2305,
		"IsDSUnSync": false,
		"InternalError": "1",
		"ValueStrKey": "ST:126499"
	},
	{
		"ID": -2400,
		"IsDSUnSync": true,
		"InternalError": "",
		"ValueStrKey": "ST:111896"
	},
	{
		"ID": -2401,
		"IsDSUnSync": true,
		"InternalError": "",
		"ValueStrKey": "ST:111897"
	},
	{
		"ID": -2402,
		"IsDSUnSync": true,
		"InternalError": "",
		"ValueStrKey": "ST:111898"
	},
	{
		"ID": -2403,
		"IsDSUnSync": false,
		"InternalError": "",
		"ValueStrKey": "ST:129592"
	},
	{
		"ID": -2500,
		"IsDSUnSync": false,
		"InternalError": "1",
		"ValueStrKey": "ST:126439"
	},
	{
		"ID": -2501,
		"IsDSUnSync": false,
		"InternalError": "",
		"ValueStrKey": "ST:95394"
	},
	{
		"ID": -2600,
		"IsDSUnSync": false,
		"InternalError": "",
		"ValueStrKey": "ST:114581"
	},
	{
		"ID": -2601,
		"IsDSUnSync": false,
		"InternalError": "",
		"ValueStrKey": "ST:114580"
	},
	{
		"ID": -2602,
		"IsDSUnSync": false,
		"InternalError": "",
		"ValueStrKey": "ST:114873"
	},
	{
		"ID": -2603,
		"IsDSUnSync": false,
		"InternalError": "",
		"ValueStrKey": "ST:114874"
	},
	{
		"ID": -2604,
		"IsDSUnSync": false,
		"InternalError": "",
		"ValueStrKey": "ST:114875"
	},
	{
		"ID": -2605,
		"IsDSUnSync": false,
		"InternalError": "",
		"ValueStrKey": "ST:114876"
	},
	{
		"ID": -2606,
		"IsDSUnSync": false,
		"InternalError": "",
		"ValueStrKey": "ST:129675"
	},
	{
		"ID": -2607,
		"IsDSUnSync": false,
		"InternalError": "",
		"ValueStrKey": "ST:114878"
	},
	{
		"ID": -2608,
		"IsDSUnSync": false,
		"InternalError": "",
		"ValueStrKey": "ST:131959"
	},
	{
		"ID": -2609,
		"IsDSUnSync": false,
		"InternalError": "",
		"ValueStrKey": "ST:114880"
	},
	{
		"ID": -2610,
		"IsDSUnSync": false,
		"InternalError": "",
		"ValueStrKey": "ST:114881"
	},
	{
		"ID": -2611,
		"IsDSUnSync": false,
		"InternalError": "",
		"ValueStrKey": "ST:114882"
	},
	{
		"ID": -2612,
		"IsDSUnSync": false,
		"InternalError": "",
		"ValueStrKey": "ST:114883"
	},
	{
		"ID": -2613,
		"IsDSUnSync": false,
		"InternalError": "",
		"ValueStrKey": "ST:126500"
	},
	{
		"ID": -2614,
		"IsDSUnSync": false,
		"InternalError": "",
		"ValueStrKey": "ST:126501"
	},
	{
		"ID": -2615,
		"IsDSUnSync": false,
		"InternalError": "",
		"ValueStrKey": "ST:126502"
	},
	{
		"ID": -2616,
		"IsDSUnSync": false,
		"InternalError": "",
		"ValueStrKey": "ST:126503"
	},
	{
		"ID": -2617,
		"IsDSUnSync": false,
		"InternalError": "",
		"ValueStrKey": "ST:126504"
	},
	{
		"ID": -2618,
		"IsDSUnSync": false,
		"InternalError": "",
		"ValueStrKey": "ST:126505"
	},
	{
		"ID": -2619,
		"IsDSUnSync": false,
		"InternalError": "",
		"ValueStrKey": "ST:126506"
	},
	{
		"ID": -2620,
		"IsDSUnSync": false,
		"InternalError": "",
		"ValueStrKey": "ST:126507"
	},
	{
		"ID": -2621,
		"IsDSUnSync": false,
		"InternalError": "",
		"ValueStrKey": "ST:126508"
	},
	{
		"ID": -2622,
		"IsDSUnSync": false,
		"InternalError": "",
		"ValueStrKey": "ST:126509"
	},
	{
		"ID": -2623,
		"IsDSUnSync": false,
		"InternalError": "",
		"ValueStrKey": "ST:126510"
	},
	{
		"ID": -2624,
		"IsDSUnSync": false,
		"InternalError": "",
		"ValueStrKey": "ST:128508"
	},
	{
		"ID": -2701,
		"IsDSUnSync": false,
		"InternalError": "1",
		"ValueStrKey": "ST:126440"
	},
	{
		"ID": -2702,
		"IsDSUnSync": false,
		"InternalError": "1",
		"ValueStrKey": "ST:126441"
	},
	{
		"ID": -2703,
		"IsDSUnSync": false,
		"InternalError": "",
		"ValueStrKey": "ST:126511"
	},
	{
		"ID": -2704,
		"IsDSUnSync": false,
		"InternalError": "1",
		"ValueStrKey": "ST:126443"
	},
	{
		"ID": -2705,
		"IsDSUnSync": false,
		"InternalError": "1",
		"ValueStrKey": "ST:126444"
	},
	{
		"ID": -2706,
		"IsDSUnSync": false,
		"InternalError": "1",
		"ValueStrKey": "ST:126445"
	},
	{
		"ID": -2707,
		"IsDSUnSync": false,
		"InternalError": "1",
		"ValueStrKey": "ST:126446"
	},
	{
		"ID": -2708,
		"IsDSUnSync": false,
		"InternalError": "1",
		"ValueStrKey": "ST:126447"
	},
	{
		"ID": -2709,
		"IsDSUnSync": false,
		"InternalError": "1",
		"ValueStrKey": "ST:126448"
	},
	{
		"ID": -2710,
		"IsDSUnSync": false,
		"InternalError": "1",
		"ValueStrKey": "ST:126449"
	},
	{
		"ID": -2801,
		"IsDSUnSync": false,
		"InternalError": "1",
		"ValueStrKey": "ST:126450"
	},
	{
		"ID": -2802,
		"IsDSUnSync": false,
		"InternalError": "",
		"ValueStrKey": "ST:126512"
	},
	{
		"ID": -2803,
		"IsDSUnSync": false,
		"InternalError": "1",
		"ValueStrKey": "ST:126452"
	},
	{
		"ID": -2900,
		"IsDSUnSync": false,
		"InternalError": "",
		"ValueStrKey": "ST:116219"
	},
	{
		"ID": -2901,
		"IsDSUnSync": false,
		"InternalError": "",
		"ValueStrKey": "ST:116220"
	},
	{
		"ID": -2902,
		"IsDSUnSync": false,
		"InternalError": "",
		"ValueStrKey": "ST:128744"
	},
	{
		"ID": -2903,
		"IsDSUnSync": false,
		"InternalError": "",
		"ValueStrKey": "ST:128817"
	},
	{
		"ID": -2904,
		"IsDSUnSync": false,
		"InternalError": "",
		"ValueStrKey": "ST:129911"
	},
	{
		"ID": -2905,
		"IsDSUnSync": false,
		"InternalError": "",
		"ValueStrKey": "ST:129912"
	},
	{
		"ID": -2906,
		"IsDSUnSync": false,
		"InternalError": "",
		"ValueStrKey": "ST:116224"
	},
	{
		"ID": -2907,
		"IsDSUnSync": false,
		"InternalError": "",
		"ValueStrKey": "ST:116225"
	},
	{
		"ID": -2908,
		"IsDSUnSync": false,
		"InternalError": "",
		"ValueStrKey": "ST:116226"
	},
	{
		"ID": -2909,
		"IsDSUnSync": false,
		"InternalError": "",
		"ValueStrKey": "ST:116227"
	},
	{
		"ID": -2910,
		"IsDSUnSync": false,
		"InternalError": "",
		"ValueStrKey": "ST:128350"
	},
	{
		"ID": -2911,
		"IsDSUnSync": false,
		"InternalError": "",
		"ValueStrKey": "ST:128351"
	},
	{
		"ID": -2912,
		"IsDSUnSync": false,
		"InternalError": "",
		"ValueStrKey": "ST:128352"
	},
	{
		"ID": -2913,
		"IsDSUnSync": false,
		"InternalError": "",
		"ValueStrKey": "ST:128578"
	},
	{
		"ID": -2914,
		"IsDSUnSync": false,
		"InternalError": "1",
		"ValueStrKey": "ST:119313"
	},
	{
		"ID": -2915,
		"IsDSUnSync": false,
		"InternalError": "1",
		"ValueStrKey": "ST:119314"
	},
	{
		"ID": -2916,
		"IsDSUnSync": false,
		"InternalError": "",
		"ValueStrKey": "ST:128817"
	},
	{
		"ID": -2917,
		"IsDSUnSync": false,
		"InternalError": "",
		"ValueStrKey": "ST:122837"
	},
	{
		"ID": -2918,
		"IsDSUnSync": false,
		"InternalError": "",
		"ValueStrKey": "ST:128550"
	},
	{
		"ID": -2919,
		"IsDSUnSync": false,
		"InternalError": "",
		"ValueStrKey": "ST:128726"
	},
	{
		"ID": -3001,
		"IsDSUnSync": false,
		"InternalError": "",
		"ValueStrKey": "ST:116233"
	},
	{
		"ID": -3002,
		"IsDSUnSync": false,
		"InternalError": "",
		"ValueStrKey": "ST:128916"
	},
	{
		"ID": -3003,
		"IsDSUnSync": false,
		"InternalError": "",
		"ValueStrKey": "ST:116235"
	},
	{
		"ID": -3004,
		"IsDSUnSync": false,
		"InternalError": "",
		"ValueStrKey": "ST:116236"
	},
	{
		"ID": -3005,
		"IsDSUnSync": false,
		"InternalError": "",
		"ValueStrKey": "ST:116237"
	},
	{
		"ID": -3006,
		"IsDSUnSync": false,
		"InternalError": "",
		"ValueStrKey": "ST:116238"
	},
	{
		"ID": -3007,
		"IsDSUnSync": false,
		"InternalError": "",
		"ValueStrKey": "ST:116239"
	},
	{
		"ID": -3008,
		"IsDSUnSync": false,
		"InternalError": "",
		"ValueStrKey": "ST:116240"
	},
	{
		"ID": -3009,
		"IsDSUnSync": false,
		"InternalError": "",
		"ValueStrKey": "ST:132025"
	},
	{
		"ID": -3010,
		"IsDSUnSync": false,
		"InternalError": "",
		"ValueStrKey": "ST:128917"
	},
	{
		"ID": -3011,
		"IsDSUnSync": false,
		"InternalError": "",
		"ValueStrKey": "ST:116243"
	},
	{
		"ID": -3012,
		"IsDSUnSync": false,
		"InternalError": "",
		"ValueStrKey": "ST:116244"
	},
	{
		"ID": -3013,
		"IsDSUnSync": false,
		"InternalError": "",
		"ValueStrKey": "ST:128863"
	},
	{
		"ID": -3014,
		"IsDSUnSync": false,
		"InternalError": "",
		"ValueStrKey": "ST:116246"
	},
	{
		"ID": -3015,
		"IsDSUnSync": false,
		"InternalError": "",
		"ValueStrKey": "ST:116247"
	},
	{
		"ID": -3016,
		"IsDSUnSync": false,
		"InternalError": "",
		"ValueStrKey": "ST:116248"
	},
	{
		"ID": -3017,
		"IsDSUnSync": false,
		"InternalError": "",
		"ValueStrKey": "ST:116249"
	},
	{
		"ID": -3018,
		"IsDSUnSync": false,
		"InternalError": "",
		"ValueStrKey": "ST:116250"
	},
	{
		"ID": -3019,
		"IsDSUnSync": false,
		"InternalError": "1",
		"ValueStrKey": "ST:122838"
	},
	{
		"ID": -3020,
		"IsDSUnSync": false,
		"InternalError": "",
		"ValueStrKey": "ST:116252"
	},
	{
		"ID": -3021,
		"IsDSUnSync": false,
		"InternalError": "",
		"ValueStrKey": "ST:116253"
	},
	{
		"ID": -3022,
		"IsDSUnSync": false,
		"InternalError": "",
		"ValueStrKey": "ST:128867"
	},
	{
		"ID": -3023,
		"IsDSUnSync": false,
		"InternalError": "",
		"ValueStrKey": "ST:128510"
	},
	{
		"ID": -3024,
		"IsDSUnSync": false,
		"InternalError": "",
		"ValueStrKey": "ST:128511"
	},
	{
		"ID": -3025,
		"IsDSUnSync": false,
		"InternalError": "",
		"ValueStrKey": "ST:129983"
	},
	{
		"ID": -3026,
		"IsDSUnSync": false,
		"InternalError": "",
		"ValueStrKey": "ST:128513"
	},
	{
		"ID": -3027,
		"IsDSUnSync": false,
		"InternalError": "",
		"ValueStrKey": "ST:128514"
	},
	{
		"ID": -3028,
		"IsDSUnSync": false,
		"InternalError": "",
		"ValueStrKey": "ST:128515"
	},
	{
		"ID": -3029,
		"IsDSUnSync": false,
		"InternalError": "",
		"ValueStrKey": "ST:128516"
	},
	{
		"ID": -3030,
		"IsDSUnSync": false,
		"InternalError": "",
		"ValueStrKey": "ST:128517"
	},
	{
		"ID": -3031,
		"IsDSUnSync": false,
		"InternalError": "",
		"ValueStrKey": "ST:128853"
	},
	{
		"ID": -3032,
		"IsDSUnSync": false,
		"InternalError": "",
		"ValueStrKey": "ST:128519"
	},
	{
		"ID": -3033,
		"IsDSUnSync": false,
		"InternalError": "",
		"ValueStrKey": "ST:128918"
	},
	{
		"ID": -3034,
		"IsDSUnSync": false,
		"InternalError": "",
		"ValueStrKey": "ST:128521"
	},
	{
		"ID": -3035,
		"IsDSUnSync": false,
		"InternalError": "",
		"ValueStrKey": "ST:128522"
	},
	{
		"ID": -3036,
		"IsDSUnSync": false,
		"InternalError": "",
		"ValueStrKey": "ST:128523"
	},
	{
		"ID": -3037,
		"IsDSUnSync": false,
		"InternalError": "",
		"ValueStrKey": "ST:128524"
	},
	{
		"ID": -3038,
		"IsDSUnSync": false,
		"InternalError": "",
		"ValueStrKey": "ST:128525"
	},
	{
		"ID": -3039,
		"IsDSUnSync": false,
		"InternalError": "",
		"ValueStrKey": "ST:128526"
	},
	{
		"ID": -3040,
		"IsDSUnSync": false,
		"InternalError": "",
		"ValueStrKey": "ST:128527"
	},
	{
		"ID": -3041,
		"IsDSUnSync": false,
		"InternalError": "",
		"ValueStrKey": "ST:128528"
	},
	{
		"ID": -3042,
		"IsDSUnSync": false,
		"InternalError": "",
		"ValueStrKey": "ST:128529"
	},
	{
		"ID": -3043,
		"IsDSUnSync": false,
		"InternalError": "",
		"ValueStrKey": "ST:128530"
	},
	{
		"ID": -3044,
		"IsDSUnSync": false,
		"InternalError": "1",
		"ValueStrKey": "ST:128531"
	},
	{
		"ID": -3045,
		"IsDSUnSync": false,
		"InternalError": "",
		"ValueStrKey": "ST:130000"
	},
	{
		"ID": -3046,
		"IsDSUnSync": false,
		"InternalError": "",
		"ValueStrKey": "ST:128914"
	},
	{
		"ID": -3047,
		"IsDSUnSync": false,
		"InternalError": "",
		"ValueStrKey": "ST:128949"
	},
	{
		"ID": -3048,
		"IsDSUnSync": false,
		"InternalError": "",
		"ValueStrKey": "ST:128950"
	},
	{
		"ID": -3049,
		"IsDSUnSync": false,
		"InternalError": "",
		"ValueStrKey": "ST:128916"
	},
	{
		"ID": -3050,
		"IsDSUnSync": false,
		"InternalError": "1",
		"ValueStrKey": "ST:126513"
	},
	{
		"ID": -3051,
		"IsDSUnSync": false,
		"InternalError": "",
		"ValueStrKey": "ST:126514"
	},
	{
		"ID": -3052,
		"IsDSUnSync": false,
		"InternalError": "",
		"ValueStrKey": "ST:126515"
	},
	{
		"ID": -3053,
		"IsDSUnSync": false,
		"InternalError": "",
		"ValueStrKey": "ST:126516"
	},
	{
		"ID": -3054,
		"IsDSUnSync": true,
		"InternalError": "",
		"ValueStrKey": "ST:130835"
	},
	{
		"ID": -3055,
		"IsDSUnSync": false,
		"InternalError": "",
		"ValueStrKey": "ST:126518"
	},
	{
		"ID": -3056,
		"IsDSUnSync": false,
		"InternalError": "1",
		"ValueStrKey": "ST:126519"
	},
	{
		"ID": -3057,
		"IsDSUnSync": false,
		"InternalError": "1",
		"ValueStrKey": "ST:126520"
	},
	{
		"ID": -3059,
		"IsDSUnSync": false,
		"InternalError": "1",
		"ValueStrKey": "ST:126521"
	},
	{
		"ID": -3060,
		"IsDSUnSync": false,
		"InternalError": "",
		"ValueStrKey": "ST:126522"
	},
	{
		"ID": -3061,
		"IsDSUnSync": false,
		"InternalError": "1",
		"ValueStrKey": "ST:126523"
	},
	{
		"ID": -3062,
		"IsDSUnSync": false,
		"InternalError": "1",
		"ValueStrKey": "ST:126524"
	},
	{
		"ID": -3063,
		"IsDSUnSync": false,
		"InternalError": "1",
		"ValueStrKey": "ST:126525"
	},
	{
		"ID": -3064,
		"IsDSUnSync": false,
		"InternalError": "1",
		"ValueStrKey": "ST:126526"
	},
	{
		"ID": -3065,
		"IsDSUnSync": false,
		"InternalError": "",
		"ValueStrKey": "ST:126527"
	},
	{
		"ID": -3066,
		"IsDSUnSync": false,
		"InternalError": "",
		"ValueStrKey": "ST:126528"
	},
	{
		"ID": -3067,
		"IsDSUnSync": false,
		"InternalError": "",
		"ValueStrKey": "ST:126529"
	},
	{
		"ID": -3068,
		"IsDSUnSync": false,
		"InternalError": "",
		"ValueStrKey": "ST:130749"
	},
	{
		"ID": -3102,
		"IsDSUnSync": false,
		"InternalError": "",
		"ValueStrKey": "ST:53587"
	},
	{
		"ID": -3103,
		"IsDSUnSync": false,
		"InternalError": "1",
		"ValueStrKey": "ST:122839"
	},
	{
		"ID": -3104,
		"IsDSUnSync": false,
		"InternalError": "",
		"ValueStrKey": "ST:122840"
	},
	{
		"ID": -3105,
		"IsDSUnSync": true,
		"InternalError": "",
		"ValueStrKey": "ST:122841"
	},
	{
		"ID": -3106,
		"IsDSUnSync": false,
		"InternalError": "1",
		"ValueStrKey": "ST:122842"
	},
	{
		"ID": -3107,
		"IsDSUnSync": false,
		"InternalError": "",
		"ValueStrKey": "ST:122843"
	},
	{
		"ID": -3108,
		"IsDSUnSync": false,
		"InternalError": "",
		"ValueStrKey": "ST:122844"
	},
	{
		"ID": -3109,
		"IsDSUnSync": true,
		"InternalError": "",
		"ValueStrKey": "ST:122845"
	},
	{
		"ID": -3110,
		"IsDSUnSync": false,
		"InternalError": "1",
		"ValueStrKey": "ST:126530"
	},
	{
		"ID": -3111,
		"IsDSUnSync": false,
		"InternalError": "",
		"ValueStrKey": "ST:122847"
	},
	{
		"ID": -3112,
		"IsDSUnSync": true,
		"InternalError": "",
		"ValueStrKey": "ST:122848"
	},
	{
		"ID": -3200,
		"IsDSUnSync": false,
		"InternalError": "",
		"ValueStrKey": "ST:129469"
	},
	{
		"ID": -3201,
		"IsDSUnSync": false,
		"InternalError": "",
		"ValueStrKey": "ST:128533"
	},
	{
		"ID": -3202,
		"IsDSUnSync": false,
		"InternalError": "",
		"ValueStrKey": "ST:128534"
	},
	{
		"ID": -3203,
		"IsDSUnSync": false,
		"InternalError": "",
		"ValueStrKey": "ST:128535"
	},
	{
		"ID": -3204,
		"IsDSUnSync": false,
		"InternalError": "",
		"ValueStrKey": "ST:128536"
	},
	{
		"ID": -3205,
		"IsDSUnSync": false,
		"InternalError": "",
		"ValueStrKey": "ST:128537"
	},
	{
		"ID": -3206,
		"IsDSUnSync": false,
		"InternalError": "",
		"ValueStrKey": "ST:128538"
	},
	{
		"ID": -3207,
		"IsDSUnSync": false,
		"InternalError": "",
		"ValueStrKey": "ST:128539"
	},
	{
		"ID": -3208,
		"IsDSUnSync": false,
		"InternalError": "",
		"ValueStrKey": "ST:128540"
	},
	{
		"ID": -3209,
		"IsDSUnSync": false,
		"InternalError": "",
		"ValueStrKey": "ST:129356"
	},
	{
		"ID": -3210,
		"IsDSUnSync": false,
		"InternalError": "",
		"ValueStrKey": "ST:128538"
	},
	{
		"ID": -3211,
		"IsDSUnSync": false,
		"InternalError": "",
		"ValueStrKey": "ST:128542"
	},
	{
		"ID": -3212,
		"IsDSUnSync": false,
		"InternalError": "",
		"ValueStrKey": "ST:128543"
	},
	{
		"ID": -3213,
		"IsDSUnSync": false,
		"InternalError": "",
		"ValueStrKey": "ST:128544"
	},
	{
		"ID": -3214,
		"IsDSUnSync": false,
		"InternalError": "",
		"ValueStrKey": "ST:128545"
	},
	{
		"ID": -3215,
		"IsDSUnSync": false,
		"InternalError": "",
		"ValueStrKey": "ST:128546"
	},
	{
		"ID": -3216,
		"IsDSUnSync": false,
		"InternalError": "",
		"ValueStrKey": "ST:128547"
	},
	{
		"ID": -3217,
		"IsDSUnSync": false,
		"InternalError": "",
		"ValueStrKey": "ST:128523"
	},
	{
		"ID": -3218,
		"IsDSUnSync": false,
		"InternalError": "",
		"ValueStrKey": "ST:128548"
	},
	{
		"ID": -3219,
		"IsDSUnSync": false,
		"InternalError": "",
		"ValueStrKey": "ST:128549"
	},
	{
		"ID": -3301,
		"IsDSUnSync": false,
		"InternalError": "",
		"ValueStrKey": "ST:130186"
	},
	{
		"ID": -3302,
		"IsDSUnSync": false,
		"InternalError": "",
		"ValueStrKey": "ST:130187"
	},
	{
		"ID": -3303,
		"IsDSUnSync": false,
		"InternalError": "",
		"ValueStrKey": "ST:130807"
	},
	{
		"ID": -3304,
		"IsDSUnSync": false,
		"InternalError": "",
		"ValueStrKey": "ST:130986"
	},
	{
		"ID": -2197,
		"IsDSUnSync": false,
		"InternalError": "",
		"ValueStrKey": "ST:132100"
	},
	{
		"ID": -2625,
		"IsDSUnSync": false,
		"InternalError": "",
		"ValueStrKey": "ST:132101"
	},
	{
		"ID": -3305,
		"IsDSUnSync": false,
		"InternalError": "",
		"ValueStrKey": "ST:132206"
	},
	{
		"ID": -3306,
		"IsDSUnSync": false,
		"InternalError": "",
		"ValueStrKey": "ST:132584"
	}
]