[
	{
		"ID": 1001,
		"TriggerQuest": 20031,
		"ValidTime": 48,
		"RefreshTime": 168
	},
	{
		"ID": 1002,
		"TriggerQuest": 700001,
		"ValidTime": 48,
		"RefreshTime": 168
	},
	{
		"ID": 1101,
		"TriggerQuest": 700002,
		"ValidTime": 48,
		"RefreshTime": 168
	},
	{
		"ID": 1102,
		"TriggerQuest": 700003,
		"ValidTime": 48,
		"RefreshTime": 168
	},
	{
		"ID": 1103,
		"TriggerQuest": 700004,
		"ValidTime": 48,
		"RefreshTime": 168
	},
	{
		"ID": 1104,
		"TriggerQuest": 700005,
		"ValidTime": 48,
		"RefreshTime": 168
	},
	{
		"ID": 1105,
		"TriggerQuest": 700006,
		"ValidTime": 48,
		"RefreshTime": 168
	},
	{
		"ID": 1106,
		"TriggerQuest": 700007,
		"ValidTime": 48,
		"RefreshTime": 168
	},
	{
		"ID": 1107,
		"TriggerQuest": 700004,
		"ValidTime": 48,
		"RefreshTime": 168
	},
	{
		"ID": 1108,
		"TriggerQuest": 700002,
		"ValidTime": 48,
		"RefreshTime": 168
	},
	{
		"ID": 1109,
		"TriggerQuest": 700003,
		"ValidTime": 48,
		"RefreshTime": 168
	}
]