[
	{
		"ID": 1,
		"Desc": "对所有类型武器加成",
		"IconPath": "Group01_ABS/Card_Icon_01",
		"DescStrKey": "ST:127375"
	},
	{
		"ID": 2,
		"Desc": "无需驾照即可发挥完整性能",
		"IconPath": "Group01_ABS/Card_Icon_02",
		"DescStrKey": "ST:127376"
	},
	{
		"ID": 3,
		"Desc": "极其适用于虫洞探索",
		"IconPath": "Group01_ABS/Card_Icon_03",
		"DescStrKey": "ST:127377"
	},
	{
		"ID": 4,
		"Desc": "对所有类型武器加成",
		"IconPath": "Group01_ABS/Card_Icon_01",
		"DescStrKey": "ST:127375"
	},
	{
		"ID": 5,
		"Desc": "无需驾照即可发挥完整性能",
		"IconPath": "Group01_ABS/Card_Icon_02",
		"DescStrKey": "ST:127376"
	},
	{
		"ID": 6,
		"Desc": "更强大的生存能力",
		"IconPath": "Group01_ABS/Card_Icon_03",
		"DescStrKey": "ST:129916"
	},
	{
		"ID": 7,
		"Desc": "4项强力援护特长",
		"IconPath": "Group01_ABS/Card_Icon_01",
		"DescStrKey": "ST:127379"
	},
	{
		"ID": 8,
		"Desc": "可直接驾驶T2级舰船",
		"IconPath": "Group01_ABS/Card_Icon_02",
		"DescStrKey": "ST:128653"
	},
	{
		"ID": 9,
		"Desc": "虫洞最佳僚机",
		"IconPath": "Group01_ABS/Card_Icon_03",
		"DescStrKey": "ST:128654"
	},
	{
		"ID": 10,
		"Desc": "4项强力派遣特长",
		"IconPath": "Group01_ABS/Card_Icon_01",
		"DescStrKey": "ST:127382"
	},
	{
		"ID": 11,
		"Desc": "可直接使用T2级工业舰",
		"IconPath": "Group01_ABS/Card_Icon_02",
		"DescStrKey": "ST:127383"
	},
	{
		"ID": 12,
		"Desc": "大幅提升派遣效率与收益",
		"IconPath": "Group01_ABS/Card_Icon_03",
		"DescStrKey": "ST:127384"
	},
	{
		"ID": 13,
		"Desc": "4项强力后勤特长",
		"IconPath": "Group01_ABS/Card_Icon_01",
		"DescStrKey": "ST:128655"
	},
	{
		"ID": 14,
		"Desc": "提升所有科研与生产效率",
		"IconPath": "Group01_ABS/Card_Icon_02",
		"DescStrKey": "ST:127386"
	},
	{
		"ID": 15,
		"Desc": "降低所有科研与生产消耗",
		"IconPath": "Group01_ABS/Card_Icon_03",
		"DescStrKey": "ST:127387"
	}
]