[
	{
		"ID": 1,
		"GrandFaction": "GrandFaction_ECD",
		"Icon": "Group02_ABS/UIconImage",
		"NPCCaptainPropertiesBasicMultiList": [
			{
				"ProtertyId": "PropertyCategory_Attack",
				"Multi": 2.0
			},
			{
				"ProtertyId": "PropertyCategory_Defence",
				"Multi": 3.0
			}
		],
		"NameStrKey": "ST:63748",
		"DescStrKey": "ST:78029",
		"AbbreviateNameStrKey": "ST:122519"
	},
	{
		"ID": 2,
		"GrandFaction": "GrandFaction_NEF",
		"Icon": "Group02_ABS/NEFIconImage",
		"NPCCaptainPropertiesBasicMultiList": [
			{
				"ProtertyId": "PropertyCategory_Attack",
				"Multi": 2.0
			},
			{
				"ProtertyId": "PropertyCategory_Defence",
				"Multi": 3.0
			}
		],
		"NameStrKey": "ST:63749",
		"DescStrKey": "ST:67375",
		"AbbreviateNameStrKey": "ST:122520"
	},
	{
		"ID": 3,
		"GrandFaction": "GrandFaction_RS",
		"Icon": "Group02_ABS/RIconImage",
		"NPCCaptainPropertiesBasicMultiList": [
			{
				"ProtertyId": "PropertyCategory_Attack",
				"Multi": 2.0
			},
			{
				"ProtertyId": "PropertyCategory_Defence",
				"Multi": 3.0
			}
		],
		"NameStrKey": "ST:63750",
		"DescStrKey": "ST:78030",
		"AbbreviateNameStrKey": "ST:122522"
	},
	{
		"ID": 4,
		"GrandFaction": "GrandFaction_OE",
		"Icon": "Group02_ABS/OEIconImage",
		"NPCCaptainPropertiesBasicMultiList": [
			{
				"ProtertyId": "PropertyCategory_Attack",
				"Multi": 2.0
			},
			{
				"ProtertyId": "PropertyCategory_Defence",
				"Multi": 3.0
			}
		],
		"NameStrKey": "ST:63752",
		"DescStrKey": "ST:78031",
		"AbbreviateNameStrKey": "ST:122521"
	},
	{
		"ID": 5,
		"GrandFaction": "GrandFaction_USG",
		"Icon": "Group02_ABS/TIconImage",
		"NPCCaptainPropertiesBasicMultiList": [
			{
				"ProtertyId": "PropertyCategory_Attack",
				"Multi": 2.0
			},
			{
				"ProtertyId": "PropertyCategory_Defence",
				"Multi": 3.0
			}
		],
		"NameStrKey": "ST:67373",
		"DescStrKey": "ST:78032",
		"AbbreviateNameStrKey": "ST:122523"
	},
	{
		"ID": 6,
		"GrandFaction": "GrandFaction_CIV",
		"Icon": "Group02_ABS/TIconImage",
		"NPCCaptainPropertiesBasicMultiList": [
			{
				"ProtertyId": "PropertyCategory_Attack",
				"Multi": 2.0
			},
			{
				"ProtertyId": "PropertyCategory_Defence",
				"Multi": 3.0
			}
		],
		"NameStrKey": "ST:67374",
		"DescStrKey": "ST:67374",
		"AbbreviateNameStrKey": "ST:128810"
	},
	{
		"ID": 7,
		"GrandFaction": "GrandFaction_TT",
		"Icon": "Group02_ABS/TIconImage",
		"NPCCaptainPropertiesBasicMultiList": [
			{
				"ProtertyId": "PropertyCategory_Attack",
				"Multi": 2.0
			},
			{
				"ProtertyId": "PropertyCategory_Defence",
				"Multi": 3.0
			}
		],
		"NameStrKey": "ST:128894",
		"DescStrKey": "ST:128894",
		"AbbreviateNameStrKey": "ST:129225"
	}
]