[
	{
		"ID": 1,
		"Type": "GuildBuildingType_GuildHQ",
		"LevelDetailInfoList": [
			1,
			2,
			3,
			4,
			5
		],
		"SceneIdList": [
			710005
		],
		"NameStrKey": "ST:108446",
		"DescStrKey": "ST:108448",
		"DetailDescStrKey": "ST:108448"
	},
	{
		"ID": 2,
		"Type": "GuildBuildingType_GuildMiningStation",
		"LevelDetailInfoList": [
			11,
			12,
			13,
			14,
			15
		],
		"SceneIdList": [
			710006
		],
		"NameStrKey": "ST:102155",
		"DescStrKey": "ST:109057",
		"DetailDescStrKey": "ST:109057"
	},
	{
		"ID": 3,
		"Type": "GuildBuildingType_GuildFactroy",
		"LevelDetailInfoList": [
			21,
			22,
			23,
			24,
			25
		],
		"SceneIdList": [
			710007
		],
		"NameStrKey": "ST:102156",
		"DescStrKey": "ST:109058",
		"DetailDescStrKey": "ST:109058"
	},
	{
		"ID": 4,
		"Type": "GuildBuildingType_GuildSentry",
		"LevelDetailInfoList": [
			31,
			32,
			33,
			34,
			35
		],
		"SceneIdList": [
			710008
		],
		"NameStrKey": "ST:102158",
		"DescStrKey": "ST:109059",
		"DetailDescStrKey": "ST:109059"
	},
	{
		"ID": 5,
		"Type": "GuildBuildingType_BuildingShieldDestabiliser",
		"LevelDetailInfoList": [
			41
		],
		"SceneIdList": [
			710004
		],
		"NameStrKey": "ST:98656",
		"DescStrKey": "ST:108452",
		"DetailDescStrKey": "ST:108452"
	},
	{
		"ID": 6,
		"Type": "GuildBuildingType_ControllShieldStabiliser1",
		"LevelDetailInfoList": [
			51
		],
		"SceneIdList": [
			710001,
			710001,
			710001,
			710001,
			710001,
			710001,
			710001,
			710001,
			711001,
			712001,
			712001,
			712001,
			712001,
			712001,
			712001,
			712001,
			712001,
			712001,
			712001,
			712001,
			712001
		],
		"NameStrKey": "ST:102150",
		"DescStrKey": "ST:103247",
		"DetailDescStrKey": "ST:103247"
	},
	{
		"ID": 7,
		"Type": "GuildBuildingType_ControllShieldStabiliser2",
		"LevelDetailInfoList": [
			61
		],
		"SceneIdList": [
			710002,
			710002,
			710002,
			710002,
			710002,
			710002,
			710002,
			710002,
			711002,
			712002,
			712002,
			712002,
			712002,
			712002,
			712002,
			712002,
			712002,
			712002,
			712002,
			712002,
			712002
		],
		"NameStrKey": "ST:102151",
		"DescStrKey": "ST:103247",
		"DetailDescStrKey": "ST:103247"
	},
	{
		"ID": 8,
		"Type": "GuildBuildingType_ControllShieldStabiliser3",
		"LevelDetailInfoList": [
			71
		],
		"SceneIdList": [
			710003,
			710003,
			710003,
			710003,
			710003,
			710003,
			710003,
			710003,
			711003,
			712003,
			712003,
			712003,
			712003,
			712003,
			712003,
			712003,
			712003,
			712003,
			712003,
			712003,
			712003
		],
		"NameStrKey": "ST:102152",
		"DescStrKey": "ST:103247",
		"DetailDescStrKey": "ST:103247"
	},
	{
		"ID": 9,
		"Type": "GuildBuildingType_GuildFlagShipHangar",
		"LevelDetailInfoList": [
			81,
			82,
			83,
			84,
			85
		],
		"SceneIdList": [
			710009
		],
		"NameStrKey": "ST:102157",
		"DescStrKey": "ST:116549",
		"DetailDescStrKey": "ST:116549"
	},
	{
		"ID": 10,
		"Type": "GuildBuildingType_GuildTradePort",
		"LevelDetailInfoList": [
			91,
			92,
			93,
			94,
			95
		],
		"SceneIdList": [
			710010
		],
		"NameStrKey": "ST:116538",
		"DescStrKey": "ST:127762",
		"DetailDescStrKey": "ST:127762"
	},
	{
		"ID": 11,
		"Type": "GuildBuildingType_GuildTeleportStation",
		"LevelDetailInfoList": [
			101,
			102,
			103,
			104,
			105
		],
		"SceneIdList": [
			710011
		],
		"NameStrKey": "ST:127260",
		"DescStrKey": "ST:127763",
		"DetailDescStrKey": "ST:127763"
	},
	{
		"ID": 12,
		"Type": "GuildBuildingType_GuildAntiTeleportStation",
		"LevelDetailInfoList": [
			111,
			112,
			113,
			114,
			115
		],
		"SceneIdList": [
			710012
		],
		"NameStrKey": "ST:127261",
		"DescStrKey": "ST:129635",
		"DetailDescStrKey": "ST:129635"
	}
]