[
	{
		"ID": 0,
		"ShowInfectLevel": 2,
		"CompleteReward": 60002,
		"FinalBattleRewardPreview": 69002
	},
	{
		"ID": 1,
		"ShowInfectLevel": 5,
		"CompleteReward": 60102,
		"FinalBattleRewardPreview": 69002
	},
	{
		"ID": 2,
		"ShowInfectLevel": 9,
		"CompleteReward": 60202,
		"FinalBattleRewardPreview": 69002
	},
	{
		"ID": 3,
		"ShowInfectLevel": 14,
		"CompleteReward": 60302,
		"FinalBattleRewardPreview": 69002
	},
	{
		"ID": 4,
		"ShowInfectLevel": 20,
		"CompleteReward": 60402,
		"FinalBattleRewardPreview": 69002
	},
	{
		"ID": 5,
		"ShowInfectLevel": 26,
		"CompleteReward": 60502,
		"FinalBattleRewardPreview": 69002
	},
	{
		"ID": 6,
		"ShowInfectLevel": 30,
		"CompleteReward": 60602,
		"FinalBattleRewardPreview": 69002
	},
	{
		"ID": 7,
		"ShowInfectLevel": 34,
		"CompleteReward": 60702,
		"FinalBattleRewardPreview": 69002
	},
	{
		"ID": 8,
		"ShowInfectLevel": 37,
		"CompleteReward": 60802,
		"FinalBattleRewardPreview": 69002
	},
	{
		"ID": 9,
		"ShowInfectLevel": 40,
		"CompleteReward": 60902,
		"FinalBattleRewardPreview": 69002
	},
	{
		"ID": 10,
		"ShowInfectLevel": 43,
		"CompleteReward": 61002,
		"FinalBattleRewardPreview": 69002
	},
	{
		"ID": 11,
		"ShowInfectLevel": 45,
		"CompleteReward": 61102,
		"FinalBattleRewardPreview": 69002
	},
	{
		"ID": 12,
		"ShowInfectLevel": 48,
		"CompleteReward": 61202,
		"FinalBattleRewardPreview": 69002
	},
	{
		"ID": 13,
		"ShowInfectLevel": 54,
		"CompleteReward": 61202,
		"FinalBattleRewardPreview": 69002
	},
	{
		"ID": 14,
		"ShowInfectLevel": 56,
		"CompleteReward": 61202,
		"FinalBattleRewardPreview": 69002
	},
	{
		"ID": 15,
		"ShowInfectLevel": 58,
		"CompleteReward": 61202,
		"FinalBattleRewardPreview": 69002
	},
	{
		"ID": 16,
		"ShowInfectLevel": 60,
		"CompleteReward": 61202,
		"FinalBattleRewardPreview": 69002
	},
	{
		"ID": 17,
		"ShowInfectLevel": 62,
		"CompleteReward": 61202,
		"FinalBattleRewardPreview": 69002
	},
	{
		"ID": 18,
		"ShowInfectLevel": 64,
		"CompleteReward": 61202,
		"FinalBattleRewardPreview": 69002
	},
	{
		"ID": 19,
		"ShowInfectLevel": 66,
		"CompleteReward": 61202,
		"FinalBattleRewardPreview": 69002
	},
	{
		"ID": 20,
		"ShowInfectLevel": 68,
		"CompleteReward": 61202,
		"FinalBattleRewardPreview": 69002
	}
]