[
	{
		"ID": 10,
		"Name": "10级星座",
		"IslandInfoList": [
			{
				"IslandTypeId": 10,
				"Count": 2
			}
		],
		"CanBeCreate": true
	},
	{
		"ID": 11,
		"Name": "11级星座",
		"IslandInfoList": [
			{
				"IslandTypeId": 11,
				"Count": 1
			}
		],
		"CanBeCreate": true
	},
	{
		"ID": 12,
		"Name": "12级星座",
		"IslandInfoList": [
			{
				"IslandTypeId": 12,
				"Count": 1
			}
		],
		"CanBeCreate": true
	},
	{
		"ID": 910,
		"Name": "10级转9级",
		"IslandInfoList": [
			{
				"IslandTypeId": 910,
				"Count": 2
			}
		],
		"CanBeCreate": false
	},
	{
		"ID": 912,
		"Name": "12级转9级",
		"IslandInfoList": [
			{
				"IslandTypeId": 912,
				"Count": 1
			}
		],
		"CanBeCreate": false
	},
	{
		"ID": 7910,
		"Name": "10级岛转9级岛-转7级岛",
		"IslandInfoList": [
			{
				"IslandTypeId": 7910,
				"Count": 2
			}
		],
		"CanBeCreate": false
	},
	{
		"ID": 7912,
		"Name": "12级岛转9级岛-转7级岛",
		"IslandInfoList": [
			{
				"IslandTypeId": 7912,
				"Count": 1
			}
		],
		"CanBeCreate": false
	}
]