[
	{
		"ID": 0,
		"LanguageType": "LanguageType_Base",
		"SimpleName": "Base",
		"SdkName": "Base",
		"StandardSimpleName": "Base",
		"Enable": false,
		"CharLengthRatio": 1.0,
		"NameStrKey": ""
	},
	{
		"ID": 1,
		"LanguageType": "LanguageType_Base",
		"SimpleName": "Base",
		"SdkName": "Base",
		"StandardSimpleName": "Base",
		"Enable": false,
		"CharLengthRatio": 1.0,
		"NameStrKey": ""
	},
	{
		"ID": 2,
		"LanguageType": "LanguageType_English",
		"SimpleName": "EN",
		"SdkName": "en",
		"StandardSimpleName": "en",
		"Enable": true,
		"CharLengthRatio": 1.0,
		"CharRangeList": [
			1,
			2,
			3
		],
		"NameStrKey": "ST:131569"
	},
	{
		"ID": 3,
		"LanguageType": "LanguageType_Chinese",
		"SimpleName": "CN",
		"SdkName": "zh-hans",
		"StandardSimpleName": "zh-CN",
		"Enable": true,
		"CharLengthRatio": 1.5,
		"CharRangeList": [
			4,
			5
		],
		"NameStrKey": "ST:131570"
	},
	{
		"ID": 4,
		"LanguageType": "LanguageType_Russian",
		"SimpleName": "RU",
		"SdkName": "",
		"StandardSimpleName": "ru",
		"Enable": false,
		"CharLengthRatio": 0.75,
		"NameStrKey": "ST:131571"
	},
	{
		"ID": 5,
		"LanguageType": "LanguageType_Japanese",
		"SimpleName": "JP",
		"SdkName": "",
		"StandardSimpleName": "ja-JP",
		"Enable": false,
		"CharLengthRatio": 1.5,
		"NameStrKey": "ST:131572"
	},
	{
		"ID": 6,
		"LanguageType": "LanguageType_French",
		"SimpleName": "FR",
		"SdkName": "fr",
		"StandardSimpleName": "fr",
		"Enable": false,
		"CharLengthRatio": 1.0,
		"NameStrKey": "ST:131573"
	},
	{
		"ID": 7,
		"LanguageType": "LanguageType_German",
		"SimpleName": "DE",
		"SdkName": "de",
		"StandardSimpleName": "de",
		"Enable": false,
		"CharLengthRatio": 1.0,
		"NameStrKey": "ST:131574"
	},
	{
		"ID": 8,
		"LanguageType": "LanguageType_Portuguese",
		"SimpleName": "PR",
		"SdkName": "",
		"StandardSimpleName": "pt",
		"Enable": false,
		"CharLengthRatio": 1.0,
		"NameStrKey": "ST:131575"
	},
	{
		"ID": 9,
		"LanguageType": "LanguageType_Spanish",
		"SimpleName": "SP",
		"SdkName": "",
		"StandardSimpleName": "es",
		"Enable": false,
		"CharLengthRatio": 1.0,
		"NameStrKey": "ST:131576"
	},
	{
		"ID": 10,
		"LanguageType": "LanguageType_TaiWan",
		"SimpleName": "TW",
		"SdkName": "zh-hant",
		"StandardSimpleName": "zh-TW",
		"Enable": true,
		"CharLengthRatio": 1.5,
		"CharRangeList": [
			4,
			5
		],
		"NameStrKey": "ST:131577"
	}
]