[
	{
		"ID": 11111,
		"SalePrice": 0.6000000238418579,
		"BindMoneyBuyPrice": 4.0,
		"SizeType": "ShipSizeType_S",
		"Rank": "RankType_T1",
		"SubRank": "SubRankType_S1",
		"DamageComposeList": [
			0.6000000238418579,
			0.4000000059604645
		],
		"DamageBasic": 51,
		"Speed": 2240.0,
		"RangeMax": 7500.0,
		"ArmorBasic": 200,
		"PackedSize": 0.0011099999537691474,
		"ObtainSourceList": [
			"ItemObtainSourceType_NPCShop"
		]
	},
	{
		"ID": 12111,
		"SalePrice": 0.75,
		"BindMoneyBuyPrice": 0.0,
		"SizeType": "ShipSizeType_S",
		"Rank": "RankType_T1",
		"SubRank": "SubRankType_S2",
		"DamageComposeList": [
			0.6000000238418579,
			0.4000000059604645
		],
		"DamageBasic": 53,
		"Speed": 2240.0,
		"RangeMax": 7500.0,
		"ArmorBasic": 200,
		"PackedSize": 0.0011099999537691474,
		"ObtainSourceList": [
			"ItemObtainSourceType_Auction",
			"ItemObtainSourceType_Production"
		]
	},
	{
		"ID": 13111,
		"SalePrice": 0.8999999761581421,
		"BindMoneyBuyPrice": 0.0,
		"SizeType": "ShipSizeType_S",
		"Rank": "RankType_T1",
		"SubRank": "SubRankType_S3",
		"DamageComposeList": [
			0.6000000238418579,
			0.4000000059604645
		],
		"DamageBasic": 56,
		"Speed": 2240.0,
		"RangeMax": 7500.0,
		"ArmorBasic": 200,
		"PackedSize": 0.0011099999537691474,
		"ObtainSourceList": [
			"ItemObtainSourceType_Auction",
			"ItemObtainSourceType_Production"
		]
	},
	{
		"ID": 14111,
		"SalePrice": 1.7999999523162842,
		"BindMoneyBuyPrice": 0.0,
		"SizeType": "ShipSizeType_S",
		"Rank": "RankType_T1",
		"SubRank": "SubRankType_S4",
		"DamageComposeList": [
			0.6000000238418579,
			0.4000000059604645
		],
		"DamageBasic": 58,
		"Speed": 2240.0,
		"RangeMax": 7500.0,
		"ArmorBasic": 200,
		"PackedSize": 0.0011099999537691474,
		"ObtainSourceList": [
			"ItemObtainSourceType_Auction",
			"ItemObtainSourceType_Production"
		]
	},
	{
		"ID": 15111,
		"SalePrice": 3.0,
		"BindMoneyBuyPrice": 0.0,
		"SizeType": "ShipSizeType_S",
		"Rank": "RankType_T1",
		"SubRank": "SubRankType_S5",
		"DamageComposeList": [
			0.6000000238418579,
			0.4000000059604645
		],
		"DamageBasic": 58,
		"Speed": 2240.0,
		"RangeMax": 7500.0,
		"ArmorBasic": 200,
		"PackedSize": 0.0011099999537691474,
		"ObtainSourceList": [
			"ItemObtainSourceType_Auction",
			"ItemObtainSourceType_Production"
		]
	},
	{
		"ID": 21111,
		"SalePrice": 4.800000190734863,
		"BindMoneyBuyPrice": 0.0,
		"SizeType": "ShipSizeType_S",
		"Rank": "RankType_T2",
		"SubRank": "SubRankType_S1",
		"DamageComposeList": [
			0.6000000238418579,
			0.4000000059604645
		],
		"DamageBasic": 61,
		"Speed": 2240.0,
		"RangeMax": 7500.0,
		"ArmorBasic": 200,
		"PackedSize": 0.0011099999537691474,
		"ObtainSourceList": [
			"ItemObtainSourceType_Auction",
			"ItemObtainSourceType_Production"
		]
	},
	{
		"ID": 22111,
		"SalePrice": 6.0,
		"BindMoneyBuyPrice": 0.0,
		"SizeType": "ShipSizeType_S",
		"Rank": "RankType_T2",
		"SubRank": "SubRankType_S2",
		"DamageComposeList": [
			0.6000000238418579,
			0.4000000059604645
		],
		"DamageBasic": 64,
		"Speed": 2240.0,
		"RangeMax": 7500.0,
		"ArmorBasic": 200,
		"PackedSize": 0.0011099999537691474,
		"ObtainSourceList": [
			"ItemObtainSourceType_Auction",
			"ItemObtainSourceType_Production"
		]
	},
	{
		"ID": 23111,
		"SalePrice": 7.199999809265137,
		"BindMoneyBuyPrice": 0.0,
		"SizeType": "ShipSizeType_S",
		"Rank": "RankType_T2",
		"SubRank": "SubRankType_S3",
		"DamageComposeList": [
			0.6000000238418579,
			0.4000000059604645
		],
		"DamageBasic": 67,
		"Speed": 2240.0,
		"RangeMax": 7500.0,
		"ArmorBasic": 200,
		"PackedSize": 0.0011099999537691474,
		"ObtainSourceList": [
			"ItemObtainSourceType_Auction",
			"ItemObtainSourceType_Production"
		]
	},
	{
		"ID": 24111,
		"SalePrice": 14.399999618530273,
		"BindMoneyBuyPrice": 0.0,
		"SizeType": "ShipSizeType_S",
		"Rank": "RankType_T2",
		"SubRank": "SubRankType_S4",
		"DamageComposeList": [
			0.6000000238418579,
			0.4000000059604645
		],
		"DamageBasic": 70,
		"Speed": 2240.0,
		"RangeMax": 7500.0,
		"ArmorBasic": 200,
		"PackedSize": 0.0011099999537691474,
		"ObtainSourceList": [
			"ItemObtainSourceType_Auction",
			"ItemObtainSourceType_Production"
		]
	},
	{
		"ID": 25111,
		"SalePrice": 24.0,
		"BindMoneyBuyPrice": 0.0,
		"SizeType": "ShipSizeType_S",
		"Rank": "RankType_T2",
		"SubRank": "SubRankType_S5",
		"DamageComposeList": [
			0.6000000238418579,
			0.4000000059604645
		],
		"DamageBasic": 73,
		"Speed": 2240.0,
		"RangeMax": 7500.0,
		"ArmorBasic": 200,
		"PackedSize": 0.0011099999537691474,
		"ObtainSourceList": [
			"ItemObtainSourceType_Auction",
			"ItemObtainSourceType_Production"
		]
	},
	{
		"ID": 31111,
		"SalePrice": 48.0,
		"BindMoneyBuyPrice": 0.0,
		"SizeType": "ShipSizeType_S",
		"Rank": "RankType_T3",
		"SubRank": "SubRankType_S1",
		"DamageComposeList": [
			0.6000000238418579,
			0.4000000059604645
		],
		"DamageBasic": 77,
		"Speed": 2240.0,
		"RangeMax": 7500.0,
		"ArmorBasic": 200,
		"PackedSize": 0.0011099999537691474,
		"ObtainSourceList": [
			"ItemObtainSourceType_Auction",
			"ItemObtainSourceType_Production"
		]
	},
	{
		"ID": 32111,
		"SalePrice": 72.0,
		"BindMoneyBuyPrice": 0.0,
		"SizeType": "ShipSizeType_S",
		"Rank": "RankType_T3",
		"SubRank": "SubRankType_S2",
		"DamageComposeList": [
			0.6000000238418579,
			0.4000000059604645
		],
		"DamageBasic": 80,
		"Speed": 2240.0,
		"RangeMax": 7500.0,
		"ArmorBasic": 200,
		"PackedSize": 0.0011099999537691474,
		"ObtainSourceList": [
			"ItemObtainSourceType_Auction",
			"ItemObtainSourceType_Production"
		]
	},
	{
		"ID": 33111,
		"SalePrice": 96.0,
		"BindMoneyBuyPrice": 0.0,
		"SizeType": "ShipSizeType_S",
		"Rank": "RankType_T3",
		"SubRank": "SubRankType_S3",
		"DamageComposeList": [
			0.6000000238418579,
			0.4000000059604645
		],
		"DamageBasic": 84,
		"Speed": 2240.0,
		"RangeMax": 7500.0,
		"ArmorBasic": 200,
		"PackedSize": 0.0011099999537691474,
		"ObtainSourceList": [
			"ItemObtainSourceType_Auction",
			"ItemObtainSourceType_Production"
		]
	},
	{
		"ID": 34111,
		"SalePrice": 192.0,
		"BindMoneyBuyPrice": 0.0,
		"SizeType": "ShipSizeType_S",
		"Rank": "RankType_T3",
		"SubRank": "SubRankType_S4",
		"DamageComposeList": [
			0.6000000238418579,
			0.4000000059604645
		],
		"DamageBasic": 87,
		"Speed": 2240.0,
		"RangeMax": 7500.0,
		"ArmorBasic": 200,
		"PackedSize": 0.0011099999537691474,
		"ObtainSourceList": [
			"ItemObtainSourceType_Auction",
			"ItemObtainSourceType_Production"
		]
	},
	{
		"ID": 35111,
		"SalePrice": 336.0,
		"BindMoneyBuyPrice": 0.0,
		"SizeType": "ShipSizeType_S",
		"Rank": "RankType_T3",
		"SubRank": "SubRankType_S5",
		"DamageComposeList": [
			0.6000000238418579,
			0.4000000059604645
		],
		"DamageBasic": 92,
		"Speed": 2240.0,
		"RangeMax": 7500.0,
		"ArmorBasic": 200,
		"PackedSize": 0.0011099999537691474,
		"ObtainSourceList": [
			"ItemObtainSourceType_Auction",
			"ItemObtainSourceType_Production"
		]
	},
	{
		"ID": 11121,
		"SalePrice": 0.6000000238418579,
		"BindMoneyBuyPrice": 4.0,
		"SizeType": "ShipSizeType_S",
		"Rank": "RankType_T1",
		"SubRank": "SubRankType_S1",
		"DamageComposeList": [
			0.6000000238418579,
			0.4000000059604645
		],
		"DamageBasic": 36,
		"Speed": 2480.0,
		"RangeMax": 15000.0,
		"ArmorBasic": 200,
		"PackedSize": 0.0011099999537691474,
		"ObtainSourceList": [
			"ItemObtainSourceType_NPCShop"
		]
	},
	{
		"ID": 12121,
		"SalePrice": 0.75,
		"BindMoneyBuyPrice": 0.0,
		"SizeType": "ShipSizeType_S",
		"Rank": "RankType_T1",
		"SubRank": "SubRankType_S2",
		"DamageComposeList": [
			0.6000000238418579,
			0.4000000059604645
		],
		"DamageBasic": 37,
		"Speed": 2480.0,
		"RangeMax": 15000.0,
		"ArmorBasic": 200,
		"PackedSize": 0.0011099999537691474,
		"ObtainSourceList": [
			"ItemObtainSourceType_Auction",
			"ItemObtainSourceType_Production"
		]
	},
	{
		"ID": 13121,
		"SalePrice": 0.8999999761581421,
		"BindMoneyBuyPrice": 0.0,
		"SizeType": "ShipSizeType_S",
		"Rank": "RankType_T1",
		"SubRank": "SubRankType_S3",
		"DamageComposeList": [
			0.6000000238418579,
			0.4000000059604645
		],
		"DamageBasic": 39,
		"Speed": 2480.0,
		"RangeMax": 15000.0,
		"ArmorBasic": 200,
		"PackedSize": 0.0011099999537691474,
		"ObtainSourceList": [
			"ItemObtainSourceType_Auction",
			"ItemObtainSourceType_Production"
		]
	},
	{
		"ID": 14121,
		"SalePrice": 1.7999999523162842,
		"BindMoneyBuyPrice": 0.0,
		"SizeType": "ShipSizeType_S",
		"Rank": "RankType_T1",
		"SubRank": "SubRankType_S4",
		"DamageComposeList": [
			0.6000000238418579,
			0.4000000059604645
		],
		"DamageBasic": 41,
		"Speed": 2480.0,
		"RangeMax": 15000.0,
		"ArmorBasic": 200,
		"PackedSize": 0.0011099999537691474,
		"ObtainSourceList": [
			"ItemObtainSourceType_Auction",
			"ItemObtainSourceType_Production"
		]
	},
	{
		"ID": 15121,
		"SalePrice": 3.0,
		"BindMoneyBuyPrice": 0.0,
		"SizeType": "ShipSizeType_S",
		"Rank": "RankType_T1",
		"SubRank": "SubRankType_S5",
		"DamageComposeList": [
			0.6000000238418579,
			0.4000000059604645
		],
		"DamageBasic": 41,
		"Speed": 2480.0,
		"RangeMax": 15000.0,
		"ArmorBasic": 200,
		"PackedSize": 0.0011099999537691474,
		"ObtainSourceList": [
			"ItemObtainSourceType_Auction",
			"ItemObtainSourceType_Production"
		]
	},
	{
		"ID": 21121,
		"SalePrice": 4.800000190734863,
		"BindMoneyBuyPrice": 0.0,
		"SizeType": "ShipSizeType_S",
		"Rank": "RankType_T2",
		"SubRank": "SubRankType_S1",
		"DamageComposeList": [
			0.6000000238418579,
			0.4000000059604645
		],
		"DamageBasic": 43,
		"Speed": 2480.0,
		"RangeMax": 15000.0,
		"ArmorBasic": 200,
		"PackedSize": 0.0011099999537691474,
		"ObtainSourceList": [
			"ItemObtainSourceType_Auction",
			"ItemObtainSourceType_Production"
		]
	},
	{
		"ID": 22121,
		"SalePrice": 6.0,
		"BindMoneyBuyPrice": 0.0,
		"SizeType": "ShipSizeType_S",
		"Rank": "RankType_T2",
		"SubRank": "SubRankType_S2",
		"DamageComposeList": [
			0.6000000238418579,
			0.4000000059604645
		],
		"DamageBasic": 45,
		"Speed": 2480.0,
		"RangeMax": 15000.0,
		"ArmorBasic": 200,
		"PackedSize": 0.0011099999537691474,
		"ObtainSourceList": [
			"ItemObtainSourceType_Auction",
			"ItemObtainSourceType_Production"
		]
	},
	{
		"ID": 23121,
		"SalePrice": 7.199999809265137,
		"BindMoneyBuyPrice": 0.0,
		"SizeType": "ShipSizeType_S",
		"Rank": "RankType_T2",
		"SubRank": "SubRankType_S3",
		"DamageComposeList": [
			0.6000000238418579,
			0.4000000059604645
		],
		"DamageBasic": 47,
		"Speed": 2480.0,
		"RangeMax": 15000.0,
		"ArmorBasic": 200,
		"PackedSize": 0.0011099999537691474,
		"ObtainSourceList": [
			"ItemObtainSourceType_Auction",
			"ItemObtainSourceType_Production"
		]
	},
	{
		"ID": 24121,
		"SalePrice": 14.399999618530273,
		"BindMoneyBuyPrice": 0.0,
		"SizeType": "ShipSizeType_S",
		"Rank": "RankType_T2",
		"SubRank": "SubRankType_S4",
		"DamageComposeList": [
			0.6000000238418579,
			0.4000000059604645
		],
		"DamageBasic": 49,
		"Speed": 2480.0,
		"RangeMax": 15000.0,
		"ArmorBasic": 200,
		"PackedSize": 0.0011099999537691474,
		"ObtainSourceList": [
			"ItemObtainSourceType_Auction",
			"ItemObtainSourceType_Production"
		]
	},
	{
		"ID": 25121,
		"SalePrice": 24.0,
		"BindMoneyBuyPrice": 0.0,
		"SizeType": "ShipSizeType_S",
		"Rank": "RankType_T2",
		"SubRank": "SubRankType_S5",
		"DamageComposeList": [
			0.6000000238418579,
			0.4000000059604645
		],
		"DamageBasic": 52,
		"Speed": 2480.0,
		"RangeMax": 15000.0,
		"ArmorBasic": 200,
		"PackedSize": 0.0011099999537691474,
		"ObtainSourceList": [
			"ItemObtainSourceType_Auction",
			"ItemObtainSourceType_Production"
		]
	},
	{
		"ID": 31121,
		"SalePrice": 48.0,
		"BindMoneyBuyPrice": 0.0,
		"SizeType": "ShipSizeType_S",
		"Rank": "RankType_T3",
		"SubRank": "SubRankType_S1",
		"DamageComposeList": [
			0.6000000238418579,
			0.4000000059604645
		],
		"DamageBasic": 54,
		"Speed": 2480.0,
		"RangeMax": 15000.0,
		"ArmorBasic": 200,
		"PackedSize": 0.0011099999537691474,
		"ObtainSourceList": [
			"ItemObtainSourceType_Auction",
			"ItemObtainSourceType_Production"
		]
	},
	{
		"ID": 32121,
		"SalePrice": 72.0,
		"BindMoneyBuyPrice": 0.0,
		"SizeType": "ShipSizeType_S",
		"Rank": "RankType_T3",
		"SubRank": "SubRankType_S2",
		"DamageComposeList": [
			0.6000000238418579,
			0.4000000059604645
		],
		"DamageBasic": 56,
		"Speed": 2480.0,
		"RangeMax": 15000.0,
		"ArmorBasic": 200,
		"PackedSize": 0.0011099999537691474,
		"ObtainSourceList": [
			"ItemObtainSourceType_Auction",
			"ItemObtainSourceType_Production"
		]
	},
	{
		"ID": 33121,
		"SalePrice": 96.0,
		"BindMoneyBuyPrice": 0.0,
		"SizeType": "ShipSizeType_S",
		"Rank": "RankType_T3",
		"SubRank": "SubRankType_S3",
		"DamageComposeList": [
			0.6000000238418579,
			0.4000000059604645
		],
		"DamageBasic": 59,
		"Speed": 2480.0,
		"RangeMax": 15000.0,
		"ArmorBasic": 200,
		"PackedSize": 0.0011099999537691474,
		"ObtainSourceList": [
			"ItemObtainSourceType_Auction",
			"ItemObtainSourceType_Production"
		]
	},
	{
		"ID": 34121,
		"SalePrice": 192.0,
		"BindMoneyBuyPrice": 0.0,
		"SizeType": "ShipSizeType_S",
		"Rank": "RankType_T3",
		"SubRank": "SubRankType_S4",
		"DamageComposeList": [
			0.6000000238418579,
			0.4000000059604645
		],
		"DamageBasic": 62,
		"Speed": 2480.0,
		"RangeMax": 15000.0,
		"ArmorBasic": 200,
		"PackedSize": 0.0011099999537691474,
		"ObtainSourceList": [
			"ItemObtainSourceType_Auction",
			"ItemObtainSourceType_Production"
		]
	},
	{
		"ID": 35121,
		"SalePrice": 336.0,
		"BindMoneyBuyPrice": 0.0,
		"SizeType": "ShipSizeType_S",
		"Rank": "RankType_T3",
		"SubRank": "SubRankType_S5",
		"DamageComposeList": [
			0.6000000238418579,
			0.4000000059604645
		],
		"DamageBasic": 65,
		"Speed": 2480.0,
		"RangeMax": 15000.0,
		"ArmorBasic": 200,
		"PackedSize": 0.0011099999537691474,
		"ObtainSourceList": [
			"ItemObtainSourceType_Auction",
			"ItemObtainSourceType_Production"
		]
	},
	{
		"ID": 11112,
		"SalePrice": 2.4000000953674316,
		"BindMoneyBuyPrice": 16.0,
		"SizeType": "ShipSizeType_M",
		"Rank": "RankType_T1",
		"SubRank": "SubRankType_S1",
		"DamageComposeList": [
			0.6000000238418579,
			0.4000000059604645
		],
		"DamageBasic": 101,
		"Speed": 2500.0,
		"RangeMax": 9800.0,
		"ArmorBasic": 200,
		"PackedSize": 0.002219999907538295,
		"ObtainSourceList": [
			"ItemObtainSourceType_NPCShop"
		]
	},
	{
		"ID": 12112,
		"SalePrice": 3.0,
		"BindMoneyBuyPrice": 0.0,
		"SizeType": "ShipSizeType_M",
		"Rank": "RankType_T1",
		"SubRank": "SubRankType_S2",
		"DamageComposeList": [
			0.6000000238418579,
			0.4000000059604645
		],
		"DamageBasic": 105,
		"Speed": 2500.0,
		"RangeMax": 9800.0,
		"ArmorBasic": 200,
		"PackedSize": 0.002219999907538295,
		"ObtainSourceList": [
			"ItemObtainSourceType_Auction",
			"ItemObtainSourceType_Production"
		]
	},
	{
		"ID": 13112,
		"SalePrice": 3.5999999046325684,
		"BindMoneyBuyPrice": 0.0,
		"SizeType": "ShipSizeType_M",
		"Rank": "RankType_T1",
		"SubRank": "SubRankType_S3",
		"DamageComposeList": [
			0.6000000238418579,
			0.4000000059604645
		],
		"DamageBasic": 110,
		"Speed": 2500.0,
		"RangeMax": 9800.0,
		"ArmorBasic": 200,
		"PackedSize": 0.002219999907538295,
		"ObtainSourceList": [
			"ItemObtainSourceType_Auction",
			"ItemObtainSourceType_Production"
		]
	},
	{
		"ID": 14112,
		"SalePrice": 7.199999809265137,
		"BindMoneyBuyPrice": 0.0,
		"SizeType": "ShipSizeType_M",
		"Rank": "RankType_T1",
		"SubRank": "SubRankType_S4",
		"DamageComposeList": [
			0.6000000238418579,
			0.4000000059604645
		],
		"DamageBasic": 115,
		"Speed": 2500.0,
		"RangeMax": 9800.0,
		"ArmorBasic": 200,
		"PackedSize": 0.002219999907538295,
		"ObtainSourceList": [
			"ItemObtainSourceType_Auction",
			"ItemObtainSourceType_Production"
		]
	},
	{
		"ID": 15112,
		"SalePrice": 12.0,
		"BindMoneyBuyPrice": 0.0,
		"SizeType": "ShipSizeType_M",
		"Rank": "RankType_T1",
		"SubRank": "SubRankType_S5",
		"DamageComposeList": [
			0.6000000238418579,
			0.4000000059604645
		],
		"DamageBasic": 115,
		"Speed": 2500.0,
		"RangeMax": 9800.0,
		"ArmorBasic": 200,
		"PackedSize": 0.002219999907538295,
		"ObtainSourceList": [
			"ItemObtainSourceType_Auction",
			"ItemObtainSourceType_Production"
		]
	},
	{
		"ID": 21112,
		"SalePrice": 19.200000762939453,
		"BindMoneyBuyPrice": 0.0,
		"SizeType": "ShipSizeType_M",
		"Rank": "RankType_T2",
		"SubRank": "SubRankType_S1",
		"DamageComposeList": [
			0.6000000238418579,
			0.4000000059604645
		],
		"DamageBasic": 121,
		"Speed": 2500.0,
		"RangeMax": 9800.0,
		"ArmorBasic": 200,
		"PackedSize": 0.002219999907538295,
		"ObtainSourceList": [
			"ItemObtainSourceType_Auction",
			"ItemObtainSourceType_Production"
		]
	},
	{
		"ID": 22112,
		"SalePrice": 24.0,
		"BindMoneyBuyPrice": 0.0,
		"SizeType": "ShipSizeType_M",
		"Rank": "RankType_T2",
		"SubRank": "SubRankType_S2",
		"DamageComposeList": [
			0.6000000238418579,
			0.4000000059604645
		],
		"DamageBasic": 126,
		"Speed": 2500.0,
		"RangeMax": 9800.0,
		"ArmorBasic": 200,
		"PackedSize": 0.002219999907538295,
		"ObtainSourceList": [
			"ItemObtainSourceType_Auction",
			"ItemObtainSourceType_Production"
		]
	},
	{
		"ID": 23112,
		"SalePrice": 28.799999237060547,
		"BindMoneyBuyPrice": 0.0,
		"SizeType": "ShipSizeType_M",
		"Rank": "RankType_T2",
		"SubRank": "SubRankType_S3",
		"DamageComposeList": [
			0.6000000238418579,
			0.4000000059604645
		],
		"DamageBasic": 132,
		"Speed": 2500.0,
		"RangeMax": 9800.0,
		"ArmorBasic": 200,
		"PackedSize": 0.002219999907538295,
		"ObtainSourceList": [
			"ItemObtainSourceType_Auction",
			"ItemObtainSourceType_Production"
		]
	},
	{
		"ID": 24112,
		"SalePrice": 57.599998474121094,
		"BindMoneyBuyPrice": 0.0,
		"SizeType": "ShipSizeType_M",
		"Rank": "RankType_T2",
		"SubRank": "SubRankType_S4",
		"DamageComposeList": [
			0.6000000238418579,
			0.4000000059604645
		],
		"DamageBasic": 138,
		"Speed": 2500.0,
		"RangeMax": 9800.0,
		"ArmorBasic": 200,
		"PackedSize": 0.002219999907538295,
		"ObtainSourceList": [
			"ItemObtainSourceType_Auction",
			"ItemObtainSourceType_Production"
		]
	},
	{
		"ID": 25112,
		"SalePrice": 96.0,
		"BindMoneyBuyPrice": 0.0,
		"SizeType": "ShipSizeType_M",
		"Rank": "RankType_T2",
		"SubRank": "SubRankType_S5",
		"DamageComposeList": [
			0.6000000238418579,
			0.4000000059604645
		],
		"DamageBasic": 145,
		"Speed": 2500.0,
		"RangeMax": 9800.0,
		"ArmorBasic": 200,
		"PackedSize": 0.002219999907538295,
		"ObtainSourceList": [
			"ItemObtainSourceType_Auction",
			"ItemObtainSourceType_Production"
		]
	},
	{
		"ID": 31112,
		"SalePrice": 192.0,
		"BindMoneyBuyPrice": 0.0,
		"SizeType": "ShipSizeType_M",
		"Rank": "RankType_T3",
		"SubRank": "SubRankType_S1",
		"DamageComposeList": [
			0.6000000238418579,
			0.4000000059604645
		],
		"DamageBasic": 152,
		"Speed": 2500.0,
		"RangeMax": 9800.0,
		"ArmorBasic": 200,
		"PackedSize": 0.002219999907538295,
		"ObtainSourceList": [
			"ItemObtainSourceType_Auction",
			"ItemObtainSourceType_Production"
		]
	},
	{
		"ID": 32112,
		"SalePrice": 288.0,
		"BindMoneyBuyPrice": 0.0,
		"SizeType": "ShipSizeType_M",
		"Rank": "RankType_T3",
		"SubRank": "SubRankType_S2",
		"DamageComposeList": [
			0.6000000238418579,
			0.4000000059604645
		],
		"DamageBasic": 158,
		"Speed": 2500.0,
		"RangeMax": 9800.0,
		"ArmorBasic": 200,
		"PackedSize": 0.002219999907538295,
		"ObtainSourceList": [
			"ItemObtainSourceType_Auction",
			"ItemObtainSourceType_Production"
		]
	},
	{
		"ID": 33112,
		"SalePrice": 384.0,
		"BindMoneyBuyPrice": 0.0,
		"SizeType": "ShipSizeType_M",
		"Rank": "RankType_T3",
		"SubRank": "SubRankType_S3",
		"DamageComposeList": [
			0.6000000238418579,
			0.4000000059604645
		],
		"DamageBasic": 166,
		"Speed": 2500.0,
		"RangeMax": 9800.0,
		"ArmorBasic": 200,
		"PackedSize": 0.002219999907538295,
		"ObtainSourceList": [
			"ItemObtainSourceType_Auction",
			"ItemObtainSourceType_Production"
		]
	},
	{
		"ID": 34112,
		"SalePrice": 768.0,
		"BindMoneyBuyPrice": 0.0,
		"SizeType": "ShipSizeType_M",
		"Rank": "RankType_T3",
		"SubRank": "SubRankType_S4",
		"DamageComposeList": [
			0.6000000238418579,
			0.4000000059604645
		],
		"DamageBasic": 173,
		"Speed": 2500.0,
		"RangeMax": 9800.0,
		"ArmorBasic": 200,
		"PackedSize": 0.002219999907538295,
		"ObtainSourceList": [
			"ItemObtainSourceType_Auction",
			"ItemObtainSourceType_Production"
		]
	},
	{
		"ID": 35112,
		"SalePrice": 1344.0,
		"BindMoneyBuyPrice": 0.0,
		"SizeType": "ShipSizeType_M",
		"Rank": "RankType_T3",
		"SubRank": "SubRankType_S5",
		"DamageComposeList": [
			0.6000000238418579,
			0.4000000059604645
		],
		"DamageBasic": 182,
		"Speed": 2500.0,
		"RangeMax": 9800.0,
		"ArmorBasic": 200,
		"PackedSize": 0.002219999907538295,
		"ObtainSourceList": [
			"ItemObtainSourceType_Auction",
			"ItemObtainSourceType_Production"
		]
	},
	{
		"ID": 11122,
		"SalePrice": 2.4000000953674316,
		"BindMoneyBuyPrice": 16.0,
		"SizeType": "ShipSizeType_M",
		"Rank": "RankType_T1",
		"SubRank": "SubRankType_S1",
		"DamageComposeList": [
			0.6000000238418579,
			0.4000000059604645
		],
		"DamageBasic": 72,
		"Speed": 2800.0,
		"RangeMax": 19500.0,
		"ArmorBasic": 200,
		"PackedSize": 0.002219999907538295,
		"ObtainSourceList": [
			"ItemObtainSourceType_NPCShop"
		]
	},
	{
		"ID": 12122,
		"SalePrice": 3.0,
		"BindMoneyBuyPrice": 0.0,
		"SizeType": "ShipSizeType_M",
		"Rank": "RankType_T1",
		"SubRank": "SubRankType_S2",
		"DamageComposeList": [
			0.6000000238418579,
			0.4000000059604645
		],
		"DamageBasic": 75,
		"Speed": 2800.0,
		"RangeMax": 19500.0,
		"ArmorBasic": 200,
		"PackedSize": 0.002219999907538295,
		"ObtainSourceList": [
			"ItemObtainSourceType_Auction",
			"ItemObtainSourceType_Production"
		]
	},
	{
		"ID": 13122,
		"SalePrice": 3.5999999046325684,
		"BindMoneyBuyPrice": 0.0,
		"SizeType": "ShipSizeType_M",
		"Rank": "RankType_T1",
		"SubRank": "SubRankType_S3",
		"DamageComposeList": [
			0.6000000238418579,
			0.4000000059604645
		],
		"DamageBasic": 78,
		"Speed": 2800.0,
		"RangeMax": 19500.0,
		"ArmorBasic": 200,
		"PackedSize": 0.002219999907538295,
		"ObtainSourceList": [
			"ItemObtainSourceType_Auction",
			"ItemObtainSourceType_Production"
		]
	},
	{
		"ID": 14122,
		"SalePrice": 7.199999809265137,
		"BindMoneyBuyPrice": 0.0,
		"SizeType": "ShipSizeType_M",
		"Rank": "RankType_T1",
		"SubRank": "SubRankType_S4",
		"DamageComposeList": [
			0.6000000238418579,
			0.4000000059604645
		],
		"DamageBasic": 82,
		"Speed": 2800.0,
		"RangeMax": 19500.0,
		"ArmorBasic": 200,
		"PackedSize": 0.002219999907538295,
		"ObtainSourceList": [
			"ItemObtainSourceType_Auction",
			"ItemObtainSourceType_Production"
		]
	},
	{
		"ID": 15122,
		"SalePrice": 12.0,
		"BindMoneyBuyPrice": 0.0,
		"SizeType": "ShipSizeType_M",
		"Rank": "RankType_T1",
		"SubRank": "SubRankType_S5",
		"DamageComposeList": [
			0.6000000238418579,
			0.4000000059604645
		],
		"DamageBasic": 82,
		"Speed": 2800.0,
		"RangeMax": 19500.0,
		"ArmorBasic": 200,
		"PackedSize": 0.002219999907538295,
		"ObtainSourceList": [
			"ItemObtainSourceType_Auction",
			"ItemObtainSourceType_Production"
		]
	},
	{
		"ID": 21122,
		"SalePrice": 19.200000762939453,
		"BindMoneyBuyPrice": 0.0,
		"SizeType": "ShipSizeType_M",
		"Rank": "RankType_T2",
		"SubRank": "SubRankType_S1",
		"DamageComposeList": [
			0.6000000238418579,
			0.4000000059604645
		],
		"DamageBasic": 86,
		"Speed": 2800.0,
		"RangeMax": 19500.0,
		"ArmorBasic": 200,
		"PackedSize": 0.002219999907538295,
		"ObtainSourceList": [
			"ItemObtainSourceType_Auction",
			"ItemObtainSourceType_Production"
		]
	},
	{
		"ID": 22122,
		"SalePrice": 24.0,
		"BindMoneyBuyPrice": 0.0,
		"SizeType": "ShipSizeType_M",
		"Rank": "RankType_T2",
		"SubRank": "SubRankType_S2",
		"DamageComposeList": [
			0.6000000238418579,
			0.4000000059604645
		],
		"DamageBasic": 90,
		"Speed": 2800.0,
		"RangeMax": 19500.0,
		"ArmorBasic": 200,
		"PackedSize": 0.002219999907538295,
		"ObtainSourceList": [
			"ItemObtainSourceType_Auction",
			"ItemObtainSourceType_Production"
		]
	},
	{
		"ID": 23122,
		"SalePrice": 28.799999237060547,
		"BindMoneyBuyPrice": 0.0,
		"SizeType": "ShipSizeType_M",
		"Rank": "RankType_T2",
		"SubRank": "SubRankType_S3",
		"DamageComposeList": [
			0.6000000238418579,
			0.4000000059604645
		],
		"DamageBasic": 94,
		"Speed": 2800.0,
		"RangeMax": 19500.0,
		"ArmorBasic": 200,
		"PackedSize": 0.002219999907538295,
		"ObtainSourceList": [
			"ItemObtainSourceType_Auction",
			"ItemObtainSourceType_Production"
		]
	},
	{
		"ID": 24122,
		"SalePrice": 57.599998474121094,
		"BindMoneyBuyPrice": 0.0,
		"SizeType": "ShipSizeType_M",
		"Rank": "RankType_T2",
		"SubRank": "SubRankType_S4",
		"DamageComposeList": [
			0.6000000238418579,
			0.4000000059604645
		],
		"DamageBasic": 99,
		"Speed": 2800.0,
		"RangeMax": 19500.0,
		"ArmorBasic": 200,
		"PackedSize": 0.002219999907538295,
		"ObtainSourceList": [
			"ItemObtainSourceType_Auction",
			"ItemObtainSourceType_Production"
		]
	},
	{
		"ID": 25122,
		"SalePrice": 96.0,
		"BindMoneyBuyPrice": 0.0,
		"SizeType": "ShipSizeType_M",
		"Rank": "RankType_T2",
		"SubRank": "SubRankType_S5",
		"DamageComposeList": [
			0.6000000238418579,
			0.4000000059604645
		],
		"DamageBasic": 104,
		"Speed": 2800.0,
		"RangeMax": 19500.0,
		"ArmorBasic": 200,
		"PackedSize": 0.002219999907538295,
		"ObtainSourceList": [
			"ItemObtainSourceType_Auction",
			"ItemObtainSourceType_Production"
		]
	},
	{
		"ID": 31122,
		"SalePrice": 192.0,
		"BindMoneyBuyPrice": 0.0,
		"SizeType": "ShipSizeType_M",
		"Rank": "RankType_T3",
		"SubRank": "SubRankType_S1",
		"DamageComposeList": [
			0.6000000238418579,
			0.4000000059604645
		],
		"DamageBasic": 108,
		"Speed": 2800.0,
		"RangeMax": 19500.0,
		"ArmorBasic": 200,
		"PackedSize": 0.002219999907538295,
		"ObtainSourceList": [
			"ItemObtainSourceType_Auction",
			"ItemObtainSourceType_Production"
		]
	},
	{
		"ID": 32122,
		"SalePrice": 288.0,
		"BindMoneyBuyPrice": 0.0,
		"SizeType": "ShipSizeType_M",
		"Rank": "RankType_T3",
		"SubRank": "SubRankType_S2",
		"DamageComposeList": [
			0.6000000238418579,
			0.4000000059604645
		],
		"DamageBasic": 112,
		"Speed": 2800.0,
		"RangeMax": 19500.0,
		"ArmorBasic": 200,
		"PackedSize": 0.002219999907538295,
		"ObtainSourceList": [
			"ItemObtainSourceType_Auction",
			"ItemObtainSourceType_Production"
		]
	},
	{
		"ID": 33122,
		"SalePrice": 384.0,
		"BindMoneyBuyPrice": 0.0,
		"SizeType": "ShipSizeType_M",
		"Rank": "RankType_T3",
		"SubRank": "SubRankType_S3",
		"DamageComposeList": [
			0.6000000238418579,
			0.4000000059604645
		],
		"DamageBasic": 118,
		"Speed": 2800.0,
		"RangeMax": 19500.0,
		"ArmorBasic": 200,
		"PackedSize": 0.002219999907538295,
		"ObtainSourceList": [
			"ItemObtainSourceType_Auction",
			"ItemObtainSourceType_Production"
		]
	},
	{
		"ID": 34122,
		"SalePrice": 768.0,
		"BindMoneyBuyPrice": 0.0,
		"SizeType": "ShipSizeType_M",
		"Rank": "RankType_T3",
		"SubRank": "SubRankType_S4",
		"DamageComposeList": [
			0.6000000238418579,
			0.4000000059604645
		],
		"DamageBasic": 123,
		"Speed": 2800.0,
		"RangeMax": 19500.0,
		"ArmorBasic": 200,
		"PackedSize": 0.002219999907538295,
		"ObtainSourceList": [
			"ItemObtainSourceType_Auction",
			"ItemObtainSourceType_Production"
		]
	},
	{
		"ID": 35122,
		"SalePrice": 1344.0,
		"BindMoneyBuyPrice": 0.0,
		"SizeType": "ShipSizeType_M",
		"Rank": "RankType_T3",
		"SubRank": "SubRankType_S5",
		"DamageComposeList": [
			0.6000000238418579,
			0.4000000059604645
		],
		"DamageBasic": 130,
		"Speed": 2800.0,
		"RangeMax": 19500.0,
		"ArmorBasic": 200,
		"PackedSize": 0.002219999907538295,
		"ObtainSourceList": [
			"ItemObtainSourceType_Auction",
			"ItemObtainSourceType_Production"
		]
	},
	{
		"ID": 11113,
		"SalePrice": 4.199999809265137,
		"BindMoneyBuyPrice": 28.0,
		"SizeType": "ShipSizeType_L",
		"Rank": "RankType_T1",
		"SubRank": "SubRankType_S1",
		"DamageComposeList": [
			0.6000000238418579,
			0.4000000059604645
		],
		"DamageBasic": 202,
		"Speed": 2300.0,
		"RangeMax": 19500.0,
		"ArmorBasic": 200,
		"PackedSize": 0.00443999981507659,
		"ObtainSourceList": [
			"ItemObtainSourceType_NPCShop"
		]
	},
	{
		"ID": 12113,
		"SalePrice": 5.25,
		"BindMoneyBuyPrice": 0.0,
		"SizeType": "ShipSizeType_L",
		"Rank": "RankType_T1",
		"SubRank": "SubRankType_S2",
		"DamageComposeList": [
			0.6000000238418579,
			0.4000000059604645
		],
		"DamageBasic": 210,
		"Speed": 2300.0,
		"RangeMax": 19500.0,
		"ArmorBasic": 200,
		"PackedSize": 0.00443999981507659,
		"ObtainSourceList": [
			"ItemObtainSourceType_Auction",
			"ItemObtainSourceType_Production"
		]
	},
	{
		"ID": 13113,
		"SalePrice": 6.300000190734863,
		"BindMoneyBuyPrice": 0.0,
		"SizeType": "ShipSizeType_L",
		"Rank": "RankType_T1",
		"SubRank": "SubRankType_S3",
		"DamageComposeList": [
			0.6000000238418579,
			0.4000000059604645
		],
		"DamageBasic": 220,
		"Speed": 2300.0,
		"RangeMax": 19500.0,
		"ArmorBasic": 200,
		"PackedSize": 0.00443999981507659,
		"ObtainSourceList": [
			"ItemObtainSourceType_Auction",
			"ItemObtainSourceType_Production"
		]
	},
	{
		"ID": 14113,
		"SalePrice": 12.600000381469727,
		"BindMoneyBuyPrice": 0.0,
		"SizeType": "ShipSizeType_L",
		"Rank": "RankType_T1",
		"SubRank": "SubRankType_S4",
		"DamageComposeList": [
			0.6000000238418579,
			0.4000000059604645
		],
		"DamageBasic": 230,
		"Speed": 2300.0,
		"RangeMax": 19500.0,
		"ArmorBasic": 200,
		"PackedSize": 0.00443999981507659,
		"ObtainSourceList": [
			"ItemObtainSourceType_Auction",
			"ItemObtainSourceType_Production"
		]
	},
	{
		"ID": 15113,
		"SalePrice": 21.0,
		"BindMoneyBuyPrice": 0.0,
		"SizeType": "ShipSizeType_L",
		"Rank": "RankType_T1",
		"SubRank": "SubRankType_S5",
		"DamageComposeList": [
			0.6000000238418579,
			0.4000000059604645
		],
		"DamageBasic": 230,
		"Speed": 2300.0,
		"RangeMax": 19500.0,
		"ArmorBasic": 200,
		"PackedSize": 0.00443999981507659,
		"ObtainSourceList": [
			"ItemObtainSourceType_Auction",
			"ItemObtainSourceType_Production"
		]
	},
	{
		"ID": 21113,
		"SalePrice": 33.599998474121094,
		"BindMoneyBuyPrice": 0.0,
		"SizeType": "ShipSizeType_L",
		"Rank": "RankType_T2",
		"SubRank": "SubRankType_S1",
		"DamageComposeList": [
			0.6000000238418579,
			0.4000000059604645
		],
		"DamageBasic": 242,
		"Speed": 2300.0,
		"RangeMax": 19500.0,
		"ArmorBasic": 200,
		"PackedSize": 0.00443999981507659,
		"ObtainSourceList": [
			"ItemObtainSourceType_Auction",
			"ItemObtainSourceType_Production"
		]
	},
	{
		"ID": 22113,
		"SalePrice": 42.0,
		"BindMoneyBuyPrice": 0.0,
		"SizeType": "ShipSizeType_L",
		"Rank": "RankType_T2",
		"SubRank": "SubRankType_S2",
		"DamageComposeList": [
			0.6000000238418579,
			0.4000000059604645
		],
		"DamageBasic": 253,
		"Speed": 2300.0,
		"RangeMax": 19500.0,
		"ArmorBasic": 200,
		"PackedSize": 0.00443999981507659,
		"ObtainSourceList": [
			"ItemObtainSourceType_Auction",
			"ItemObtainSourceType_Production"
		]
	},
	{
		"ID": 23113,
		"SalePrice": 50.400001525878906,
		"BindMoneyBuyPrice": 0.0,
		"SizeType": "ShipSizeType_L",
		"Rank": "RankType_T2",
		"SubRank": "SubRankType_S3",
		"DamageComposeList": [
			0.6000000238418579,
			0.4000000059604645
		],
		"DamageBasic": 265,
		"Speed": 2300.0,
		"RangeMax": 19500.0,
		"ArmorBasic": 200,
		"PackedSize": 0.00443999981507659,
		"ObtainSourceList": [
			"ItemObtainSourceType_Auction",
			"ItemObtainSourceType_Production"
		]
	},
	{
		"ID": 24113,
		"SalePrice": 100.80000305175781,
		"BindMoneyBuyPrice": 0.0,
		"SizeType": "ShipSizeType_L",
		"Rank": "RankType_T2",
		"SubRank": "SubRankType_S4",
		"DamageComposeList": [
			0.6000000238418579,
			0.4000000059604645
		],
		"DamageBasic": 277,
		"Speed": 2300.0,
		"RangeMax": 19500.0,
		"ArmorBasic": 200,
		"PackedSize": 0.00443999981507659,
		"ObtainSourceList": [
			"ItemObtainSourceType_Auction",
			"ItemObtainSourceType_Production"
		]
	},
	{
		"ID": 25113,
		"SalePrice": 168.0,
		"BindMoneyBuyPrice": 0.0,
		"SizeType": "ShipSizeType_L",
		"Rank": "RankType_T2",
		"SubRank": "SubRankType_S5",
		"DamageComposeList": [
			0.6000000238418579,
			0.4000000059604645
		],
		"DamageBasic": 291,
		"Speed": 2300.0,
		"RangeMax": 19500.0,
		"ArmorBasic": 200,
		"PackedSize": 0.00443999981507659,
		"ObtainSourceList": [
			"ItemObtainSourceType_Auction",
			"ItemObtainSourceType_Production"
		]
	},
	{
		"ID": 31113,
		"SalePrice": 336.0,
		"BindMoneyBuyPrice": 0.0,
		"SizeType": "ShipSizeType_L",
		"Rank": "RankType_T3",
		"SubRank": "SubRankType_S1",
		"DamageComposeList": [
			0.6000000238418579,
			0.4000000059604645
		],
		"DamageBasic": 303,
		"Speed": 2300.0,
		"RangeMax": 19500.0,
		"ArmorBasic": 200,
		"PackedSize": 0.00443999981507659,
		"ObtainSourceList": [
			"ItemObtainSourceType_Auction",
			"ItemObtainSourceType_Production"
		]
	},
	{
		"ID": 32113,
		"SalePrice": 504.0,
		"BindMoneyBuyPrice": 0.0,
		"SizeType": "ShipSizeType_L",
		"Rank": "RankType_T3",
		"SubRank": "SubRankType_S2",
		"DamageComposeList": [
			0.6000000238418579,
			0.4000000059604645
		],
		"DamageBasic": 315,
		"Speed": 2300.0,
		"RangeMax": 19500.0,
		"ArmorBasic": 200,
		"PackedSize": 0.00443999981507659,
		"ObtainSourceList": [
			"ItemObtainSourceType_Auction",
			"ItemObtainSourceType_Production"
		]
	},
	{
		"ID": 33113,
		"SalePrice": 672.0,
		"BindMoneyBuyPrice": 0.0,
		"SizeType": "ShipSizeType_L",
		"Rank": "RankType_T3",
		"SubRank": "SubRankType_S3",
		"DamageComposeList": [
			0.6000000238418579,
			0.4000000059604645
		],
		"DamageBasic": 331,
		"Speed": 2300.0,
		"RangeMax": 19500.0,
		"ArmorBasic": 200,
		"PackedSize": 0.00443999981507659,
		"ObtainSourceList": [
			"ItemObtainSourceType_Auction",
			"ItemObtainSourceType_Production"
		]
	},
	{
		"ID": 34113,
		"SalePrice": 1344.0,
		"BindMoneyBuyPrice": 0.0,
		"SizeType": "ShipSizeType_L",
		"Rank": "RankType_T3",
		"SubRank": "SubRankType_S4",
		"DamageComposeList": [
			0.6000000238418579,
			0.4000000059604645
		],
		"DamageBasic": 345,
		"Speed": 2300.0,
		"RangeMax": 19500.0,
		"ArmorBasic": 200,
		"PackedSize": 0.00443999981507659,
		"ObtainSourceList": [
			"ItemObtainSourceType_Auction",
			"ItemObtainSourceType_Production"
		]
	},
	{
		"ID": 35113,
		"SalePrice": 2352.0,
		"BindMoneyBuyPrice": 0.0,
		"SizeType": "ShipSizeType_L",
		"Rank": "RankType_T3",
		"SubRank": "SubRankType_S5",
		"DamageComposeList": [
			0.6000000238418579,
			0.4000000059604645
		],
		"DamageBasic": 364,
		"Speed": 2300.0,
		"RangeMax": 19500.0,
		"ArmorBasic": 200,
		"PackedSize": 0.00443999981507659,
		"ObtainSourceList": [
			"ItemObtainSourceType_Auction",
			"ItemObtainSourceType_Production"
		]
	},
	{
		"ID": 11123,
		"SalePrice": 4.199999809265137,
		"BindMoneyBuyPrice": 28.0,
		"SizeType": "ShipSizeType_L",
		"Rank": "RankType_T1",
		"SubRank": "SubRankType_S1",
		"DamageComposeList": [
			0.6000000238418579,
			0.4000000059604645
		],
		"DamageBasic": 144,
		"Speed": 2600.0,
		"RangeMax": 39000.0,
		"ArmorBasic": 200,
		"PackedSize": 0.00443999981507659,
		"ObtainSourceList": [
			"ItemObtainSourceType_NPCShop"
		]
	},
	{
		"ID": 12123,
		"SalePrice": 5.25,
		"BindMoneyBuyPrice": 0.0,
		"SizeType": "ShipSizeType_L",
		"Rank": "RankType_T1",
		"SubRank": "SubRankType_S2",
		"DamageComposeList": [
			0.6000000238418579,
			0.4000000059604645
		],
		"DamageBasic": 150,
		"Speed": 2600.0,
		"RangeMax": 39000.0,
		"ArmorBasic": 200,
		"PackedSize": 0.00443999981507659,
		"ObtainSourceList": [
			"ItemObtainSourceType_Auction",
			"ItemObtainSourceType_Production"
		]
	},
	{
		"ID": 13123,
		"SalePrice": 6.300000190734863,
		"BindMoneyBuyPrice": 0.0,
		"SizeType": "ShipSizeType_L",
		"Rank": "RankType_T1",
		"SubRank": "SubRankType_S3",
		"DamageComposeList": [
			0.6000000238418579,
			0.4000000059604645
		],
		"DamageBasic": 157,
		"Speed": 2600.0,
		"RangeMax": 39000.0,
		"ArmorBasic": 200,
		"PackedSize": 0.00443999981507659,
		"ObtainSourceList": [
			"ItemObtainSourceType_Auction",
			"ItemObtainSourceType_Production"
		]
	},
	{
		"ID": 14123,
		"SalePrice": 12.600000381469727,
		"BindMoneyBuyPrice": 0.0,
		"SizeType": "ShipSizeType_L",
		"Rank": "RankType_T1",
		"SubRank": "SubRankType_S4",
		"DamageComposeList": [
			0.6000000238418579,
			0.4000000059604645
		],
		"DamageBasic": 164,
		"Speed": 2600.0,
		"RangeMax": 39000.0,
		"ArmorBasic": 200,
		"PackedSize": 0.00443999981507659,
		"ObtainSourceList": [
			"ItemObtainSourceType_Auction",
			"ItemObtainSourceType_Production"
		]
	},
	{
		"ID": 15123,
		"SalePrice": 21.0,
		"BindMoneyBuyPrice": 0.0,
		"SizeType": "ShipSizeType_L",
		"Rank": "RankType_T1",
		"SubRank": "SubRankType_S5",
		"DamageComposeList": [
			0.6000000238418579,
			0.4000000059604645
		],
		"DamageBasic": 164,
		"Speed": 2600.0,
		"RangeMax": 39000.0,
		"ArmorBasic": 200,
		"PackedSize": 0.00443999981507659,
		"ObtainSourceList": [
			"ItemObtainSourceType_Auction",
			"ItemObtainSourceType_Production"
		]
	},
	{
		"ID": 21123,
		"SalePrice": 33.599998474121094,
		"BindMoneyBuyPrice": 0.0,
		"SizeType": "ShipSizeType_L",
		"Rank": "RankType_T2",
		"SubRank": "SubRankType_S1",
		"DamageComposeList": [
			0.6000000238418579,
			0.4000000059604645
		],
		"DamageBasic": 173,
		"Speed": 2600.0,
		"RangeMax": 39000.0,
		"ArmorBasic": 200,
		"PackedSize": 0.00443999981507659,
		"ObtainSourceList": [
			"ItemObtainSourceType_Auction",
			"ItemObtainSourceType_Production"
		]
	},
	{
		"ID": 22123,
		"SalePrice": 42.0,
		"BindMoneyBuyPrice": 0.0,
		"SizeType": "ShipSizeType_L",
		"Rank": "RankType_T2",
		"SubRank": "SubRankType_S2",
		"DamageComposeList": [
			0.6000000238418579,
			0.4000000059604645
		],
		"DamageBasic": 180,
		"Speed": 2600.0,
		"RangeMax": 39000.0,
		"ArmorBasic": 200,
		"PackedSize": 0.00443999981507659,
		"ObtainSourceList": [
			"ItemObtainSourceType_Auction",
			"ItemObtainSourceType_Production"
		]
	},
	{
		"ID": 23123,
		"SalePrice": 50.400001525878906,
		"BindMoneyBuyPrice": 0.0,
		"SizeType": "ShipSizeType_L",
		"Rank": "RankType_T2",
		"SubRank": "SubRankType_S3",
		"DamageComposeList": [
			0.6000000238418579,
			0.4000000059604645
		],
		"DamageBasic": 189,
		"Speed": 2600.0,
		"RangeMax": 39000.0,
		"ArmorBasic": 200,
		"PackedSize": 0.00443999981507659,
		"ObtainSourceList": [
			"ItemObtainSourceType_Auction",
			"ItemObtainSourceType_Production"
		]
	},
	{
		"ID": 24123,
		"SalePrice": 100.80000305175781,
		"BindMoneyBuyPrice": 0.0,
		"SizeType": "ShipSizeType_L",
		"Rank": "RankType_T2",
		"SubRank": "SubRankType_S4",
		"DamageComposeList": [
			0.6000000238418579,
			0.4000000059604645
		],
		"DamageBasic": 197,
		"Speed": 2600.0,
		"RangeMax": 39000.0,
		"ArmorBasic": 200,
		"PackedSize": 0.00443999981507659,
		"ObtainSourceList": [
			"ItemObtainSourceType_Auction",
			"ItemObtainSourceType_Production"
		]
	},
	{
		"ID": 25123,
		"SalePrice": 168.0,
		"BindMoneyBuyPrice": 0.0,
		"SizeType": "ShipSizeType_L",
		"Rank": "RankType_T2",
		"SubRank": "SubRankType_S5",
		"DamageComposeList": [
			0.6000000238418579,
			0.4000000059604645
		],
		"DamageBasic": 207,
		"Speed": 2600.0,
		"RangeMax": 39000.0,
		"ArmorBasic": 200,
		"PackedSize": 0.00443999981507659,
		"ObtainSourceList": [
			"ItemObtainSourceType_Auction",
			"ItemObtainSourceType_Production"
		]
	},
	{
		"ID": 31123,
		"SalePrice": 336.0,
		"BindMoneyBuyPrice": 0.0,
		"SizeType": "ShipSizeType_L",
		"Rank": "RankType_T3",
		"SubRank": "SubRankType_S1",
		"DamageComposeList": [
			0.6000000238418579,
			0.4000000059604645
		],
		"DamageBasic": 216,
		"Speed": 2600.0,
		"RangeMax": 39000.0,
		"ArmorBasic": 200,
		"PackedSize": 0.00443999981507659,
		"ObtainSourceList": [
			"ItemObtainSourceType_Auction",
			"ItemObtainSourceType_Production"
		]
	},
	{
		"ID": 32123,
		"SalePrice": 504.0,
		"BindMoneyBuyPrice": 0.0,
		"SizeType": "ShipSizeType_L",
		"Rank": "RankType_T3",
		"SubRank": "SubRankType_S2",
		"DamageComposeList": [
			0.6000000238418579,
			0.4000000059604645
		],
		"DamageBasic": 225,
		"Speed": 2600.0,
		"RangeMax": 39000.0,
		"ArmorBasic": 200,
		"PackedSize": 0.00443999981507659,
		"ObtainSourceList": [
			"ItemObtainSourceType_Auction",
			"ItemObtainSourceType_Production"
		]
	},
	{
		"ID": 33123,
		"SalePrice": 672.0,
		"BindMoneyBuyPrice": 0.0,
		"SizeType": "ShipSizeType_L",
		"Rank": "RankType_T3",
		"SubRank": "SubRankType_S3",
		"DamageComposeList": [
			0.6000000238418579,
			0.4000000059604645
		],
		"DamageBasic": 236,
		"Speed": 2600.0,
		"RangeMax": 39000.0,
		"ArmorBasic": 200,
		"PackedSize": 0.00443999981507659,
		"ObtainSourceList": [
			"ItemObtainSourceType_Auction",
			"ItemObtainSourceType_Production"
		]
	},
	{
		"ID": 34123,
		"SalePrice": 1344.0,
		"BindMoneyBuyPrice": 0.0,
		"SizeType": "ShipSizeType_L",
		"Rank": "RankType_T3",
		"SubRank": "SubRankType_S4",
		"DamageComposeList": [
			0.6000000238418579,
			0.4000000059604645
		],
		"DamageBasic": 246,
		"Speed": 2600.0,
		"RangeMax": 39000.0,
		"ArmorBasic": 200,
		"PackedSize": 0.00443999981507659,
		"ObtainSourceList": [
			"ItemObtainSourceType_Auction",
			"ItemObtainSourceType_Production"
		]
	},
	{
		"ID": 35123,
		"SalePrice": 2352.0,
		"BindMoneyBuyPrice": 0.0,
		"SizeType": "ShipSizeType_L",
		"Rank": "RankType_T3",
		"SubRank": "SubRankType_S5",
		"DamageComposeList": [
			0.6000000238418579,
			0.4000000059604645
		],
		"DamageBasic": 259,
		"Speed": 2600.0,
		"RangeMax": 39000.0,
		"ArmorBasic": 200,
		"PackedSize": 0.00443999981507659,
		"ObtainSourceList": [
			"ItemObtainSourceType_Auction",
			"ItemObtainSourceType_Production"
		]
	},
	{
		"ID": 11141,
		"SalePrice": 0.6000000238418579,
		"BindMoneyBuyPrice": 4.0,
		"SizeType": "ShipSizeType_L",
		"Rank": "RankType_T1",
		"SubRank": "SubRankType_S1",
		"DamageComposeList": [
			0.6000000238418579,
			0.4000000059604645
		],
		"DamageBasic": 386,
		"Speed": 2240.0,
		"RangeMax": 50700.0,
		"ArmorBasic": 200,
		"PackedSize": 0.0011099999537691474,
		"ObtainSourceList": [
			"ItemObtainSourceType_NPCShop",
			"ItemObtainSourceType_FreeSignal_Engineer"
		]
	},
	{
		"ID": 1,
		"SalePrice": 2.5199999809265137,
		"BindMoneyBuyPrice": 16.0,
		"SizeType": "ShipSizeType_L",
		"Rank": "RankType_T1",
		"SubRank": "SubRankType_S1",
		"DamageComposeList": [
			0.6000000238418579,
			0.4000000059604645
		],
		"DamageBasic": 225,
		"Speed": 4000.0,
		"RangeMax": 20000.0,
		"ArmorBasic": 200,
		"PackedSize": 0.00443999981507659
	},
	{
		"ID": 2,
		"SalePrice": 2.5199999809265137,
		"BindMoneyBuyPrice": 16.0,
		"SizeType": "ShipSizeType_L",
		"Rank": "RankType_T1",
		"SubRank": "SubRankType_S1",
		"DamageComposeList": [
			0.6000000238418579,
			0.4000000059604645
		],
		"DamageBasic": 240,
		"Speed": 4000.0,
		"RangeMax": 23000.0,
		"ArmorBasic": 200,
		"PackedSize": 0.00443999981507659
	},
	{
		"ID": 3,
		"SalePrice": 2.5199999809265137,
		"BindMoneyBuyPrice": 16.0,
		"SizeType": "ShipSizeType_L",
		"Rank": "RankType_T1",
		"SubRank": "SubRankType_S1",
		"DamageComposeList": [
			0.6000000238418579,
			0.4000000059604645
		],
		"DamageBasic": 338,
		"Speed": 4000.0,
		"RangeMax": 26000.0,
		"ArmorBasic": 200,
		"PackedSize": 0.00443999981507659
	},
	{
		"ID": 4,
		"SalePrice": 2.5199999809265137,
		"BindMoneyBuyPrice": 16.0,
		"SizeType": "ShipSizeType_L",
		"Rank": "RankType_T1",
		"SubRank": "SubRankType_S1",
		"DamageComposeList": [
			0.6000000238418579,
			0.4000000059604645
		],
		"DamageBasic": 675,
		"Speed": 4000.0,
		"RangeMax": 29000.0,
		"ArmorBasic": 200,
		"PackedSize": 0.00443999981507659
	},
	{
		"ID": 5,
		"SalePrice": 2.5199999809265137,
		"BindMoneyBuyPrice": 16.0,
		"SizeType": "ShipSizeType_L",
		"Rank": "RankType_T1",
		"SubRank": "SubRankType_S1",
		"DamageComposeList": [
			0.6000000238418579,
			0.4000000059604645
		],
		"DamageBasic": 563,
		"Speed": 4000.0,
		"RangeMax": 32000.0,
		"ArmorBasic": 200,
		"PackedSize": 0.00443999981507659
	},
	{
		"ID": 992011,
		"SalePrice": 0.36000001430511475,
		"BindMoneyBuyPrice": 0.0,
		"SizeType": "ShipSizeType_S",
		"Rank": "RankType_T1",
		"SubRank": "SubRankType_S1",
		"DamageComposeList": [
			0.6000000238418579,
			0.4000000059604645
		],
		"DamageBasic": 0,
		"Speed": 2800.0,
		"RangeMax": 10000.0,
		"ArmorBasic": 10000,
		"PackedSize": 0.0011099999537691474,
		"ObtainSourceList": [
			"ItemObtainSourceType_NPCShop",
			"ItemObtainSourceType_FreeSignal_Engineer"
		]
	},
	{
		"ID": 993011,
		"SalePrice": 0.36000001430511475,
		"BindMoneyBuyPrice": 0.0,
		"SizeType": "ShipSizeType_S",
		"Rank": "RankType_T1",
		"SubRank": "SubRankType_S1",
		"DamageComposeList": [
			0.6000000238418579,
			0.4000000059604645
		],
		"DamageBasic": 0,
		"Speed": 2800.0,
		"RangeMax": 10000.0,
		"ArmorBasic": 10000,
		"PackedSize": 0.0011099999537691474,
		"ObtainSourceList": [
			"ItemObtainSourceType_NPCShop",
			"ItemObtainSourceType_FreeSignal_Engineer"
		]
	},
	{
		"ID": 994001,
		"SalePrice": 0.36000001430511475,
		"BindMoneyBuyPrice": 4.0,
		"SizeType": "ShipSizeType_S",
		"Rank": "RankType_T1",
		"SubRank": "SubRankType_S1",
		"DamageComposeList": [
			0.6000000238418579,
			0.4000000059604645
		],
		"DamageBasic": 56,
		"Speed": 2800.0,
		"RangeMax": 8000.0,
		"ArmorBasic": 200,
		"PackedSize": 0.0011099999537691474,
		"ObtainSourceList": [
			"ItemObtainSourceType_NPCShop",
			"ItemObtainSourceType_FreeSignal_Engineer"
		]
	},
	{
		"ID": 11,
		"SalePrice": 0.0,
		"BindMoneyBuyPrice": 0.0,
		"SizeType": "ShipSizeType_L",
		"Rank": "RankType_T1",
		"SubRank": "SubRankType_S1",
		"DamageComposeList": [
			0.6000000238418579,
			0.4000000059604645
		],
		"DamageBasic": 438,
		"Speed": 4000.0,
		"RangeMax": 10500.0,
		"ArmorBasic": 200,
		"PackedSize": 0.00443999981507659,
		"ObtainSourceList": [
			"ItemObtainSourceType_Special1",
			"ItemObtainSourceType_FreeSignal_Engineer",
			"ItemObtainSourceType_Production",
			"ItemObtainSourceType_Crack"
		]
	},
	{
		"ID": 12,
		"SalePrice": 0.0,
		"BindMoneyBuyPrice": 0.0,
		"SizeType": "ShipSizeType_L",
		"Rank": "RankType_T1",
		"SubRank": "SubRankType_S1",
		"DamageComposeList": [
			0.6000000238418579,
			0.4000000059604645
		],
		"DamageBasic": 438,
		"Speed": 4000.0,
		"RangeMax": 10500.0,
		"ArmorBasic": 200,
		"PackedSize": 0.00443999981507659,
		"ObtainSourceList": [
			"ItemObtainSourceType_Special1",
			"ItemObtainSourceType_FreeSignal_Engineer",
			"ItemObtainSourceType_Production",
			"ItemObtainSourceType_Crack"
		]
	},
	{
		"ID": 13,
		"SalePrice": 0.0,
		"BindMoneyBuyPrice": 0.0,
		"SizeType": "ShipSizeType_L",
		"Rank": "RankType_T1",
		"SubRank": "SubRankType_S1",
		"DamageComposeList": [
			0.6000000238418579,
			0.4000000059604645
		],
		"DamageBasic": 658,
		"Speed": 4000.0,
		"RangeMax": 13650.0,
		"ArmorBasic": 200,
		"PackedSize": 0.00443999981507659,
		"ObtainSourceList": [
			"ItemObtainSourceType_Special1",
			"ItemObtainSourceType_FreeSignal_Engineer",
			"ItemObtainSourceType_Production",
			"ItemObtainSourceType_Crack"
		]
	},
	{
		"ID": 14,
		"SalePrice": 0.0,
		"BindMoneyBuyPrice": 0.0,
		"SizeType": "ShipSizeType_L",
		"Rank": "RankType_T1",
		"SubRank": "SubRankType_S1",
		"DamageComposeList": [
			0.6000000238418579,
			0.4000000059604645
		],
		"DamageBasic": 877,
		"Speed": 4000.0,
		"RangeMax": 16800.0,
		"ArmorBasic": 200,
		"PackedSize": 0.00443999981507659,
		"ObtainSourceList": [
			"ItemObtainSourceType_Special1",
			"ItemObtainSourceType_FreeSignal_Engineer",
			"ItemObtainSourceType_Production",
			"ItemObtainSourceType_Crack"
		]
	},
	{
		"ID": 15,
		"SalePrice": 0.0,
		"BindMoneyBuyPrice": 0.0,
		"SizeType": "ShipSizeType_L",
		"Rank": "RankType_T1",
		"SubRank": "SubRankType_S1",
		"DamageComposeList": [
			0.6000000238418579,
			0.4000000059604645
		],
		"DamageBasic": 1096,
		"Speed": 4000.0,
		"RangeMax": 16800.0,
		"ArmorBasic": 200,
		"PackedSize": 0.00443999981507659,
		"ObtainSourceList": [
			"ItemObtainSourceType_Special1",
			"ItemObtainSourceType_FreeSignal_Engineer",
			"ItemObtainSourceType_Production",
			"ItemObtainSourceType_Crack"
		]
	},
	{
		"ID": 21,
		"SalePrice": 0.0,
		"BindMoneyBuyPrice": 0.0,
		"SizeType": "ShipSizeType_L",
		"Rank": "RankType_T1",
		"SubRank": "SubRankType_S1",
		"DamageComposeList": [
			0.6000000238418579,
			0.4000000059604645
		],
		"DamageBasic": 236,
		"Speed": 4000.0,
		"RangeMax": 22500.0,
		"ArmorBasic": 200,
		"PackedSize": 0.00443999981507659,
		"ObtainSourceList": [
			"ItemObtainSourceType_Special1",
			"ItemObtainSourceType_FreeSignal_Engineer",
			"ItemObtainSourceType_Production",
			"ItemObtainSourceType_Crack"
		]
	},
	{
		"ID": 22,
		"SalePrice": 0.0,
		"BindMoneyBuyPrice": 0.0,
		"SizeType": "ShipSizeType_L",
		"Rank": "RankType_T1",
		"SubRank": "SubRankType_S1",
		"DamageComposeList": [
			0.6000000238418579,
			0.4000000059604645
		],
		"DamageBasic": 122,
		"Speed": 4000.0,
		"RangeMax": 12000.0,
		"ArmorBasic": 200,
		"PackedSize": 0.00443999981507659,
		"ObtainSourceList": [
			"ItemObtainSourceType_Special1",
			"ItemObtainSourceType_FreeSignal_Engineer",
			"ItemObtainSourceType_Production",
			"ItemObtainSourceType_Crack"
		]
	},
	{
		"ID": 23,
		"SalePrice": 0.0,
		"BindMoneyBuyPrice": 0.0,
		"SizeType": "ShipSizeType_L",
		"Rank": "RankType_T1",
		"SubRank": "SubRankType_S1",
		"DamageComposeList": [
			0.6000000238418579,
			0.4000000059604645
		],
		"DamageBasic": 354,
		"Speed": 4000.0,
		"RangeMax": 29250.0,
		"ArmorBasic": 200,
		"PackedSize": 0.00443999981507659,
		"ObtainSourceList": [
			"ItemObtainSourceType_Special1",
			"ItemObtainSourceType_FreeSignal_Engineer",
			"ItemObtainSourceType_Production",
			"ItemObtainSourceType_Crack"
		]
	},
	{
		"ID": 24,
		"SalePrice": 0.0,
		"BindMoneyBuyPrice": 0.0,
		"SizeType": "ShipSizeType_L",
		"Rank": "RankType_T1",
		"SubRank": "SubRankType_S1",
		"DamageComposeList": [
			0.6000000238418579,
			0.4000000059604645
		],
		"DamageBasic": 250,
		"Speed": 4000.0,
		"RangeMax": 32000.0,
		"ArmorBasic": 200,
		"PackedSize": 0.00443999981507659,
		"ObtainSourceList": [
			"ItemObtainSourceType_Special1",
			"ItemObtainSourceType_FreeSignal_Engineer",
			"ItemObtainSourceType_Production",
			"ItemObtainSourceType_Crack"
		]
	},
	{
		"ID": 25,
		"SalePrice": 0.0,
		"BindMoneyBuyPrice": 0.0,
		"SizeType": "ShipSizeType_L",
		"Rank": "RankType_T1",
		"SubRank": "SubRankType_S1",
		"DamageComposeList": [
			0.6000000238418579,
			0.4000000059604645
		],
		"DamageBasic": 749,
		"Speed": 4000.0,
		"RangeMax": 42000.0,
		"ArmorBasic": 200,
		"PackedSize": 0.00443999981507659,
		"ObtainSourceList": [
			"ItemObtainSourceType_Special1",
			"ItemObtainSourceType_FreeSignal_Engineer",
			"ItemObtainSourceType_Production",
			"ItemObtainSourceType_Crack"
		]
	},
	{
		"ID": 31,
		"SalePrice": 0.0,
		"BindMoneyBuyPrice": 0.0,
		"SizeType": "ShipSizeType_L",
		"Rank": "RankType_T1",
		"SubRank": "SubRankType_S1",
		"DamageComposeList": [
			0.6000000238418579,
			0.4000000059604645
		],
		"DamageBasic": 62,
		"Speed": 4000.0,
		"RangeMax": 12000.0,
		"ArmorBasic": 200,
		"PackedSize": 0.00443999981507659,
		"ObtainSourceList": [
			"ItemObtainSourceType_Special1",
			"ItemObtainSourceType_FreeSignal_Engineer",
			"ItemObtainSourceType_Production",
			"ItemObtainSourceType_Crack"
		]
	},
	{
		"ID": 32,
		"SalePrice": 0.0,
		"BindMoneyBuyPrice": 0.0,
		"SizeType": "ShipSizeType_L",
		"Rank": "RankType_T1",
		"SubRank": "SubRankType_S1",
		"DamageComposeList": [
			0.6000000238418579,
			0.4000000059604645
		],
		"DamageBasic": 337,
		"Speed": 4000.0,
		"RangeMax": 15000.0,
		"ArmorBasic": 200,
		"PackedSize": 0.00443999981507659,
		"ObtainSourceList": [
			"ItemObtainSourceType_Special1",
			"ItemObtainSourceType_FreeSignal_Engineer",
			"ItemObtainSourceType_Production",
			"ItemObtainSourceType_Crack"
		]
	},
	{
		"ID": 33,
		"SalePrice": 0.0,
		"BindMoneyBuyPrice": 0.0,
		"SizeType": "ShipSizeType_L",
		"Rank": "RankType_T1",
		"SubRank": "SubRankType_S1",
		"DamageComposeList": [
			0.6000000238418579,
			0.4000000059604645
		],
		"DamageBasic": 506,
		"Speed": 4000.0,
		"RangeMax": 19500.0,
		"ArmorBasic": 200,
		"PackedSize": 0.00443999981507659,
		"ObtainSourceList": [
			"ItemObtainSourceType_Special1",
			"ItemObtainSourceType_FreeSignal_Engineer",
			"ItemObtainSourceType_Production",
			"ItemObtainSourceType_Crack"
		]
	},
	{
		"ID": 34,
		"SalePrice": 0.0,
		"BindMoneyBuyPrice": 0.0,
		"SizeType": "ShipSizeType_L",
		"Rank": "RankType_T1",
		"SubRank": "SubRankType_S1",
		"DamageComposeList": [
			0.6000000238418579,
			0.4000000059604645
		],
		"DamageBasic": 675,
		"Speed": 4000.0,
		"RangeMax": 24000.0,
		"ArmorBasic": 200,
		"PackedSize": 0.00443999981507659,
		"ObtainSourceList": [
			"ItemObtainSourceType_Special1",
			"ItemObtainSourceType_FreeSignal_Engineer",
			"ItemObtainSourceType_Production",
			"ItemObtainSourceType_Crack"
		]
	},
	{
		"ID": 35,
		"SalePrice": 0.0,
		"BindMoneyBuyPrice": 0.0,
		"SizeType": "ShipSizeType_L",
		"Rank": "RankType_T1",
		"SubRank": "SubRankType_S1",
		"DamageComposeList": [
			0.6000000238418579,
			0.4000000059604645
		],
		"DamageBasic": 843,
		"Speed": 4000.0,
		"RangeMax": 24000.0,
		"ArmorBasic": 200,
		"PackedSize": 0.00443999981507659,
		"ObtainSourceList": [
			"ItemObtainSourceType_Special1",
			"ItemObtainSourceType_FreeSignal_Engineer",
			"ItemObtainSourceType_Production",
			"ItemObtainSourceType_Crack"
		]
	},
	{
		"ID": 41,
		"SalePrice": 0.0,
		"BindMoneyBuyPrice": 0.0,
		"SizeType": "ShipSizeType_L",
		"Rank": "RankType_T1",
		"SubRank": "SubRankType_S1",
		"DamageComposeList": [
			0.6000000238418579,
			0.4000000059604645
		],
		"DamageBasic": 405,
		"Speed": 4000.0,
		"RangeMax": 15000.0,
		"ArmorBasic": 200,
		"PackedSize": 0.00443999981507659,
		"ObtainSourceList": [
			"ItemObtainSourceType_Special1",
			"ItemObtainSourceType_FreeSignal_Engineer",
			"ItemObtainSourceType_Production",
			"ItemObtainSourceType_Crack"
		]
	},
	{
		"ID": 42,
		"SalePrice": 0.0,
		"BindMoneyBuyPrice": 0.0,
		"SizeType": "ShipSizeType_L",
		"Rank": "RankType_T1",
		"SubRank": "SubRankType_S1",
		"DamageComposeList": [
			0.6000000238418579,
			0.4000000059604645
		],
		"DamageBasic": 405,
		"Speed": 4000.0,
		"RangeMax": 15000.0,
		"ArmorBasic": 200,
		"PackedSize": 0.00443999981507659,
		"ObtainSourceList": [
			"ItemObtainSourceType_Special1",
			"ItemObtainSourceType_FreeSignal_Engineer",
			"ItemObtainSourceType_Production",
			"ItemObtainSourceType_Crack"
		]
	},
	{
		"ID": 43,
		"SalePrice": 0.0,
		"BindMoneyBuyPrice": 0.0,
		"SizeType": "ShipSizeType_L",
		"Rank": "RankType_T1",
		"SubRank": "SubRankType_S1",
		"DamageComposeList": [
			0.6000000238418579,
			0.4000000059604645
		],
		"DamageBasic": 607,
		"Speed": 4000.0,
		"RangeMax": 19500.0,
		"ArmorBasic": 200,
		"PackedSize": 0.00443999981507659,
		"ObtainSourceList": [
			"ItemObtainSourceType_Special1",
			"ItemObtainSourceType_FreeSignal_Engineer",
			"ItemObtainSourceType_Production",
			"ItemObtainSourceType_Crack"
		]
	},
	{
		"ID": 44,
		"SalePrice": 0.0,
		"BindMoneyBuyPrice": 0.0,
		"SizeType": "ShipSizeType_L",
		"Rank": "RankType_T1",
		"SubRank": "SubRankType_S1",
		"DamageComposeList": [
			0.6000000238418579,
			0.4000000059604645
		],
		"DamageBasic": 810,
		"Speed": 4000.0,
		"RangeMax": 24000.0,
		"ArmorBasic": 200,
		"PackedSize": 0.00443999981507659,
		"ObtainSourceList": [
			"ItemObtainSourceType_Special1",
			"ItemObtainSourceType_FreeSignal_Engineer",
			"ItemObtainSourceType_Production",
			"ItemObtainSourceType_Crack"
		]
	},
	{
		"ID": 45,
		"SalePrice": 0.0,
		"BindMoneyBuyPrice": 0.0,
		"SizeType": "ShipSizeType_L",
		"Rank": "RankType_T1",
		"SubRank": "SubRankType_S1",
		"DamageComposeList": [
			0.6000000238418579,
			0.4000000059604645
		],
		"DamageBasic": 1012,
		"Speed": 4000.0,
		"RangeMax": 24000.0,
		"ArmorBasic": 200,
		"PackedSize": 0.00443999981507659,
		"ObtainSourceList": [
			"ItemObtainSourceType_Special1",
			"ItemObtainSourceType_FreeSignal_Engineer",
			"ItemObtainSourceType_Production",
			"ItemObtainSourceType_Crack"
		]
	},
	{
		"ID": 51,
		"SalePrice": 0.0,
		"BindMoneyBuyPrice": 0.0,
		"SizeType": "ShipSizeType_L",
		"Rank": "RankType_T1",
		"SubRank": "SubRankType_S1",
		"DamageComposeList": [
			0.6000000238418579,
			0.4000000059604645
		],
		"DamageBasic": 506,
		"Speed": 4000.0,
		"RangeMax": 18000.0,
		"ArmorBasic": 200,
		"PackedSize": 0.00443999981507659,
		"ObtainSourceList": [
			"ItemObtainSourceType_Special1",
			"ItemObtainSourceType_FreeSignal_Engineer",
			"ItemObtainSourceType_Production",
			"ItemObtainSourceType_Crack"
		]
	},
	{
		"ID": 52,
		"SalePrice": 0.0,
		"BindMoneyBuyPrice": 0.0,
		"SizeType": "ShipSizeType_L",
		"Rank": "RankType_T1",
		"SubRank": "SubRankType_S1",
		"DamageComposeList": [
			0.6000000238418579,
			0.4000000059604645
		],
		"DamageBasic": 506,
		"Speed": 4000.0,
		"RangeMax": 18000.0,
		"ArmorBasic": 200,
		"PackedSize": 0.00443999981507659,
		"ObtainSourceList": [
			"ItemObtainSourceType_Special1",
			"ItemObtainSourceType_FreeSignal_Engineer",
			"ItemObtainSourceType_Production",
			"ItemObtainSourceType_Crack"
		]
	},
	{
		"ID": 53,
		"SalePrice": 0.0,
		"BindMoneyBuyPrice": 0.0,
		"SizeType": "ShipSizeType_L",
		"Rank": "RankType_T1",
		"SubRank": "SubRankType_S1",
		"DamageComposeList": [
			0.6000000238418579,
			0.4000000059604645
		],
		"DamageBasic": 759,
		"Speed": 4000.0,
		"RangeMax": 23400.0,
		"ArmorBasic": 200,
		"PackedSize": 0.00443999981507659,
		"ObtainSourceList": [
			"ItemObtainSourceType_Special1",
			"ItemObtainSourceType_FreeSignal_Engineer",
			"ItemObtainSourceType_Production",
			"ItemObtainSourceType_Crack"
		]
	},
	{
		"ID": 54,
		"SalePrice": 0.0,
		"BindMoneyBuyPrice": 0.0,
		"SizeType": "ShipSizeType_L",
		"Rank": "RankType_T1",
		"SubRank": "SubRankType_S1",
		"DamageComposeList": [
			0.6000000238418579,
			0.4000000059604645
		],
		"DamageBasic": 1012,
		"Speed": 4000.0,
		"RangeMax": 28800.0,
		"ArmorBasic": 200,
		"PackedSize": 0.00443999981507659,
		"ObtainSourceList": [
			"ItemObtainSourceType_Special1",
			"ItemObtainSourceType_FreeSignal_Engineer",
			"ItemObtainSourceType_Production",
			"ItemObtainSourceType_Crack"
		]
	},
	{
		"ID": 55,
		"SalePrice": 0.0,
		"BindMoneyBuyPrice": 0.0,
		"SizeType": "ShipSizeType_L",
		"Rank": "RankType_T1",
		"SubRank": "SubRankType_S1",
		"DamageComposeList": [
			0.6000000238418579,
			0.4000000059604645
		],
		"DamageBasic": 1265,
		"Speed": 4000.0,
		"RangeMax": 28800.0,
		"ArmorBasic": 200,
		"PackedSize": 0.00443999981507659,
		"ObtainSourceList": [
			"ItemObtainSourceType_Special1",
			"ItemObtainSourceType_FreeSignal_Engineer",
			"ItemObtainSourceType_Production",
			"ItemObtainSourceType_Crack"
		]
	},
	{
		"ID": 61,
		"SalePrice": 0.0,
		"BindMoneyBuyPrice": 0.0,
		"SizeType": "ShipSizeType_L",
		"Rank": "RankType_T2",
		"SubRank": "SubRankType_S1",
		"DamageComposeList": [
			0.6000000238418579,
			0.4000000059604645
		],
		"DamageBasic": 877,
		"Speed": 4000.0,
		"RangeMax": 10500.0,
		"ArmorBasic": 200,
		"PackedSize": 0.00443999981507659,
		"ObtainSourceList": [
			"ItemObtainSourceType_Special1",
			"ItemObtainSourceType_FreeSignal_Engineer",
			"ItemObtainSourceType_Production",
			"ItemObtainSourceType_Crack"
		]
	},
	{
		"ID": 62,
		"SalePrice": 0.0,
		"BindMoneyBuyPrice": 0.0,
		"SizeType": "ShipSizeType_L",
		"Rank": "RankType_T2",
		"SubRank": "SubRankType_S1",
		"DamageComposeList": [
			0.6000000238418579,
			0.4000000059604645
		],
		"DamageBasic": 877,
		"Speed": 4000.0,
		"RangeMax": 10500.0,
		"ArmorBasic": 200,
		"PackedSize": 0.00443999981507659,
		"ObtainSourceList": [
			"ItemObtainSourceType_Special1",
			"ItemObtainSourceType_FreeSignal_Engineer",
			"ItemObtainSourceType_Production",
			"ItemObtainSourceType_Crack"
		]
	},
	{
		"ID": 63,
		"SalePrice": 0.0,
		"BindMoneyBuyPrice": 0.0,
		"SizeType": "ShipSizeType_L",
		"Rank": "RankType_T2",
		"SubRank": "SubRankType_S1",
		"DamageComposeList": [
			0.6000000238418579,
			0.4000000059604645
		],
		"DamageBasic": 1316,
		"Speed": 4000.0,
		"RangeMax": 13650.0,
		"ArmorBasic": 200,
		"PackedSize": 0.00443999981507659,
		"ObtainSourceList": [
			"ItemObtainSourceType_Special1",
			"ItemObtainSourceType_FreeSignal_Engineer",
			"ItemObtainSourceType_Production",
			"ItemObtainSourceType_Crack"
		]
	},
	{
		"ID": 64,
		"SalePrice": 0.0,
		"BindMoneyBuyPrice": 0.0,
		"SizeType": "ShipSizeType_L",
		"Rank": "RankType_T2",
		"SubRank": "SubRankType_S1",
		"DamageComposeList": [
			0.6000000238418579,
			0.4000000059604645
		],
		"DamageBasic": 1755,
		"Speed": 4000.0,
		"RangeMax": 16800.0,
		"ArmorBasic": 200,
		"PackedSize": 0.00443999981507659,
		"ObtainSourceList": [
			"ItemObtainSourceType_Special1",
			"ItemObtainSourceType_FreeSignal_Engineer",
			"ItemObtainSourceType_Production",
			"ItemObtainSourceType_Crack"
		]
	},
	{
		"ID": 65,
		"SalePrice": 0.0,
		"BindMoneyBuyPrice": 0.0,
		"SizeType": "ShipSizeType_L",
		"Rank": "RankType_T2",
		"SubRank": "SubRankType_S1",
		"DamageComposeList": [
			0.6000000238418579,
			0.4000000059604645
		],
		"DamageBasic": 2193,
		"Speed": 4000.0,
		"RangeMax": 16800.0,
		"ArmorBasic": 200,
		"PackedSize": 0.00443999981507659,
		"ObtainSourceList": [
			"ItemObtainSourceType_Special1",
			"ItemObtainSourceType_FreeSignal_Engineer",
			"ItemObtainSourceType_Production",
			"ItemObtainSourceType_Crack"
		]
	},
	{
		"ID": 71,
		"SalePrice": 0.0,
		"BindMoneyBuyPrice": 0.0,
		"SizeType": "ShipSizeType_L",
		"Rank": "RankType_T2",
		"SubRank": "SubRankType_S1",
		"DamageComposeList": [
			0.6000000238418579,
			0.4000000059604645
		],
		"DamageBasic": 472,
		"Speed": 4000.0,
		"RangeMax": 22500.0,
		"ArmorBasic": 200,
		"PackedSize": 0.00443999981507659,
		"ObtainSourceList": [
			"ItemObtainSourceType_Special1",
			"ItemObtainSourceType_FreeSignal_Engineer",
			"ItemObtainSourceType_Production",
			"ItemObtainSourceType_Crack"
		]
	},
	{
		"ID": 72,
		"SalePrice": 0.0,
		"BindMoneyBuyPrice": 0.0,
		"SizeType": "ShipSizeType_L",
		"Rank": "RankType_T2",
		"SubRank": "SubRankType_S1",
		"DamageComposeList": [
			0.6000000238418579,
			0.4000000059604645
		],
		"DamageBasic": 175,
		"Speed": 4000.0,
		"RangeMax": 12000.0,
		"ArmorBasic": 200,
		"PackedSize": 0.00443999981507659,
		"ObtainSourceList": [
			"ItemObtainSourceType_Special1",
			"ItemObtainSourceType_FreeSignal_Engineer",
			"ItemObtainSourceType_Production",
			"ItemObtainSourceType_Crack"
		]
	},
	{
		"ID": 73,
		"SalePrice": 0.0,
		"BindMoneyBuyPrice": 0.0,
		"SizeType": "ShipSizeType_L",
		"Rank": "RankType_T2",
		"SubRank": "SubRankType_S1",
		"DamageComposeList": [
			0.6000000238418579,
			0.4000000059604645
		],
		"DamageBasic": 708,
		"Speed": 4000.0,
		"RangeMax": 29250.0,
		"ArmorBasic": 200,
		"PackedSize": 0.00443999981507659,
		"ObtainSourceList": [
			"ItemObtainSourceType_Special1",
			"ItemObtainSourceType_FreeSignal_Engineer",
			"ItemObtainSourceType_Production",
			"ItemObtainSourceType_Crack"
		]
	},
	{
		"ID": 74,
		"SalePrice": 0.0,
		"BindMoneyBuyPrice": 0.0,
		"SizeType": "ShipSizeType_L",
		"Rank": "RankType_T2",
		"SubRank": "SubRankType_S1",
		"DamageComposeList": [
			0.6000000238418579,
			0.4000000059604645
		],
		"DamageBasic": 360,
		"Speed": 4000.0,
		"RangeMax": 32000.0,
		"ArmorBasic": 200,
		"PackedSize": 0.00443999981507659,
		"ObtainSourceList": [
			"ItemObtainSourceType_Special1",
			"ItemObtainSourceType_FreeSignal_Engineer",
			"ItemObtainSourceType_Production",
			"ItemObtainSourceType_Crack"
		]
	},
	{
		"ID": 75,
		"SalePrice": 0.0,
		"BindMoneyBuyPrice": 0.0,
		"SizeType": "ShipSizeType_L",
		"Rank": "RankType_T2",
		"SubRank": "SubRankType_S1",
		"DamageComposeList": [
			0.6000000238418579,
			0.4000000059604645
		],
		"DamageBasic": 1181,
		"Speed": 4000.0,
		"RangeMax": 36000.0,
		"ArmorBasic": 200,
		"PackedSize": 0.00443999981507659,
		"ObtainSourceList": [
			"ItemObtainSourceType_Special1",
			"ItemObtainSourceType_FreeSignal_Engineer",
			"ItemObtainSourceType_Production",
			"ItemObtainSourceType_Crack"
		]
	},
	{
		"ID": 81,
		"SalePrice": 0.0,
		"BindMoneyBuyPrice": 0.0,
		"SizeType": "ShipSizeType_L",
		"Rank": "RankType_T2",
		"SubRank": "SubRankType_S1",
		"DamageComposeList": [
			0.6000000238418579,
			0.4000000059604645
		],
		"DamageBasic": 90,
		"Speed": 4000.0,
		"RangeMax": 12000.0,
		"ArmorBasic": 200,
		"PackedSize": 0.00443999981507659,
		"ObtainSourceList": [
			"ItemObtainSourceType_Special1",
			"ItemObtainSourceType_FreeSignal_Engineer",
			"ItemObtainSourceType_Production",
			"ItemObtainSourceType_Crack"
		]
	},
	{
		"ID": 82,
		"SalePrice": 0.0,
		"BindMoneyBuyPrice": 0.0,
		"SizeType": "ShipSizeType_L",
		"Rank": "RankType_T2",
		"SubRank": "SubRankType_S1",
		"DamageComposeList": [
			0.6000000238418579,
			0.4000000059604645
		],
		"DamageBasic": 675,
		"Speed": 4000.0,
		"RangeMax": 15000.0,
		"ArmorBasic": 200,
		"PackedSize": 0.00443999981507659,
		"ObtainSourceList": [
			"ItemObtainSourceType_Special1",
			"ItemObtainSourceType_FreeSignal_Engineer",
			"ItemObtainSourceType_Production",
			"ItemObtainSourceType_Crack"
		]
	},
	{
		"ID": 83,
		"SalePrice": 0.0,
		"BindMoneyBuyPrice": 0.0,
		"SizeType": "ShipSizeType_L",
		"Rank": "RankType_T2",
		"SubRank": "SubRankType_S1",
		"DamageComposeList": [
			0.6000000238418579,
			0.4000000059604645
		],
		"DamageBasic": 1012,
		"Speed": 4000.0,
		"RangeMax": 19500.0,
		"ArmorBasic": 200,
		"PackedSize": 0.00443999981507659,
		"ObtainSourceList": [
			"ItemObtainSourceType_Special1",
			"ItemObtainSourceType_FreeSignal_Engineer",
			"ItemObtainSourceType_Production",
			"ItemObtainSourceType_Crack"
		]
	},
	{
		"ID": 84,
		"SalePrice": 0.0,
		"BindMoneyBuyPrice": 0.0,
		"SizeType": "ShipSizeType_L",
		"Rank": "RankType_T2",
		"SubRank": "SubRankType_S1",
		"DamageComposeList": [
			0.6000000238418579,
			0.4000000059604645
		],
		"DamageBasic": 1350,
		"Speed": 4000.0,
		"RangeMax": 24000.0,
		"ArmorBasic": 200,
		"PackedSize": 0.00443999981507659,
		"ObtainSourceList": [
			"ItemObtainSourceType_Special1",
			"ItemObtainSourceType_FreeSignal_Engineer",
			"ItemObtainSourceType_Production",
			"ItemObtainSourceType_Crack"
		]
	},
	{
		"ID": 85,
		"SalePrice": 0.0,
		"BindMoneyBuyPrice": 0.0,
		"SizeType": "ShipSizeType_L",
		"Rank": "RankType_T2",
		"SubRank": "SubRankType_S1",
		"DamageComposeList": [
			0.6000000238418579,
			0.4000000059604645
		],
		"DamageBasic": 1687,
		"Speed": 4000.0,
		"RangeMax": 24000.0,
		"ArmorBasic": 200,
		"PackedSize": 0.00443999981507659,
		"ObtainSourceList": [
			"ItemObtainSourceType_Special1",
			"ItemObtainSourceType_FreeSignal_Engineer",
			"ItemObtainSourceType_Production",
			"ItemObtainSourceType_Crack"
		]
	},
	{
		"ID": 91,
		"SalePrice": 0.0,
		"BindMoneyBuyPrice": 0.0,
		"SizeType": "ShipSizeType_L",
		"Rank": "RankType_T2",
		"SubRank": "SubRankType_S1",
		"DamageComposeList": [
			0.6000000238418579,
			0.4000000059604645
		],
		"DamageBasic": 810,
		"Speed": 4000.0,
		"RangeMax": 15000.0,
		"ArmorBasic": 200,
		"PackedSize": 0.00443999981507659,
		"ObtainSourceList": [
			"ItemObtainSourceType_Special1",
			"ItemObtainSourceType_FreeSignal_Engineer",
			"ItemObtainSourceType_Production",
			"ItemObtainSourceType_Crack"
		]
	},
	{
		"ID": 92,
		"SalePrice": 0.0,
		"BindMoneyBuyPrice": 0.0,
		"SizeType": "ShipSizeType_L",
		"Rank": "RankType_T2",
		"SubRank": "SubRankType_S1",
		"DamageComposeList": [
			0.6000000238418579,
			0.4000000059604645
		],
		"DamageBasic": 810,
		"Speed": 4000.0,
		"RangeMax": 15000.0,
		"ArmorBasic": 200,
		"PackedSize": 0.00443999981507659,
		"ObtainSourceList": [
			"ItemObtainSourceType_Special1",
			"ItemObtainSourceType_FreeSignal_Engineer",
			"ItemObtainSourceType_Production",
			"ItemObtainSourceType_Crack"
		]
	},
	{
		"ID": 93,
		"SalePrice": 0.0,
		"BindMoneyBuyPrice": 0.0,
		"SizeType": "ShipSizeType_L",
		"Rank": "RankType_T2",
		"SubRank": "SubRankType_S1",
		"DamageComposeList": [
			0.6000000238418579,
			0.4000000059604645
		],
		"DamageBasic": 1215,
		"Speed": 4000.0,
		"RangeMax": 19500.0,
		"ArmorBasic": 200,
		"PackedSize": 0.00443999981507659,
		"ObtainSourceList": [
			"ItemObtainSourceType_Special1",
			"ItemObtainSourceType_FreeSignal_Engineer",
			"ItemObtainSourceType_Production",
			"ItemObtainSourceType_Crack"
		]
	},
	{
		"ID": 94,
		"SalePrice": 0.0,
		"BindMoneyBuyPrice": 0.0,
		"SizeType": "ShipSizeType_L",
		"Rank": "RankType_T2",
		"SubRank": "SubRankType_S1",
		"DamageComposeList": [
			0.6000000238418579,
			0.4000000059604645
		],
		"DamageBasic": 1620,
		"Speed": 4000.0,
		"RangeMax": 24000.0,
		"ArmorBasic": 200,
		"PackedSize": 0.00443999981507659,
		"ObtainSourceList": [
			"ItemObtainSourceType_Special1",
			"ItemObtainSourceType_FreeSignal_Engineer",
			"ItemObtainSourceType_Production",
			"ItemObtainSourceType_Crack"
		]
	},
	{
		"ID": 95,
		"SalePrice": 0.0,
		"BindMoneyBuyPrice": 0.0,
		"SizeType": "ShipSizeType_L",
		"Rank": "RankType_T2",
		"SubRank": "SubRankType_S1",
		"DamageComposeList": [
			0.6000000238418579,
			0.4000000059604645
		],
		"DamageBasic": 2025,
		"Speed": 4000.0,
		"RangeMax": 24000.0,
		"ArmorBasic": 200,
		"PackedSize": 0.00443999981507659,
		"ObtainSourceList": [
			"ItemObtainSourceType_Special1",
			"ItemObtainSourceType_FreeSignal_Engineer",
			"ItemObtainSourceType_Production",
			"ItemObtainSourceType_Crack"
		]
	},
	{
		"ID": 101,
		"SalePrice": 0.0,
		"BindMoneyBuyPrice": 0.0,
		"SizeType": "ShipSizeType_L",
		"Rank": "RankType_T2",
		"SubRank": "SubRankType_S1",
		"DamageComposeList": [
			0.6000000238418579,
			0.4000000059604645
		],
		"DamageBasic": 1012,
		"Speed": 4000.0,
		"RangeMax": 18000.0,
		"ArmorBasic": 200,
		"PackedSize": 0.00443999981507659,
		"ObtainSourceList": [
			"ItemObtainSourceType_Special1",
			"ItemObtainSourceType_FreeSignal_Engineer",
			"ItemObtainSourceType_Production",
			"ItemObtainSourceType_Crack"
		]
	},
	{
		"ID": 102,
		"SalePrice": 0.0,
		"BindMoneyBuyPrice": 0.0,
		"SizeType": "ShipSizeType_L",
		"Rank": "RankType_T2",
		"SubRank": "SubRankType_S1",
		"DamageComposeList": [
			0.6000000238418579,
			0.4000000059604645
		],
		"DamageBasic": 1012,
		"Speed": 4000.0,
		"RangeMax": 18000.0,
		"ArmorBasic": 200,
		"PackedSize": 0.00443999981507659,
		"ObtainSourceList": [
			"ItemObtainSourceType_Special1",
			"ItemObtainSourceType_FreeSignal_Engineer",
			"ItemObtainSourceType_Production",
			"ItemObtainSourceType_Crack"
		]
	},
	{
		"ID": 103,
		"SalePrice": 0.0,
		"BindMoneyBuyPrice": 0.0,
		"SizeType": "ShipSizeType_L",
		"Rank": "RankType_T2",
		"SubRank": "SubRankType_S1",
		"DamageComposeList": [
			0.6000000238418579,
			0.4000000059604645
		],
		"DamageBasic": 1518,
		"Speed": 4000.0,
		"RangeMax": 23400.0,
		"ArmorBasic": 200,
		"PackedSize": 0.00443999981507659,
		"ObtainSourceList": [
			"ItemObtainSourceType_Special1",
			"ItemObtainSourceType_FreeSignal_Engineer",
			"ItemObtainSourceType_Production",
			"ItemObtainSourceType_Crack"
		]
	},
	{
		"ID": 104,
		"SalePrice": 0.0,
		"BindMoneyBuyPrice": 0.0,
		"SizeType": "ShipSizeType_L",
		"Rank": "RankType_T2",
		"SubRank": "SubRankType_S1",
		"DamageComposeList": [
			0.6000000238418579,
			0.4000000059604645
		],
		"DamageBasic": 2025,
		"Speed": 4000.0,
		"RangeMax": 28800.0,
		"ArmorBasic": 200,
		"PackedSize": 0.00443999981507659,
		"ObtainSourceList": [
			"ItemObtainSourceType_Special1",
			"ItemObtainSourceType_FreeSignal_Engineer",
			"ItemObtainSourceType_Production",
			"ItemObtainSourceType_Crack"
		]
	},
	{
		"ID": 105,
		"SalePrice": 0.0,
		"BindMoneyBuyPrice": 0.0,
		"SizeType": "ShipSizeType_L",
		"Rank": "RankType_T2",
		"SubRank": "SubRankType_S1",
		"DamageComposeList": [
			0.6000000238418579,
			0.4000000059604645
		],
		"DamageBasic": 2531,
		"Speed": 4000.0,
		"RangeMax": 28800.0,
		"ArmorBasic": 200,
		"PackedSize": 0.00443999981507659,
		"ObtainSourceList": [
			"ItemObtainSourceType_Special1",
			"ItemObtainSourceType_FreeSignal_Engineer",
			"ItemObtainSourceType_Production",
			"ItemObtainSourceType_Crack"
		]
	},
	{
		"ID": 111,
		"SalePrice": 0.0,
		"BindMoneyBuyPrice": 0.0,
		"SizeType": "ShipSizeType_L",
		"Rank": "RankType_T3",
		"SubRank": "SubRankType_S1",
		"DamageComposeList": [
			0.6000000238418579,
			0.4000000059604645
		],
		"DamageBasic": 2702,
		"Speed": 4000.0,
		"RangeMax": 10500.0,
		"ArmorBasic": 200,
		"PackedSize": 0.00443999981507659,
		"ObtainSourceList": [
			"ItemObtainSourceType_Special1",
			"ItemObtainSourceType_FreeSignal_Engineer",
			"ItemObtainSourceType_Production",
			"ItemObtainSourceType_Crack"
		]
	},
	{
		"ID": 112,
		"SalePrice": 0.0,
		"BindMoneyBuyPrice": 0.0,
		"SizeType": "ShipSizeType_L",
		"Rank": "RankType_T3",
		"SubRank": "SubRankType_S1",
		"DamageComposeList": [
			0.6000000238418579,
			0.4000000059604645
		],
		"DamageBasic": 2702,
		"Speed": 4000.0,
		"RangeMax": 10500.0,
		"ArmorBasic": 200,
		"PackedSize": 0.00443999981507659,
		"ObtainSourceList": [
			"ItemObtainSourceType_Special1",
			"ItemObtainSourceType_FreeSignal_Engineer",
			"ItemObtainSourceType_Production",
			"ItemObtainSourceType_Crack"
		]
	},
	{
		"ID": 113,
		"SalePrice": 0.0,
		"BindMoneyBuyPrice": 0.0,
		"SizeType": "ShipSizeType_L",
		"Rank": "RankType_T3",
		"SubRank": "SubRankType_S1",
		"DamageComposeList": [
			0.6000000238418579,
			0.4000000059604645
		],
		"DamageBasic": 4054,
		"Speed": 4000.0,
		"RangeMax": 13650.0,
		"ArmorBasic": 200,
		"PackedSize": 0.00443999981507659,
		"ObtainSourceList": [
			"ItemObtainSourceType_Special1",
			"ItemObtainSourceType_FreeSignal_Engineer",
			"ItemObtainSourceType_Production",
			"ItemObtainSourceType_Crack"
		]
	},
	{
		"ID": 114,
		"SalePrice": 0.0,
		"BindMoneyBuyPrice": 0.0,
		"SizeType": "ShipSizeType_L",
		"Rank": "RankType_T3",
		"SubRank": "SubRankType_S1",
		"DamageComposeList": [
			0.6000000238418579,
			0.4000000059604645
		],
		"DamageBasic": 5405,
		"Speed": 4000.0,
		"RangeMax": 16800.0,
		"ArmorBasic": 200,
		"PackedSize": 0.00443999981507659,
		"ObtainSourceList": [
			"ItemObtainSourceType_Special1",
			"ItemObtainSourceType_FreeSignal_Engineer",
			"ItemObtainSourceType_Production",
			"ItemObtainSourceType_Crack"
		]
	},
	{
		"ID": 115,
		"SalePrice": 0.0,
		"BindMoneyBuyPrice": 0.0,
		"SizeType": "ShipSizeType_L",
		"Rank": "RankType_T3",
		"SubRank": "SubRankType_S1",
		"DamageComposeList": [
			0.6000000238418579,
			0.4000000059604645
		],
		"DamageBasic": 6756,
		"Speed": 4000.0,
		"RangeMax": 16800.0,
		"ArmorBasic": 200,
		"PackedSize": 0.00443999981507659,
		"ObtainSourceList": [
			"ItemObtainSourceType_Special1",
			"ItemObtainSourceType_FreeSignal_Engineer",
			"ItemObtainSourceType_Production",
			"ItemObtainSourceType_Crack"
		]
	},
	{
		"ID": 121,
		"SalePrice": 0.0,
		"BindMoneyBuyPrice": 0.0,
		"SizeType": "ShipSizeType_L",
		"Rank": "RankType_T3",
		"SubRank": "SubRankType_S1",
		"DamageComposeList": [
			0.6000000238418579,
			0.4000000059604645
		],
		"DamageBasic": 1455,
		"Speed": 4000.0,
		"RangeMax": 22500.0,
		"ArmorBasic": 200,
		"PackedSize": 0.00443999981507659,
		"ObtainSourceList": [
			"ItemObtainSourceType_Special1",
			"ItemObtainSourceType_FreeSignal_Engineer",
			"ItemObtainSourceType_Production",
			"ItemObtainSourceType_Crack"
		]
	},
	{
		"ID": 122,
		"SalePrice": 0.0,
		"BindMoneyBuyPrice": 0.0,
		"SizeType": "ShipSizeType_L",
		"Rank": "RankType_T3",
		"SubRank": "SubRankType_S1",
		"DamageComposeList": [
			0.6000000238418579,
			0.4000000059604645
		],
		"DamageBasic": 274,
		"Speed": 4000.0,
		"RangeMax": 12000.0,
		"ArmorBasic": 200,
		"PackedSize": 0.00443999981507659,
		"ObtainSourceList": [
			"ItemObtainSourceType_Special1",
			"ItemObtainSourceType_FreeSignal_Engineer",
			"ItemObtainSourceType_Production",
			"ItemObtainSourceType_Crack"
		]
	},
	{
		"ID": 123,
		"SalePrice": 0.0,
		"BindMoneyBuyPrice": 0.0,
		"SizeType": "ShipSizeType_L",
		"Rank": "RankType_T3",
		"SubRank": "SubRankType_S1",
		"DamageComposeList": [
			0.6000000238418579,
			0.4000000059604645
		],
		"DamageBasic": 2182,
		"Speed": 4000.0,
		"RangeMax": 29250.0,
		"ArmorBasic": 200,
		"PackedSize": 0.00443999981507659,
		"ObtainSourceList": [
			"ItemObtainSourceType_Special1",
			"ItemObtainSourceType_FreeSignal_Engineer",
			"ItemObtainSourceType_Production",
			"ItemObtainSourceType_Crack"
		]
	},
	{
		"ID": 124,
		"SalePrice": 0.0,
		"BindMoneyBuyPrice": 0.0,
		"SizeType": "ShipSizeType_L",
		"Rank": "RankType_T3",
		"SubRank": "SubRankType_S1",
		"DamageComposeList": [
			0.6000000238418579,
			0.4000000059604645
		],
		"DamageBasic": 562,
		"Speed": 4000.0,
		"RangeMax": 32000.0,
		"ArmorBasic": 200,
		"PackedSize": 0.00443999981507659,
		"ObtainSourceList": [
			"ItemObtainSourceType_Special1",
			"ItemObtainSourceType_FreeSignal_Engineer",
			"ItemObtainSourceType_Production",
			"ItemObtainSourceType_Crack"
		]
	},
	{
		"ID": 125,
		"SalePrice": 0.0,
		"BindMoneyBuyPrice": 0.0,
		"SizeType": "ShipSizeType_L",
		"Rank": "RankType_T3",
		"SubRank": "SubRankType_S1",
		"DamageComposeList": [
			0.6000000238418579,
			0.4000000059604645
		],
		"DamageBasic": 3638,
		"Speed": 4000.0,
		"RangeMax": 36000.0,
		"ArmorBasic": 200,
		"PackedSize": 0.00443999981507659,
		"ObtainSourceList": [
			"ItemObtainSourceType_Special1",
			"ItemObtainSourceType_FreeSignal_Engineer",
			"ItemObtainSourceType_Production",
			"ItemObtainSourceType_Crack"
		]
	},
	{
		"ID": 131,
		"SalePrice": 0.0,
		"BindMoneyBuyPrice": 0.0,
		"SizeType": "ShipSizeType_L",
		"Rank": "RankType_T3",
		"SubRank": "SubRankType_S1",
		"DamageComposeList": [
			0.6000000238418579,
			0.4000000059604645
		],
		"DamageBasic": 141,
		"Speed": 4000.0,
		"RangeMax": 12000.0,
		"ArmorBasic": 200,
		"PackedSize": 0.00443999981507659,
		"ObtainSourceList": [
			"ItemObtainSourceType_Special1",
			"ItemObtainSourceType_FreeSignal_Engineer",
			"ItemObtainSourceType_Production",
			"ItemObtainSourceType_Crack"
		]
	},
	{
		"ID": 132,
		"SalePrice": 0.0,
		"BindMoneyBuyPrice": 0.0,
		"SizeType": "ShipSizeType_L",
		"Rank": "RankType_T3",
		"SubRank": "SubRankType_S1",
		"DamageComposeList": [
			0.6000000238418579,
			0.4000000059604645
		],
		"DamageBasic": 2079,
		"Speed": 4000.0,
		"RangeMax": 15000.0,
		"ArmorBasic": 200,
		"PackedSize": 0.00443999981507659,
		"ObtainSourceList": [
			"ItemObtainSourceType_Special1",
			"ItemObtainSourceType_FreeSignal_Engineer",
			"ItemObtainSourceType_Production",
			"ItemObtainSourceType_Crack"
		]
	},
	{
		"ID": 133,
		"SalePrice": 0.0,
		"BindMoneyBuyPrice": 0.0,
		"SizeType": "ShipSizeType_L",
		"Rank": "RankType_T3",
		"SubRank": "SubRankType_S1",
		"DamageComposeList": [
			0.6000000238418579,
			0.4000000059604645
		],
		"DamageBasic": 3118,
		"Speed": 4000.0,
		"RangeMax": 19500.0,
		"ArmorBasic": 200,
		"PackedSize": 0.00443999981507659,
		"ObtainSourceList": [
			"ItemObtainSourceType_Special1",
			"ItemObtainSourceType_FreeSignal_Engineer",
			"ItemObtainSourceType_Production",
			"ItemObtainSourceType_Crack"
		]
	},
	{
		"ID": 134,
		"SalePrice": 0.0,
		"BindMoneyBuyPrice": 0.0,
		"SizeType": "ShipSizeType_L",
		"Rank": "RankType_T3",
		"SubRank": "SubRankType_S1",
		"DamageComposeList": [
			0.6000000238418579,
			0.4000000059604645
		],
		"DamageBasic": 4158,
		"Speed": 4000.0,
		"RangeMax": 24000.0,
		"ArmorBasic": 200,
		"PackedSize": 0.00443999981507659,
		"ObtainSourceList": [
			"ItemObtainSourceType_Special1",
			"ItemObtainSourceType_FreeSignal_Engineer",
			"ItemObtainSourceType_Production",
			"ItemObtainSourceType_Crack"
		]
	},
	{
		"ID": 135,
		"SalePrice": 0.0,
		"BindMoneyBuyPrice": 0.0,
		"SizeType": "ShipSizeType_L",
		"Rank": "RankType_T3",
		"SubRank": "SubRankType_S1",
		"DamageComposeList": [
			0.6000000238418579,
			0.4000000059604645
		],
		"DamageBasic": 5197,
		"Speed": 4000.0,
		"RangeMax": 24000.0,
		"ArmorBasic": 200,
		"PackedSize": 0.00443999981507659,
		"ObtainSourceList": [
			"ItemObtainSourceType_Special1",
			"ItemObtainSourceType_FreeSignal_Engineer",
			"ItemObtainSourceType_Production",
			"ItemObtainSourceType_Crack"
		]
	},
	{
		"ID": 141,
		"SalePrice": 0.0,
		"BindMoneyBuyPrice": 0.0,
		"SizeType": "ShipSizeType_L",
		"Rank": "RankType_T3",
		"SubRank": "SubRankType_S1",
		"DamageComposeList": [
			0.6000000238418579,
			0.4000000059604645
		],
		"DamageBasic": 2494,
		"Speed": 4000.0,
		"RangeMax": 15000.0,
		"ArmorBasic": 200,
		"PackedSize": 0.00443999981507659,
		"ObtainSourceList": [
			"ItemObtainSourceType_Special1",
			"ItemObtainSourceType_FreeSignal_Engineer",
			"ItemObtainSourceType_Production",
			"ItemObtainSourceType_Crack"
		]
	},
	{
		"ID": 142,
		"SalePrice": 0.0,
		"BindMoneyBuyPrice": 0.0,
		"SizeType": "ShipSizeType_L",
		"Rank": "RankType_T3",
		"SubRank": "SubRankType_S1",
		"DamageComposeList": [
			0.6000000238418579,
			0.4000000059604645
		],
		"DamageBasic": 2494,
		"Speed": 4000.0,
		"RangeMax": 15000.0,
		"ArmorBasic": 200,
		"PackedSize": 0.00443999981507659,
		"ObtainSourceList": [
			"ItemObtainSourceType_Special1",
			"ItemObtainSourceType_FreeSignal_Engineer",
			"ItemObtainSourceType_Production",
			"ItemObtainSourceType_Crack"
		]
	},
	{
		"ID": 143,
		"SalePrice": 0.0,
		"BindMoneyBuyPrice": 0.0,
		"SizeType": "ShipSizeType_L",
		"Rank": "RankType_T3",
		"SubRank": "SubRankType_S1",
		"DamageComposeList": [
			0.6000000238418579,
			0.4000000059604645
		],
		"DamageBasic": 3742,
		"Speed": 4000.0,
		"RangeMax": 19500.0,
		"ArmorBasic": 200,
		"PackedSize": 0.00443999981507659,
		"ObtainSourceList": [
			"ItemObtainSourceType_Special1",
			"ItemObtainSourceType_FreeSignal_Engineer",
			"ItemObtainSourceType_Production",
			"ItemObtainSourceType_Crack"
		]
	},
	{
		"ID": 144,
		"SalePrice": 0.0,
		"BindMoneyBuyPrice": 0.0,
		"SizeType": "ShipSizeType_L",
		"Rank": "RankType_T3",
		"SubRank": "SubRankType_S1",
		"DamageComposeList": [
			0.6000000238418579,
			0.4000000059604645
		],
		"DamageBasic": 4989,
		"Speed": 4000.0,
		"RangeMax": 24000.0,
		"ArmorBasic": 200,
		"PackedSize": 0.00443999981507659,
		"ObtainSourceList": [
			"ItemObtainSourceType_Special1",
			"ItemObtainSourceType_FreeSignal_Engineer",
			"ItemObtainSourceType_Production",
			"ItemObtainSourceType_Crack"
		]
	},
	{
		"ID": 145,
		"SalePrice": 0.0,
		"BindMoneyBuyPrice": 0.0,
		"SizeType": "ShipSizeType_L",
		"Rank": "RankType_T3",
		"SubRank": "SubRankType_S1",
		"DamageComposeList": [
			0.6000000238418579,
			0.4000000059604645
		],
		"DamageBasic": 6237,
		"Speed": 4000.0,
		"RangeMax": 24000.0,
		"ArmorBasic": 200,
		"PackedSize": 0.00443999981507659,
		"ObtainSourceList": [
			"ItemObtainSourceType_Special1",
			"ItemObtainSourceType_FreeSignal_Engineer",
			"ItemObtainSourceType_Production",
			"ItemObtainSourceType_Crack"
		]
	},
	{
		"ID": 151,
		"SalePrice": 0.0,
		"BindMoneyBuyPrice": 0.0,
		"SizeType": "ShipSizeType_L",
		"Rank": "RankType_T3",
		"SubRank": "SubRankType_S1",
		"DamageComposeList": [
			0.6000000238418579,
			0.4000000059604645
		],
		"DamageBasic": 3118,
		"Speed": 4000.0,
		"RangeMax": 18000.0,
		"ArmorBasic": 200,
		"PackedSize": 0.00443999981507659,
		"ObtainSourceList": [
			"ItemObtainSourceType_Special1",
			"ItemObtainSourceType_FreeSignal_Engineer",
			"ItemObtainSourceType_Production",
			"ItemObtainSourceType_Crack"
		]
	},
	{
		"ID": 152,
		"SalePrice": 0.0,
		"BindMoneyBuyPrice": 0.0,
		"SizeType": "ShipSizeType_L",
		"Rank": "RankType_T3",
		"SubRank": "SubRankType_S1",
		"DamageComposeList": [
			0.6000000238418579,
			0.4000000059604645
		],
		"DamageBasic": 3118,
		"Speed": 4000.0,
		"RangeMax": 18000.0,
		"ArmorBasic": 200,
		"PackedSize": 0.00443999981507659,
		"ObtainSourceList": [
			"ItemObtainSourceType_Special1",
			"ItemObtainSourceType_FreeSignal_Engineer",
			"ItemObtainSourceType_Production",
			"ItemObtainSourceType_Crack"
		]
	},
	{
		"ID": 153,
		"SalePrice": 0.0,
		"BindMoneyBuyPrice": 0.0,
		"SizeType": "ShipSizeType_L",
		"Rank": "RankType_T3",
		"SubRank": "SubRankType_S1",
		"DamageComposeList": [
			0.6000000238418579,
			0.4000000059604645
		],
		"DamageBasic": 4677,
		"Speed": 4000.0,
		"RangeMax": 23400.0,
		"ArmorBasic": 200,
		"PackedSize": 0.00443999981507659,
		"ObtainSourceList": [
			"ItemObtainSourceType_Special1",
			"ItemObtainSourceType_FreeSignal_Engineer",
			"ItemObtainSourceType_Production",
			"ItemObtainSourceType_Crack"
		]
	},
	{
		"ID": 154,
		"SalePrice": 0.0,
		"BindMoneyBuyPrice": 0.0,
		"SizeType": "ShipSizeType_L",
		"Rank": "RankType_T3",
		"SubRank": "SubRankType_S1",
		"DamageComposeList": [
			0.6000000238418579,
			0.4000000059604645
		],
		"DamageBasic": 6237,
		"Speed": 4000.0,
		"RangeMax": 28800.0,
		"ArmorBasic": 200,
		"PackedSize": 0.00443999981507659,
		"ObtainSourceList": [
			"ItemObtainSourceType_Special1",
			"ItemObtainSourceType_FreeSignal_Engineer",
			"ItemObtainSourceType_Production",
			"ItemObtainSourceType_Crack"
		]
	},
	{
		"ID": 155,
		"SalePrice": 0.0,
		"BindMoneyBuyPrice": 0.0,
		"SizeType": "ShipSizeType_L",
		"Rank": "RankType_T3",
		"SubRank": "SubRankType_S1",
		"DamageComposeList": [
			0.6000000238418579,
			0.4000000059604645
		],
		"DamageBasic": 7796,
		"Speed": 4000.0,
		"RangeMax": 28800.0,
		"ArmorBasic": 200,
		"PackedSize": 0.00443999981507659,
		"ObtainSourceList": [
			"ItemObtainSourceType_Special1",
			"ItemObtainSourceType_FreeSignal_Engineer",
			"ItemObtainSourceType_Production",
			"ItemObtainSourceType_Crack"
		]
	}
]