[
	{
		"ID": 1,
		"LevelUpExp": 330,
		"LevelTotalExp": 0,
		"NeedPlayerLevel": 2
	},
	{
		"ID": 2,
		"LevelUpExp": 430,
		"LevelTotalExp": 330,
		"NeedPlayerLevel": 4
	},
	{
		"ID": 3,
		"LevelUpExp": 550,
		"LevelTotalExp": 760,
		"NeedPlayerLevel": 6
	},
	{
		"ID": 4,
		"LevelUpExp": 750,
		"LevelTotalExp": 1310,
		"NeedPlayerLevel": 8
	},
	{
		"ID": 5,
		"LevelUpExp": 950,
		"LevelTotalExp": 2060,
		"NeedPlayerLevel": 10
	},
	{
		"ID": 6,
		"LevelUpExp": 1300,
		"LevelTotalExp": 3010,
		"NeedPlayerLevel": 12
	},
	{
		"ID": 7,
		"LevelUpExp": 1700,
		"LevelTotalExp": 4310,
		"NeedPlayerLevel": 14
	},
	{
		"ID": 8,
		"LevelUpExp": 2180,
		"LevelTotalExp": 6010,
		"NeedPlayerLevel": 16
	},
	{
		"ID": 9,
		"LevelUpExp": 2880,
		"LevelTotalExp": 8190,
		"NeedPlayerLevel": 18
	},
	{
		"ID": 10,
		"LevelUpExp": 3580,
		"LevelTotalExp": 11070,
		"NeedPlayerLevel": 20
	},
	{
		"ID": 11,
		"LevelUpExp": 4580,
		"LevelTotalExp": 14650,
		"NeedPlayerLevel": 22
	},
	{
		"ID": 12,
		"LevelUpExp": 5680,
		"LevelTotalExp": 19230,
		"NeedPlayerLevel": 24
	},
	{
		"ID": 13,
		"LevelUpExp": 6900,
		"LevelTotalExp": 24910,
		"NeedPlayerLevel": 26
	},
	{
		"ID": 14,
		"LevelUpExp": 8500,
		"LevelTotalExp": 31810,
		"NeedPlayerLevel": 28
	},
	{
		"ID": 15,
		"LevelUpExp": 10100,
		"LevelTotalExp": 40310,
		"NeedPlayerLevel": 30
	},
	{
		"ID": 16,
		"LevelUpExp": 12150,
		"LevelTotalExp": 50410,
		"NeedPlayerLevel": 32
	},
	{
		"ID": 17,
		"LevelUpExp": 14350,
		"LevelTotalExp": 62560,
		"NeedPlayerLevel": 34
	},
	{
		"ID": 18,
		"LevelUpExp": 16730,
		"LevelTotalExp": 76910,
		"NeedPlayerLevel": 36
	},
	{
		"ID": 19,
		"LevelUpExp": 19630,
		"LevelTotalExp": 93640,
		"NeedPlayerLevel": 38
	},
	{
		"ID": 20,
		"LevelUpExp": 22530,
		"LevelTotalExp": 113270,
		"NeedPlayerLevel": 40
	},
	{
		"ID": 21,
		"LevelUpExp": 26030,
		"LevelTotalExp": 135800,
		"NeedPlayerLevel": 42
	},
	{
		"ID": 22,
		"LevelUpExp": 29730,
		"LevelTotalExp": 161830,
		"NeedPlayerLevel": 44
	},
	{
		"ID": 23,
		"LevelUpExp": 33680,
		"LevelTotalExp": 191560,
		"NeedPlayerLevel": 46
	},
	{
		"ID": 24,
		"LevelUpExp": 38380,
		"LevelTotalExp": 225240,
		"NeedPlayerLevel": 48
	},
	{
		"ID": 25,
		"LevelUpExp": 0,
		"LevelTotalExp": 263620,
		"NeedPlayerLevel": 50
	},
	{
		"ID": 26,
		"LevelUpExp": 0,
		"LevelTotalExp": 263620,
		"NeedPlayerLevel": 50
	},
	{
		"ID": 27,
		"LevelUpExp": 0,
		"LevelTotalExp": 263620,
		"NeedPlayerLevel": 50
	},
	{
		"ID": 28,
		"LevelUpExp": 0,
		"LevelTotalExp": 263620,
		"NeedPlayerLevel": 50
	},
	{
		"ID": 29,
		"LevelUpExp": 0,
		"LevelTotalExp": 263620,
		"NeedPlayerLevel": 50
	},
	{
		"ID": 30,
		"LevelUpExp": 0,
		"LevelTotalExp": 263620,
		"NeedPlayerLevel": 50
	},
	{
		"ID": 31,
		"LevelUpExp": 0,
		"LevelTotalExp": 263620,
		"NeedPlayerLevel": 50
	},
	{
		"ID": 32,
		"LevelUpExp": 0,
		"LevelTotalExp": 263620,
		"NeedPlayerLevel": 50
	},
	{
		"ID": 33,
		"LevelUpExp": 0,
		"LevelTotalExp": 263620,
		"NeedPlayerLevel": 50
	},
	{
		"ID": 34,
		"LevelUpExp": 0,
		"LevelTotalExp": 263620,
		"NeedPlayerLevel": 50
	},
	{
		"ID": 35,
		"LevelUpExp": 0,
		"LevelTotalExp": 263620,
		"NeedPlayerLevel": 50
	},
	{
		"ID": 36,
		"LevelUpExp": 0,
		"LevelTotalExp": 263620,
		"NeedPlayerLevel": 50
	},
	{
		"ID": 37,
		"LevelUpExp": 0,
		"LevelTotalExp": 263620,
		"NeedPlayerLevel": 50
	},
	{
		"ID": 38,
		"LevelUpExp": 0,
		"LevelTotalExp": 263620,
		"NeedPlayerLevel": 50
	},
	{
		"ID": 39,
		"LevelUpExp": 0,
		"LevelTotalExp": 263620,
		"NeedPlayerLevel": 50
	},
	{
		"ID": 40,
		"LevelUpExp": 0,
		"LevelTotalExp": 263620,
		"NeedPlayerLevel": 50
	},
	{
		"ID": 41,
		"LevelUpExp": 0,
		"LevelTotalExp": 263620,
		"NeedPlayerLevel": 50
	},
	{
		"ID": 42,
		"LevelUpExp": 0,
		"LevelTotalExp": 263620,
		"NeedPlayerLevel": 50
	},
	{
		"ID": 43,
		"LevelUpExp": 0,
		"LevelTotalExp": 263620,
		"NeedPlayerLevel": 50
	},
	{
		"ID": 44,
		"LevelUpExp": 0,
		"LevelTotalExp": 263620,
		"NeedPlayerLevel": 50
	},
	{
		"ID": 45,
		"LevelUpExp": 0,
		"LevelTotalExp": 263620,
		"NeedPlayerLevel": 50
	},
	{
		"ID": 46,
		"LevelUpExp": 0,
		"LevelTotalExp": 263620,
		"NeedPlayerLevel": 50
	},
	{
		"ID": 47,
		"LevelUpExp": 0,
		"LevelTotalExp": 263620,
		"NeedPlayerLevel": 50
	},
	{
		"ID": 48,
		"LevelUpExp": 0,
		"LevelTotalExp": 263620,
		"NeedPlayerLevel": 50
	},
	{
		"ID": 49,
		"LevelUpExp": 0,
		"LevelTotalExp": 263620,
		"NeedPlayerLevel": 50
	},
	{
		"ID": 50,
		"LevelUpExp": 0,
		"LevelTotalExp": 263620,
		"NeedPlayerLevel": 50
	}
]