[
	{
		"ID": 111,
		"AdditionRewardList": [
			11100,
			11101,
			11102,
			11103,
			11104,
			11105,
			11106,
			11107,
			11108,
			11109,
			11110,
			11111,
			11112,
			11113,
			11114,
			11115,
			11116,
			11117,
			11118,
			11119,
			11120,
			11121,
			11122,
			11123,
			11124,
			11125,
			11126,
			11127,
			11128,
			11129,
			11130,
			11131,
			11132,
			11133,
			11134,
			11135,
			11136,
			11137,
			11138,
			11139,
			11140,
			11141,
			11142,
			11143,
			11144,
			11145,
			11146,
			11147,
			11148,
			11149,
			11150
		]
	},
	{
		"ID": 121,
		"AdditionRewardList": [
			12100,
			12101,
			12102,
			12103,
			12104,
			12105,
			12106,
			12107,
			12108,
			12109,
			12110,
			12111,
			12112,
			12113,
			12114,
			12115,
			12116,
			12117,
			12118,
			12119,
			12120,
			12121,
			12122,
			12123,
			12124,
			12125,
			12126,
			12127,
			12128,
			12129,
			12130,
			12131,
			12132,
			12133,
			12134,
			12135,
			12136,
			12137,
			12138,
			12139,
			12140,
			12141,
			12142,
			12143,
			12144,
			12145,
			12146,
			12147,
			12148,
			12149,
			12150
		]
	},
	{
		"ID": 131,
		"AdditionRewardList": [
			13100,
			13101,
			13102,
			13103,
			13104,
			13105,
			13106,
			13107,
			13108,
			13109,
			13110,
			13111,
			13112,
			13113,
			13114,
			13115,
			13116,
			13117,
			13118,
			13119,
			13120,
			13121,
			13122,
			13123,
			13124,
			13125,
			13126,
			13127,
			13128,
			13129,
			13130,
			13131,
			13132,
			13133,
			13134,
			13135,
			13136,
			13137,
			13138,
			13139,
			13140,
			13141,
			13142,
			13143,
			13144,
			13145,
			13146,
			13147,
			13148,
			13149,
			13150
		]
	},
	{
		"ID": 141,
		"AdditionRewardList": [
			14100,
			14101,
			14102,
			14103,
			14104,
			14105,
			14106,
			14107,
			14108,
			14109,
			14110,
			14111,
			14112,
			14113,
			14114,
			14115,
			14116,
			14117,
			14118,
			14119,
			14120,
			14121,
			14122,
			14123,
			14124,
			14125,
			14126,
			14127,
			14128,
			14129,
			14130,
			14131,
			14132,
			14133,
			14134,
			14135,
			14136,
			14137,
			14138,
			14139,
			14140,
			14141,
			14142,
			14143,
			14144,
			14145,
			14146,
			14147,
			14148,
			14149,
			14150
		]
	},
	{
		"ID": 151,
		"AdditionRewardList": [
			15100,
			15101,
			15102,
			15103,
			15104,
			15105,
			15106,
			15107,
			15108,
			15109,
			15110,
			15111,
			15112,
			15113,
			15114,
			15115,
			15116,
			15117,
			15118,
			15119,
			15120,
			15121,
			15122,
			15123,
			15124,
			15125,
			15126,
			15127,
			15128,
			15129,
			15130,
			15131,
			15132,
			15133,
			15134,
			15135,
			15136,
			15137,
			15138,
			15139,
			15140,
			15141,
			15142,
			15143,
			15144,
			15145,
			15146,
			15147,
			15148,
			15149,
			15150
		]
	},
	{
		"ID": 112,
		"AdditionRewardList": [
			11200,
			11201,
			11202,
			11203,
			11204,
			11205,
			11206,
			11207,
			11208,
			11209,
			11210,
			11211,
			11212,
			11213,
			11214,
			11215,
			11216,
			11217,
			11218,
			11219,
			11220,
			11221,
			11222,
			11223,
			11224,
			11225,
			11226,
			11227,
			11228,
			11229,
			11230,
			11231,
			11232,
			11233,
			11234,
			11235,
			11236,
			11237,
			11238,
			11239,
			11240,
			11241,
			11242,
			11243,
			11244,
			11245,
			11246,
			11247,
			11248,
			11249,
			11250
		]
	},
	{
		"ID": 122,
		"AdditionRewardList": [
			12200,
			12201,
			12202,
			12203,
			12204,
			12205,
			12206,
			12207,
			12208,
			12209,
			12210,
			12211,
			12212,
			12213,
			12214,
			12215,
			12216,
			12217,
			12218,
			12219,
			12220,
			12221,
			12222,
			12223,
			12224,
			12225,
			12226,
			12227,
			12228,
			12229,
			12230,
			12231,
			12232,
			12233,
			12234,
			12235,
			12236,
			12237,
			12238,
			12239,
			12240,
			12241,
			12242,
			12243,
			12244,
			12245,
			12246,
			12247,
			12248,
			12249,
			12250
		]
	},
	{
		"ID": 132,
		"AdditionRewardList": [
			13200,
			13201,
			13202,
			13203,
			13204,
			13205,
			13206,
			13207,
			13208,
			13209,
			13210,
			13211,
			13212,
			13213,
			13214,
			13215,
			13216,
			13217,
			13218,
			13219,
			13220,
			13221,
			13222,
			13223,
			13224,
			13225,
			13226,
			13227,
			13228,
			13229,
			13230,
			13231,
			13232,
			13233,
			13234,
			13235,
			13236,
			13237,
			13238,
			13239,
			13240,
			13241,
			13242,
			13243,
			13244,
			13245,
			13246,
			13247,
			13248,
			13249,
			13250
		]
	},
	{
		"ID": 142,
		"AdditionRewardList": [
			14200,
			14201,
			14202,
			14203,
			14204,
			14205,
			14206,
			14207,
			14208,
			14209,
			14210,
			14211,
			14212,
			14213,
			14214,
			14215,
			14216,
			14217,
			14218,
			14219,
			14220,
			14221,
			14222,
			14223,
			14224,
			14225,
			14226,
			14227,
			14228,
			14229,
			14230,
			14231,
			14232,
			14233,
			14234,
			14235,
			14236,
			14237,
			14238,
			14239,
			14240,
			14241,
			14242,
			14243,
			14244,
			14245,
			14246,
			14247,
			14248,
			14249,
			14250
		]
	},
	{
		"ID": 152,
		"AdditionRewardList": [
			15200,
			15201,
			15202,
			15203,
			15204,
			15205,
			15206,
			15207,
			15208,
			15209,
			15210,
			15211,
			15212,
			15213,
			15214,
			15215,
			15216,
			15217,
			15218,
			15219,
			15220,
			15221,
			15222,
			15223,
			15224,
			15225,
			15226,
			15227,
			15228,
			15229,
			15230,
			15231,
			15232,
			15233,
			15234,
			15235,
			15236,
			15237,
			15238,
			15239,
			15240,
			15241,
			15242,
			15243,
			15244,
			15245,
			15246,
			15247,
			15248,
			15249,
			15250
		]
	},
	{
		"ID": 601,
		"AdditionRewardList": [
			60000,
			60001,
			60002,
			60003,
			60004,
			60005,
			60006,
			60007,
			60008,
			60009,
			60010,
			60011,
			60012,
			60013,
			60014,
			60015,
			60016,
			60017,
			60018,
			60019,
			60020,
			60021,
			60022,
			60023,
			60024,
			60025,
			60026,
			60027,
			60028,
			60029,
			60030,
			60031,
			60032,
			60033,
			60034,
			60035,
			60036,
			60037,
			60038,
			60039,
			60040,
			60041,
			60042,
			60043,
			60044,
			60045,
			60046,
			60047,
			60048,
			60049,
			60050
		]
	},
	{
		"ID": 501,
		"AdditionRewardList": [
			501
		]
	},
	{
		"ID": 502,
		"AdditionRewardList": [
			502
		]
	},
	{
		"ID": 503,
		"AdditionRewardList": [
			503
		]
	},
	{
		"ID": 504,
		"AdditionRewardList": [
			504
		]
	},
	{
		"ID": 505,
		"AdditionRewardList": [
			505
		]
	},
	{
		"ID": 506,
		"AdditionRewardList": [
			506
		]
	},
	{
		"ID": 507,
		"AdditionRewardList": [
			507
		]
	},
	{
		"ID": 508,
		"AdditionRewardList": [
			508
		]
	},
	{
		"ID": 10102,
		"AdditionRewardList": [
			10102
		]
	},
	{
		"ID": 10101,
		"AdditionRewardList": [
			10101
		]
	},
	{
		"ID": 10201,
		"AdditionRewardList": [
			10201
		]
	},
	{
		"ID": 10301,
		"AdditionRewardList": [
			10301
		]
	},
	{
		"ID": 20102,
		"AdditionRewardList": [
			20102
		]
	},
	{
		"ID": 20101,
		"AdditionRewardList": [
			20101
		]
	},
	{
		"ID": 20201,
		"AdditionRewardList": [
			20201
		]
	},
	{
		"ID": 20301,
		"AdditionRewardList": [
			20301
		]
	},
	{
		"ID": 30102,
		"AdditionRewardList": [
			30102
		]
	},
	{
		"ID": 30101,
		"AdditionRewardList": [
			30101
		]
	},
	{
		"ID": 30201,
		"AdditionRewardList": [
			30201
		]
	},
	{
		"ID": 30301,
		"AdditionRewardList": [
			30301
		]
	},
	{
		"ID": 40102,
		"AdditionRewardList": [
			40102
		]
	},
	{
		"ID": 40101,
		"AdditionRewardList": [
			40101
		]
	},
	{
		"ID": 40201,
		"AdditionRewardList": [
			40201
		]
	},
	{
		"ID": 40301,
		"AdditionRewardList": [
			40301
		]
	},
	{
		"ID": 50102,
		"AdditionRewardList": [
			50102
		]
	},
	{
		"ID": 50101,
		"AdditionRewardList": [
			50101
		]
	},
	{
		"ID": 50201,
		"AdditionRewardList": [
			50201
		]
	},
	{
		"ID": 50301,
		"AdditionRewardList": [
			50301
		]
	}
]