[
	{
		"ID": 1,
		"ShipType": "ShipType_Frigate",
		"RationalWeaponSize": "ShipSizeType_S",
		"RationalEquipTypeList": [
			{
				"Category": "EquipCategory_SelfRecover",
				"Type": "EquipType_ShieldRepairer"
			},
			{
				"Category": "EquipCategory_SelfRecover",
				"Type": "EquipType_ExtraEnergyPackage"
			},
			{
				"Category": "EquipCategory_SelfEnhancer",
				"Type": "EquipType_Booster"
			},
			{
				"Category": "EquipCategory_RemoteRecover",
				"Type": "EquipType_RemoteEnergyRepairer"
			},
			{
				"Category": "EquipCategory_RemoteRecover",
				"Type": "EquipType_RemoteShieldRepairer"
			},
			{
				"Category": "EquipCategory_RangeRecover",
				"Type": "EquipType_RemoteEnergyRepairer"
			},
			{
				"Category": "EquipCategory_RangeRecover",
				"Type": "EquipType_RemoteShieldRepairer"
			},
			{
				"Category": "EquipCategory_TacticalEquipment"
			},
			{},
			{}
		],
		"RationalEquipSizeList": [
			"ShipSizeType_S"
		],
		"WeaponStrKey": "ST:127776",
		"EquipStrKey": "ST:127781"
	},
	{
		"ID": 2,
		"ShipType": "ShipType_Destroyer",
		"RationalWeaponSize": "ShipSizeType_S",
		"RationalEquipTypeList": [
			{
				"Category": "EquipCategory_SelfRecover",
				"Type": "EquipType_ShieldRepairer"
			},
			{
				"Category": "EquipCategory_SelfRecover",
				"Type": "EquipType_ExtraEnergyPackage"
			},
			{
				"Category": "EquipCategory_SelfEnhancer",
				"Type": "EquipType_Booster"
			},
			{
				"Category": "EquipCategory_RemoteRecover",
				"Type": "EquipType_RemoteEnergyRepairer"
			},
			{
				"Category": "EquipCategory_RemoteRecover",
				"Type": "EquipType_RemoteShieldRepairer"
			},
			{
				"Category": "EquipCategory_RangeRecover",
				"Type": "EquipType_RemoteEnergyRepairer"
			},
			{
				"Category": "EquipCategory_RangeRecover",
				"Type": "EquipType_RemoteShieldRepairer"
			},
			{
				"Category": "EquipCategory_TacticalEquipment"
			},
			{},
			{}
		],
		"RationalEquipSizeList": [
			"ShipSizeType_S"
		],
		"WeaponStrKey": "ST:127777",
		"EquipStrKey": "ST:127782"
	},
	{
		"ID": 3,
		"ShipType": "ShipType_Cruiser",
		"RationalWeaponSize": "ShipSizeType_M",
		"RationalEquipTypeList": [
			{
				"Category": "EquipCategory_SelfRecover",
				"Type": "EquipType_ShieldRepairer"
			},
			{
				"Category": "EquipCategory_SelfRecover",
				"Type": "EquipType_ExtraEnergyPackage"
			},
			{
				"Category": "EquipCategory_SelfEnhancer",
				"Type": "EquipType_Booster"
			},
			{
				"Category": "EquipCategory_RemoteRecover",
				"Type": "EquipType_RemoteEnergyRepairer"
			},
			{
				"Category": "EquipCategory_RemoteRecover",
				"Type": "EquipType_RemoteShieldRepairer"
			},
			{
				"Category": "EquipCategory_RangeRecover",
				"Type": "EquipType_RemoteEnergyRepairer"
			},
			{
				"Category": "EquipCategory_RangeRecover",
				"Type": "EquipType_RemoteShieldRepairer"
			},
			{
				"Category": "EquipCategory_TacticalEquipment"
			},
			{},
			{}
		],
		"RationalEquipSizeList": [
			"ShipSizeType_M"
		],
		"WeaponStrKey": "ST:127778",
		"EquipStrKey": "ST:127783"
	},
	{
		"ID": 4,
		"ShipType": "ShipType_BattleCruiser",
		"RationalWeaponSize": "ShipSizeType_L",
		"RationalEquipTypeList": [
			{
				"Category": "EquipCategory_SelfRecover",
				"Type": "EquipType_ShieldRepairer"
			},
			{
				"Category": "EquipCategory_SelfRecover",
				"Type": "EquipType_ExtraEnergyPackage"
			},
			{
				"Category": "EquipCategory_SelfEnhancer",
				"Type": "EquipType_Booster"
			},
			{
				"Category": "EquipCategory_RemoteRecover",
				"Type": "EquipType_RemoteEnergyRepairer"
			},
			{
				"Category": "EquipCategory_RemoteRecover",
				"Type": "EquipType_RemoteShieldRepairer"
			},
			{
				"Category": "EquipCategory_RangeRecover",
				"Type": "EquipType_RemoteEnergyRepairer"
			},
			{
				"Category": "EquipCategory_RangeRecover",
				"Type": "EquipType_RemoteShieldRepairer"
			},
			{
				"Category": "EquipCategory_TacticalEquipment"
			},
			{},
			{}
		],
		"RationalEquipSizeList": [
			"ShipSizeType_M",
			"ShipSizeType_L"
		],
		"WeaponStrKey": "ST:127779",
		"EquipStrKey": "ST:127784"
	},
	{
		"ID": 5,
		"ShipType": "ShipType_BattleShip",
		"RationalWeaponSize": "ShipSizeType_L",
		"RationalEquipTypeList": [
			{
				"Category": "EquipCategory_SelfRecover",
				"Type": "EquipType_ShieldRepairer"
			},
			{
				"Category": "EquipCategory_SelfRecover",
				"Type": "EquipType_ExtraEnergyPackage"
			},
			{
				"Category": "EquipCategory_SelfEnhancer",
				"Type": "EquipType_Booster"
			},
			{
				"Category": "EquipCategory_RemoteRecover",
				"Type": "EquipType_RemoteEnergyRepairer"
			},
			{
				"Category": "EquipCategory_RemoteRecover",
				"Type": "EquipType_RemoteShieldRepairer"
			},
			{
				"Category": "EquipCategory_RangeRecover",
				"Type": "EquipType_RemoteEnergyRepairer"
			},
			{
				"Category": "EquipCategory_RangeRecover",
				"Type": "EquipType_RemoteShieldRepairer"
			},
			{
				"Category": "EquipCategory_TacticalEquipment"
			},
			{},
			{}
		],
		"RationalEquipSizeList": [
			"ShipSizeType_L"
		],
		"WeaponStrKey": "ST:127780",
		"EquipStrKey": "ST:127785"
	}
]