[
	{
		"ID": 1,
		"EnergyPercent": 0.0,
		"EnergyModifyParam": 0.6000000238418579
	},
	{
		"ID": 2,
		"EnergyPercent": 5.0,
		"EnergyModifyParam": 3.5999999046325684
	},
	{
		"ID": 3,
		"EnergyPercent": 40.0,
		"EnergyModifyParam": 3.0
	},
	{
		"ID": 4,
		"EnergyPercent": 75.0,
		"EnergyModifyParam": 1.7999999523162842
	},
	{
		"ID": 5,
		"EnergyPercent": 95.0,
		"EnergyModifyParam": 0.6000000238418579
	}
]