[
	{
		"ID": 20,
		"GuildMinrealList": [
			95,
			96,
			97,
			98
		],
		"GuildMinrealTypeCount": 2,
		"ShowColor": "#FF0000FF"
	},
	{
		"ID": 19,
		"GuildMinrealList": [
			95,
			96,
			97,
			99
		],
		"GuildMinrealTypeCount": 2,
		"ShowColor": "#FF0000FF"
	},
	{
		"ID": 18,
		"GuildMinrealList": [
			95,
			96,
			97,
			100
		],
		"GuildMinrealTypeCount": 2,
		"ShowColor": "#FF0000FF"
	},
	{
		"ID": 17,
		"GuildMinrealList": [
			95,
			96,
			97,
			101
		],
		"GuildMinrealTypeCount": 2,
		"ShowColor": "#FF0000FF"
	},
	{
		"ID": 16,
		"GuildMinrealList": [
			95,
			96,
			97,
			102
		],
		"GuildMinrealTypeCount": 2,
		"ShowColor": "#FF0000FF"
	},
	{
		"ID": 15,
		"GuildMinrealList": [
			95,
			96,
			97,
			103
		],
		"GuildMinrealTypeCount": 2,
		"ShowColor": "#FF0000FF"
	},
	{
		"ID": 14,
		"GuildMinrealList": [
			95,
			96,
			97,
			104
		],
		"GuildMinrealTypeCount": 2,
		"ShowColor": "#FF0000FF"
	},
	{
		"ID": 13,
		"GuildMinrealList": [
			95,
			96,
			97,
			105
		],
		"GuildMinrealTypeCount": 2,
		"ShowColor": "#FF0000FF"
	},
	{
		"ID": 12,
		"GuildMinrealList": [
			95,
			96,
			97,
			106
		],
		"GuildMinrealTypeCount": 2,
		"ShowColor": "#FF6800FF"
	},
	{
		"ID": 11,
		"GuildMinrealList": [
			91,
			92,
			93,
			94
		],
		"GuildMinrealTypeCount": 2,
		"ShowColor": "#F100FFFF"
	},
	{
		"ID": 10,
		"GuildMinrealList": [
			88,
			89,
			90
		],
		"GuildMinrealTypeCount": 2,
		"ShowColor": "#0098FFFF"
	},
	{
		"ID": 9,
		"GuildMinrealList": [
			85,
			86,
			87
		],
		"GuildMinrealTypeCount": 2,
		"ShowColor": "#1EFF00FF"
	},
	{
		"ID": 8,
		"GuildMinrealList": [
			84
		],
		"GuildMinrealTypeCount": 1,
		"ShowColor": "#A9A9A9FF"
	},
	{
		"ID": 7,
		"GuildMinrealList": [
			84
		],
		"GuildMinrealTypeCount": 1,
		"ShowColor": "#A9A9A9FF"
	},
	{
		"ID": 6,
		"GuildMinrealList": [
			84
		],
		"GuildMinrealTypeCount": 1,
		"ShowColor": "#525252FF"
	},
	{
		"ID": 5,
		"GuildMinrealList": [
			84
		],
		"GuildMinrealTypeCount": 1,
		"ShowColor": "#525252FF"
	},
	{
		"ID": 4,
		"GuildMinrealList": [
			84
		],
		"GuildMinrealTypeCount": 1,
		"ShowColor": "#525252FF"
	},
	{
		"ID": 3,
		"GuildMinrealList": [
			84
		],
		"GuildMinrealTypeCount": 1,
		"ShowColor": "#525252FF"
	},
	{
		"ID": 2,
		"GuildMinrealList": [
			84
		],
		"GuildMinrealTypeCount": 1,
		"ShowColor": "#525252FF"
	},
	{
		"ID": 1,
		"GuildMinrealList": [
			84
		],
		"GuildMinrealTypeCount": 1,
		"ShowColor": "#525252FF"
	},
	{
		"ID": 0,
		"GuildMinrealList": [
			84
		],
		"GuildMinrealTypeCount": 1,
		"ShowColor": "#525252FF"
	}
]