[
	{
		"ID": 1,
		"CueName": "Speech_NEF_M_Irritable_Greeting"
	},
	{
		"ID": 2,
		"CueName": "Speech_NEF_M_Irritable_Farewell"
	},
	{
		"ID": 3,
		"CueName": "Speech_NEF_M_Open_Greeting"
	},
	{
		"ID": 4,
		"CueName": "Speech_NEF_M_Open_Farewell"
	},
	{
		"ID": 5,
		"CueName": "Speech_NEF_M_Arrogant_Greeting"
	},
	{
		"ID": 6,
		"CueName": "Speech_NEF_M_Arrogant_Farewell"
	},
	{
		"ID": 7,
		"CueName": "Speech_NEF_M_Modest_Greeting"
	},
	{
		"ID": 8,
		"CueName": "Speech_NEF_M_Modest_Farewell"
	},
	{
		"ID": 9,
		"CueName": "Speech_NEF_F_Irritable_Greeting"
	},
	{
		"ID": 10,
		"CueName": "Speech_NEF_F_Irritable_Farewell"
	},
	{
		"ID": 11,
		"CueName": "Speech_NEF_F_Open_Greeting"
	},
	{
		"ID": 12,
		"CueName": "Speech_NEF_F_Open_Farewell"
	},
	{
		"ID": 13,
		"CueName": "Speech_NEF_F_Arrogant_Greeting"
	},
	{
		"ID": 14,
		"CueName": "Speech_NEF_F_Arrogant_Farewell"
	},
	{
		"ID": 15,
		"CueName": "Speech_NEF_F_Modest_Greeting"
	},
	{
		"ID": 16,
		"CueName": "Speech_NEF_F_Modest_Farewell"
	},
	{
		"ID": 17,
		"CueName": "Speech_ECD_M_Irritable_Greeting"
	},
	{
		"ID": 18,
		"CueName": "Speech_ECD_M_Irritable_Farewell"
	},
	{
		"ID": 19,
		"CueName": "Speech_ECD_M_Open_Greeting"
	},
	{
		"ID": 20,
		"CueName": "Speech_ECD_M_Open_Farewell"
	},
	{
		"ID": 21,
		"CueName": "Speech_ECD_M_Arrogant_Greeting"
	},
	{
		"ID": 22,
		"CueName": "Speech_ECD_M_Arrogant_Farewell"
	},
	{
		"ID": 23,
		"CueName": "Speech_ECD_M_Modest_Greeting"
	},
	{
		"ID": 24,
		"CueName": "Speech_ECD_M_Modest_Farewell"
	},
	{
		"ID": 25,
		"CueName": "Speech_ECD_F_Irritable_Greeting"
	},
	{
		"ID": 26,
		"CueName": "Speech_ECD_F_Irritable_Farewell"
	},
	{
		"ID": 27,
		"CueName": "Speech_ECD_F_Open_Greeting"
	},
	{
		"ID": 28,
		"CueName": "Speech_ECD_F_Open_Farewell"
	},
	{
		"ID": 29,
		"CueName": "Speech_ECD_F_Arrogant_Greeting"
	},
	{
		"ID": 30,
		"CueName": "Speech_ECD_F_Arrogant_Farewell"
	},
	{
		"ID": 31,
		"CueName": "Speech_ECD_F_Modest_Greeting"
	},
	{
		"ID": 32,
		"CueName": "Speech_ECD_F_Modest_Farewell"
	},
	{
		"ID": 33,
		"CueName": "Speech_RE_M_Irritable_Greeting"
	},
	{
		"ID": 34,
		"CueName": "Speech_RE_M_Irritable_Farewell"
	},
	{
		"ID": 35,
		"CueName": "Speech_RE_M_Open_Greeting"
	},
	{
		"ID": 36,
		"CueName": "Speech_RE_M_Open_Farewell"
	},
	{
		"ID": 37,
		"CueName": "Speech_RE_M_Arrogant_Greeting"
	},
	{
		"ID": 38,
		"CueName": "Speech_RE_M_Arrogant_Farewell"
	},
	{
		"ID": 39,
		"CueName": "Speech_RE_M_Modest_Greeting"
	},
	{
		"ID": 40,
		"CueName": "Speech_RE_M_Modest_Farewell"
	},
	{
		"ID": 41,
		"CueName": "Speech_RE_F_Irritable_Greeting"
	},
	{
		"ID": 42,
		"CueName": "Speech_RE_F_Irritable_Farewell"
	},
	{
		"ID": 43,
		"CueName": "Speech_RE_F_Open_Greeting"
	},
	{
		"ID": 44,
		"CueName": "Speech_RE_F_Open_Farewell"
	},
	{
		"ID": 45,
		"CueName": "Speech_RE_F_Arrogant_Greeting"
	},
	{
		"ID": 46,
		"CueName": "Speech_RE_F_Arrogant_Farewell"
	},
	{
		"ID": 47,
		"CueName": "Speech_RE_F_Modest_Greeting"
	},
	{
		"ID": 48,
		"CueName": "Speech_RE_F_Modest_Farewell"
	},
	{
		"ID": 49,
		"CueName": "Speech_RS_M_Irritable_Greeting"
	},
	{
		"ID": 50,
		"CueName": "Speech_RS_M_Irritable_Farewell"
	},
	{
		"ID": 51,
		"CueName": "Speech_RS_M_Open_Greeting"
	},
	{
		"ID": 52,
		"CueName": "Speech_RS_M_Open_Farewell"
	},
	{
		"ID": 53,
		"CueName": "Speech_RS_M_Arrogant_Greeting"
	},
	{
		"ID": 54,
		"CueName": "Speech_RS_M_Arrogant_Farewell"
	},
	{
		"ID": 55,
		"CueName": "Speech_RS_M_Modest_Greeting"
	},
	{
		"ID": 56,
		"CueName": "Speech_RS_M_Modest_Farewell"
	},
	{
		"ID": 57,
		"CueName": "Speech_RS_F_Irritable_Greeting"
	},
	{
		"ID": 58,
		"CueName": "Speech_RS_F_Irritable_Farewell"
	},
	{
		"ID": 59,
		"CueName": "Speech_RS_F_Open_Greeting"
	},
	{
		"ID": 60,
		"CueName": "Speech_RS_F_Open_Farewell"
	},
	{
		"ID": 61,
		"CueName": "Speech_RS_F_Arrogant_Greeting"
	},
	{
		"ID": 62,
		"CueName": "Speech_RS_F_Arrogant_Farewell"
	},
	{
		"ID": 63,
		"CueName": "Speech_RS_F_Modest_Greeting"
	},
	{
		"ID": 64,
		"CueName": "Speech_RS_F_Modest_Farewell"
	},
	{
		"ID": 65,
		"CueName": "Speech_Criminal_F_Farewell"
	},
	{
		"ID": 66,
		"CueName": "Speech_Criminal_F_Greeting"
	},
	{
		"ID": 67,
		"CueName": "Speech_Criminal_M_Farewell"
	},
	{
		"ID": 68,
		"CueName": "Speech_Criminal_M_Greeting"
	},
	{
		"ID": 69,
		"CueName": "Speech_Katerina_Farewell1"
	},
	{
		"ID": 70,
		"CueName": "Speech_Katerina_Greeting1"
	},
	{
		"ID": 71,
		"CueName": "Speech_BlackMarketeer_Farewell"
	},
	{
		"ID": 72,
		"CueName": "Speech_BlackMarketeer_Greeting"
	},
	{
		"ID": 73,
		"CueName": "Speech_ECD_F_Serious_Farewell"
	},
	{
		"ID": 74,
		"CueName": "Speech_ECD_F_Serious_Greeting"
	},
	{
		"ID": 75,
		"CueName": "Speech_ECD_M_Serious_Farewell"
	},
	{
		"ID": 76,
		"CueName": "Speech_ECD_M_Serious_Greeting"
	},
	{
		"ID": 77,
		"CueName": "Speech_NEF_F_Serious_Farewell"
	},
	{
		"ID": 78,
		"CueName": "Speech_NEF_F_Serious_Greeting"
	},
	{
		"ID": 79,
		"CueName": "Speech_NEF_M_Serious_Farewell"
	},
	{
		"ID": 80,
		"CueName": "Speech_NEF_M_Serious_Greeting"
	},
	{
		"ID": 81,
		"CueName": "Speech_RE_F_Serious_Farewell"
	},
	{
		"ID": 82,
		"CueName": "Speech_RE_F_Serious_Greeting"
	},
	{
		"ID": 83,
		"CueName": "Speech_RE_M_Serious_Farewell"
	},
	{
		"ID": 84,
		"CueName": "Speech_RE_M_Serious_Greeting"
	},
	{
		"ID": 85,
		"CueName": "Speech_RS_F_Serious_Farewell"
	},
	{
		"ID": 86,
		"CueName": "Speech_RS_F_Serious_Greeting"
	},
	{
		"ID": 87,
		"CueName": "Speech_RS_M_Serious_Farewell"
	},
	{
		"ID": 88,
		"CueName": "Speech_RS_M_Serious_Greeting"
	},
	{
		"ID": 89,
		"CueName": "Speech_USS_F_Arrogant_Farewell"
	},
	{
		"ID": 90,
		"CueName": "Speech_USS_F_Arrogant_Greeting"
	},
	{
		"ID": 91,
		"CueName": "Speech_USS_F_Irritable_Farewell"
	},
	{
		"ID": 92,
		"CueName": "Speech_USS_F_Irritable_Greeting"
	},
	{
		"ID": 93,
		"CueName": "Speech_USS_F_Modest_Farewell"
	},
	{
		"ID": 94,
		"CueName": "Speech_USS_F_Modest_Greeting"
	},
	{
		"ID": 95,
		"CueName": "Speech_USS_F_Open_Farewell"
	},
	{
		"ID": 96,
		"CueName": "Speech_USS_F_Open_Greeting"
	},
	{
		"ID": 97,
		"CueName": "Speech_USS_F_Serious_Farewell"
	},
	{
		"ID": 98,
		"CueName": "Speech_USS_F_Serious_Greeting"
	},
	{
		"ID": 99,
		"CueName": "Speech_USS_M_Arrogant_Farewell"
	},
	{
		"ID": 100,
		"CueName": "Speech_USS_M_Arrogant_Greeting"
	},
	{
		"ID": 101,
		"CueName": "Speech_USS_M_Irritable_Farewell"
	},
	{
		"ID": 102,
		"CueName": "Speech_USS_M_Irritable_Greeting"
	},
	{
		"ID": 103,
		"CueName": "Speech_USS_M_Modest_Farewell"
	},
	{
		"ID": 104,
		"CueName": "Speech_USS_M_Modest_Greeting"
	},
	{
		"ID": 105,
		"CueName": "Speech_USS_M_Open_Farewell"
	},
	{
		"ID": 106,
		"CueName": "Speech_USS_M_Open_Greeting"
	},
	{
		"ID": 107,
		"CueName": "Speech_USS_M_Serious_Farewell"
	},
	{
		"ID": 108,
		"CueName": "Speech_USS_M_Serious_Greeting"
	},
	{
		"ID": 109,
		"CueName": "Speech_Lisa_Farewell"
	},
	{
		"ID": 110,
		"CueName": "Speech_Lisa_Greeting"
	},
	{
		"ID": 111,
		"CueName": "Speech_Senator_Farewell"
	},
	{
		"ID": 112,
		"CueName": "Speech_Senator_Greeting"
	},
	{
		"ID": 113,
		"CueName": "Speech_Sergeant_Farewell"
	},
	{
		"ID": 114,
		"CueName": "Speech_Sergeant_Greeting"
	},
	{
		"ID": 115,
		"CueName": "Speech_veteran_Farewell1"
	},
	{
		"ID": 116,
		"CueName": "Speech_veteran_Farewell2"
	},
	{
		"ID": 117,
		"CueName": "Speech_veteran_Farewell3"
	},
	{
		"ID": 118,
		"CueName": "Speech_veteran_Farewell4"
	},
	{
		"ID": 119,
		"CueName": "Speech_veteran_Farewell5"
	},
	{
		"ID": 120,
		"CueName": "Speech_veteran_Greeting1"
	},
	{
		"ID": 121,
		"CueName": "Speech_veteran_Greeting2"
	},
	{
		"ID": 122,
		"CueName": "Speech_veteran_Greeting3"
	},
	{
		"ID": 123,
		"CueName": "Speech_veteran_Greeting4"
	},
	{
		"ID": 124,
		"CueName": "Speech_veteran_Greeting5"
	},
	{
		"ID": 125,
		"CueName": "Speech_Adventurer_Farewell"
	},
	{
		"ID": 126,
		"CueName": "Speech_Adventurer_Greeting"
	},
	{
		"ID": 127,
		"CueName": "Speech_Businessman_F_Farewell"
	},
	{
		"ID": 128,
		"CueName": "Speech_Businessman_F_Greeting"
	},
	{
		"ID": 129,
		"CueName": "Speech_Businessman_M_Farewell"
	},
	{
		"ID": 130,
		"CueName": "Speech_Businessman_M_Greeting"
	},
	{
		"ID": 131,
		"CueName": "Speech_Children_F_Farewell"
	},
	{
		"ID": 132,
		"CueName": "Speech_Children_F_Greeting"
	},
	{
		"ID": 133,
		"CueName": "Speech_Children_M_Farewell"
	},
	{
		"ID": 134,
		"CueName": "Speech_Children_M_Greeting"
	},
	{
		"ID": 135,
		"CueName": "Speech_CouncilOfficial_F_Farewell"
	},
	{
		"ID": 136,
		"CueName": "Speech_CouncilOfficial_F_Greeting"
	},
	{
		"ID": 137,
		"CueName": "Speech_CouncilOfficial_M_Farewell"
	},
	{
		"ID": 138,
		"CueName": "Speech_CouncilOfficial_M_Greeting"
	},
	{
		"ID": 139,
		"CueName": "Speech_CouncilSoldiers_F_Farewell"
	},
	{
		"ID": 140,
		"CueName": "Speech_CouncilSoldiers_F_Greeting"
	},
	{
		"ID": 141,
		"CueName": "Speech_CouncilSoldiers_M_Farewell"
	},
	{
		"ID": 142,
		"CueName": "Speech_CouncilSoldiers_M_Greeting"
	},
	{
		"ID": 143,
		"CueName": "Speech_Criminal_F_Farewell"
	},
	{
		"ID": 144,
		"CueName": "Speech_Criminal_F_Greeting"
	},
	{
		"ID": 145,
		"CueName": "Speech_Criminal_M_Farewell"
	},
	{
		"ID": 146,
		"CueName": "Speech_Criminal_M_Greeting"
	},
	{
		"ID": 147,
		"CueName": "Speech_Elderly_F_Farewell"
	},
	{
		"ID": 148,
		"CueName": "Speech_Elderly_F_Greeting"
	},
	{
		"ID": 149,
		"CueName": "Speech_Elderly_M_Farewell"
	},
	{
		"ID": 150,
		"CueName": "Speech_Elderly_M_Greeting"
	},
	{
		"ID": 151,
		"CueName": "Speech_Hacker_F_Farewell"
	},
	{
		"ID": 152,
		"CueName": "Speech_Hacker_F_Greeting"
	},
	{
		"ID": 153,
		"CueName": "Speech_Hacker_M_Farewell"
	},
	{
		"ID": 154,
		"CueName": "Speech_Hacker_M_Greeting"
	},
	{
		"ID": 155,
		"CueName": "Speech_International_F_Farewell"
	},
	{
		"ID": 156,
		"CueName": "Speech_International_F_Greeting"
	},
	{
		"ID": 157,
		"CueName": "Speech_International_M_Farewell"
	},
	{
		"ID": 158,
		"CueName": "Speech_International_M_Greeting"
	},
	{
		"ID": 159,
		"CueName": "Speech_Liam_Farewell"
	},
	{
		"ID": 160,
		"CueName": "Speech_Liam_Greeting"
	},
	{
		"ID": 161,
		"CueName": "Speech_LiberalArmy_F_Farewell"
	},
	{
		"ID": 162,
		"CueName": "Speech_LiberalArmy_F_Greeting"
	},
	{
		"ID": 163,
		"CueName": "Speech_LiberalArmy_M_Farewell"
	},
	{
		"ID": 164,
		"CueName": "Speech_LiberalArmy_M_Greeting"
	},
	{
		"ID": 165,
		"CueName": "Speech_Mercenary_Farewell"
	},
	{
		"ID": 166,
		"CueName": "Speech_Mercenary_Greeting"
	},
	{
		"ID": 167,
		"CueName": "Speech_Mike_Farewell"
	},
	{
		"ID": 168,
		"CueName": "Speech_Mike_Greeting"
	},
	{
		"ID": 169,
		"CueName": "Speech_Puber_F_Farewell"
	},
	{
		"ID": 170,
		"CueName": "Speech_Puber_F_Greeting"
	},
	{
		"ID": 171,
		"CueName": "Speech_Puber_M_Farewell"
	},
	{
		"ID": 172,
		"CueName": "Speech_Puber_M_Greeting"
	},
	{
		"ID": 173,
		"CueName": "Speech_SecurityForces_Farewell"
	},
	{
		"ID": 174,
		"CueName": "Speech_SecurityForces_Greeting"
	},
	{
		"ID": 175,
		"CueName": "Speech_SubwayClient_Farewell"
	},
	{
		"ID": 176,
		"CueName": "Speech_SubwayClient_Greeting"
	},
	{
		"ID": 177,
		"CueName": "Speech_Technician_F_Farewell"
	},
	{
		"ID": 178,
		"CueName": "Speech_Technician_F_Greeting"
	},
	{
		"ID": 179,
		"CueName": "Speech_Technician_M_Farewell"
	},
	{
		"ID": 180,
		"CueName": "Speech_Technician_M_Greeting"
	},
	{
		"ID": 181,
		"CueName": "Speech_Tom_Farewell"
	},
	{
		"ID": 182,
		"CueName": "Speech_Tom_Greeting"
	},
	{
		"ID": 183,
		"CueName": "Speech_Wrinkly_F_Farewell"
	},
	{
		"ID": 184,
		"CueName": "Speech_Wrinkly_F_Greeting"
	},
	{
		"ID": 185,
		"CueName": "Speech_Wrinkly_M_Farewell"
	},
	{
		"ID": 186,
		"CueName": "Speech_Wrinkly_M_Greeting"
	},
	{
		"ID": 187,
		"CueName": "Speech_Admiral_Farewell1"
	},
	{
		"ID": 188,
		"CueName": "Speech_Admiral_Farewell2"
	},
	{
		"ID": 189,
		"CueName": "Speech_Admiral_Farewell3"
	},
	{
		"ID": 190,
		"CueName": "Speech_Admiral_Greeting1"
	},
	{
		"ID": 191,
		"CueName": "Speech_Admiral_Greeting2"
	},
	{
		"ID": 192,
		"CueName": "Speech_Admiral_Greeting3"
	},
	{
		"ID": 193,
		"CueName": "Speech_Katerina_Farewell2"
	},
	{
		"ID": 194,
		"CueName": "Speech_Katerina_Farewell3"
	},
	{
		"ID": 195,
		"CueName": "Speech_Katerina_Greeting2"
	},
	{
		"ID": 196,
		"CueName": "Speech_Katerina_Greeting3"
	},
	{
		"ID": 197,
		"CueName": "Speech_LegionCommander_Farewell1"
	},
	{
		"ID": 198,
		"CueName": "Speech_LegionCommander_Farewell2"
	},
	{
		"ID": 199,
		"CueName": "Speech_LegionCommander_Farewell3"
	},
	{
		"ID": 200,
		"CueName": "Speech_LegionCommander_Farewell4"
	},
	{
		"ID": 201,
		"CueName": "Speech_LegionCommander_Farewell5"
	},
	{
		"ID": 202,
		"CueName": "Speech_LegionCommander_Greeting1"
	},
	{
		"ID": 203,
		"CueName": "Speech_LegionCommander_Greeting2"
	},
	{
		"ID": 204,
		"CueName": "Speech_LegionCommander_Greeting3"
	},
	{
		"ID": 205,
		"CueName": "Speech_LegionCommander_Greeting4"
	},
	{
		"ID": 206,
		"CueName": "Speech_LegionCommander_Greeting5"
	},
	{
		"ID": 207,
		"CueName": "Speech_veteran_Farewell1"
	},
	{
		"ID": 208,
		"CueName": "Speech_veteran_Farewell2"
	},
	{
		"ID": 209,
		"CueName": "Speech_veteran_Farewell3"
	},
	{
		"ID": 210,
		"CueName": "Speech_veteran_Farewell4"
	},
	{
		"ID": 211,
		"CueName": "Speech_veteran_Farewell5"
	},
	{
		"ID": 212,
		"CueName": "Speech_veteran_Greeting1"
	},
	{
		"ID": 213,
		"CueName": "Speech_veteran_Greeting2"
	},
	{
		"ID": 214,
		"CueName": "Speech_veteran_Greeting3"
	},
	{
		"ID": 215,
		"CueName": "Speech_veteran_Greeting4"
	},
	{
		"ID": 216,
		"CueName": "Speech_veteran_Greeting5"
	},
	{
		"ID": 217,
		"CueName": "Speech_Response_ECD_F_Arrogant1"
	},
	{
		"ID": 218,
		"CueName": "Speech_Response_ECD_F_Irritable1"
	},
	{
		"ID": 219,
		"CueName": "Speech_Response_ECD_F_Modest1"
	},
	{
		"ID": 220,
		"CueName": "Speech_Response_ECD_F_Open1"
	},
	{
		"ID": 221,
		"CueName": "Speech_Response_ECD_F_Serious1"
	},
	{
		"ID": 222,
		"CueName": "Speech_Response_ECD_M_Arrogant1"
	},
	{
		"ID": 223,
		"CueName": "Speech_Response_ECD_M_Irritable1"
	},
	{
		"ID": 224,
		"CueName": "Speech_Response_ECD_M_Modest1"
	},
	{
		"ID": 225,
		"CueName": "Speech_Response_ECD_M_Open1"
	},
	{
		"ID": 226,
		"CueName": "Speech_Response_ECD_M_Serious1"
	},
	{
		"ID": 227,
		"CueName": "Speech_Response_NEF_F_Arrogant1"
	},
	{
		"ID": 228,
		"CueName": "Speech_Response_NEF_F_Irritable1"
	},
	{
		"ID": 229,
		"CueName": "Speech_Response_NEF_F_Modest1"
	},
	{
		"ID": 230,
		"CueName": "Speech_Response_NEF_F_Open1"
	},
	{
		"ID": 231,
		"CueName": "Speech_Response_NEF_F_Serious1"
	},
	{
		"ID": 232,
		"CueName": "Speech_Response_NEF_M_Arrogant1"
	},
	{
		"ID": 233,
		"CueName": "Speech_Response_NEF_M_Irritable1"
	},
	{
		"ID": 234,
		"CueName": "Speech_Response_NEF_M_Modest1"
	},
	{
		"ID": 235,
		"CueName": "Speech_Response_NEF_M_Open1"
	},
	{
		"ID": 236,
		"CueName": "Speech_Response_NEF_M_Serious1"
	},
	{
		"ID": 237,
		"CueName": "Speech_Response_RE_F_Arrogant1"
	},
	{
		"ID": 238,
		"CueName": "Speech_Response_RE_F_Irritable1"
	},
	{
		"ID": 239,
		"CueName": "Speech_Response_RE_F_Modest1"
	},
	{
		"ID": 240,
		"CueName": "Speech_Response_RE_F_Open1"
	},
	{
		"ID": 241,
		"CueName": "Speech_Response_RE_F_Serious1"
	},
	{
		"ID": 242,
		"CueName": "Speech_Response_RE_M_Arrogant1"
	},
	{
		"ID": 243,
		"CueName": "Speech_Response_RE_M_Irritable1"
	},
	{
		"ID": 244,
		"CueName": "Speech_Response_RE_M_Modest1"
	},
	{
		"ID": 245,
		"CueName": "Speech_Response_RE_M_Open1"
	},
	{
		"ID": 246,
		"CueName": "Speech_Response_RE_M_Serious1"
	},
	{
		"ID": 247,
		"CueName": "Speech_Response_RS_F_Arrogant1"
	},
	{
		"ID": 248,
		"CueName": "Speech_Response_RS_F_Irritable1"
	},
	{
		"ID": 249,
		"CueName": "Speech_Response_RS_F_Modest1"
	},
	{
		"ID": 250,
		"CueName": "Speech_Response_RS_F_Open1"
	},
	{
		"ID": 251,
		"CueName": "Speech_Response_RS_F_Serious1"
	},
	{
		"ID": 252,
		"CueName": "Speech_Response_RS_M_Arrogant1"
	},
	{
		"ID": 253,
		"CueName": "Speech_Response_RS_M_Irritable1"
	},
	{
		"ID": 254,
		"CueName": "Speech_Response_RS_M_Modest1"
	},
	{
		"ID": 255,
		"CueName": "Speech_Response_RS_M_Open1"
	},
	{
		"ID": 256,
		"CueName": "Speech_Response_RS_M_Serious1"
	},
	{
		"ID": 257,
		"CueName": "Speech_Response_USS_F_Arrogant1"
	},
	{
		"ID": 258,
		"CueName": "Speech_Response_USS_F_Irritable1"
	},
	{
		"ID": 259,
		"CueName": "Speech_Response_USS_F_Modest1"
	},
	{
		"ID": 260,
		"CueName": "Speech_Response_USS_F_Open1"
	},
	{
		"ID": 261,
		"CueName": "Speech_Response_USS_F_Serious1"
	},
	{
		"ID": 262,
		"CueName": "Speech_Response_USS_M_Arrogant1"
	},
	{
		"ID": 263,
		"CueName": "Speech_Response_USS_M_Irritable1"
	},
	{
		"ID": 264,
		"CueName": "Speech_Response_USS_M_Modest1"
	},
	{
		"ID": 265,
		"CueName": "Speech_Response_USS_M_Open1"
	},
	{
		"ID": 266,
		"CueName": "Speech_Response_USS_M_Serious1"
	}
]