[
	{
		"ID": 1,
		"CountLimitList": [
			1,
			3
		]
	},
	{
		"ID": 2,
		"CountLimitList": [
			5,
			50
		]
	},
	{
		"ID": 3,
		"CountLimitList": [
			5,
			30
		]
	},
	{
		"ID": 4,
		"CountLimitList": [
			10,
			40
		]
	},
	{
		"ID": 5,
		"CountLimitList": [
			10,
			100
		]
	},
	{
		"ID": 6,
		"CountLimitList": [
			30,
			200
		]
	},
	{
		"ID": 7,
		"CountLimitList": [
			10,
			40
		]
	},
	{
		"ID": 8,
		"CountLimitList": [
			3,
			3
		]
	},
	{
		"ID": 9,
		"CountLimitList": [
			3,
			3
		]
	},
	{
		"ID": 10,
		"CountLimitList": [
			3,
			3
		]
	},
	{
		"ID": 11,
		"CountLimitList": [
			3,
			3
		]
	},
	{
		"ID": 12,
		"CountLimitList": [
			5,
			25
		]
	},
	{
		"ID": 13,
		"CountLimitList": [
			5,
			20
		]
	},
	{
		"ID": 14,
		"CountLimitList": [
			10,
			20
		]
	},
	{
		"ID": 15,
		"CountLimitList": [
			10,
			50
		]
	},
	{
		"ID": 16,
		"CountLimitList": [
			30,
			100
		]
	},
	{
		"ID": 17,
		"CountLimitList": [
			10,
			25
		]
	},
	{
		"ID": 101,
		"CountLimitList": [
			3,
			10
		]
	},
	{
		"ID": 102,
		"CountLimitList": [
			3,
			10
		]
	},
	{
		"ID": 103,
		"CountLimitList": [
			3,
			10
		]
	},
	{
		"ID": 104,
		"CountLimitList": [
			3,
			10
		]
	},
	{
		"ID": 105,
		"CountLimitList": [
			3,
			10
		]
	},
	{
		"ID": 106,
		"CountLimitList": [
			3,
			10
		]
	},
	{
		"ID": 107,
		"CountLimitList": [
			3,
			10
		]
	},
	{
		"ID": 108,
		"CountLimitList": [
			3,
			10
		]
	},
	{
		"ID": 109,
		"CountLimitList": [
			3,
			10
		]
	},
	{
		"ID": 110,
		"CountLimitList": [
			3,
			10
		]
	},
	{
		"ID": 111,
		"CountLimitList": [
			3,
			10
		]
	},
	{
		"ID": 112,
		"CountLimitList": [
			3,
			10
		]
	}
]