[
	{
		"ID": 1,
		"SystemPushId": "SystemPushId_GuildSovereignBattleStart2PlayerForAttackerGuild",
		"ContentFormatStringParamTypeList": [
			"CommonFormatStringParamType_SolarSystemName"
		],
		"TitleStrKey": "ST:116748",
		"ContentStrKey": "ST:116751"
	},
	{
		"ID": 2,
		"SystemPushId": "SystemPushId_GuildSovereignBattleStartForDefenderGuild",
		"ContentFormatStringParamTypeList": [
			"CommonFormatStringParamType_SolarSystemName"
		],
		"TitleStrKey": "ST:116748",
		"ContentStrKey": "ST:116752"
	},
	{
		"ID": 3,
		"SystemPushId": "SystemPushId_GuildSovereignBattlePrepareEndOneHourForAttackerGuild",
		"ContentFormatStringParamTypeList": [
			"CommonFormatStringParamType_SolarSystemName"
		],
		"TitleStrKey": "ST:116749",
		"ContentStrKey": "ST:117472"
	},
	{
		"ID": 4,
		"SystemPushId": "SystemPushId_GuildSovereignBattlePrepareEndOneHourForDefenderGuild",
		"ContentFormatStringParamTypeList": [
			"CommonFormatStringParamType_SolarSystemName"
		],
		"TitleStrKey": "ST:116749",
		"ContentStrKey": "ST:117472"
	},
	{
		"ID": 5,
		"SystemPushId": "SystemPushId_GuildSovereignBattleDeclarationForAttackerGuild",
		"ContentFormatStringParamTypeList": [
			"CommonFormatStringParamType_SolarSystemName",
			"CommonFormatStringParamType_ServerStringValue",
			"CommonFormatStringParamType_ServerStringValue"
		],
		"TitleStrKey": "ST:116750",
		"ContentStrKey": "ST:116754"
	},
	{
		"ID": 6,
		"SystemPushId": "SystemPushId_GuildSovereignBattleDeclarationForDefenderGuild",
		"ContentFormatStringParamTypeList": [
			"CommonFormatStringParamType_SolarSystemName",
			"CommonFormatStringParamType_ServerStringValue",
			"CommonFormatStringParamType_ServerStringValue"
		],
		"TitleStrKey": "ST:116750",
		"ContentStrKey": "ST:116755"
	},
	{
		"ID": 7,
		"SystemPushId": "SystemPushId_DelegateMissionComplete",
		"TitleStrKey": "ST:132107",
		"ContentStrKey": "ST:132110"
	},
	{
		"ID": 8,
		"SystemPushId": "SystemPushId_CrackComplete",
		"ContentFormatStringParamTypeList": [
			"CommonFormatStringParamType_ItemName"
		],
		"TitleStrKey": "ST:40798",
		"ContentStrKey": "ST:132111"
	},
	{
		"ID": 9,
		"SystemPushId": "SystemPushId_DelegateMissionInvadeStart",
		"ContentFormatStringParamTypeList": [
			"CommonFormatStringParamType_ServerStringValue"
		],
		"TitleStrKey": "ST:132108",
		"ContentStrKey": "ST:132112"
	},
	{
		"ID": 10,
		"SystemPushId": "SystemPushId_DelegateMissionCancel",
		"TitleStrKey": "ST:132109",
		"ContentStrKey": "ST:132113"
	}
]