[
	{
		"ID": 1,
		"SystemMessageId": "SystemMessageId_OpenInfectFinalBattle",
		"Type": "SystemMessageType_GameEvent",
		"FormatStringParamTypeList": [
			"CommonFormatStringParamType_ServerStringValue",
			"CommonFormatStringParamType_SolarSystemName"
		],
		"SortOrder": 0,
		"Time": 0.0,
		"Speed": 0.0,
		"Count": 0,
		"NotShowOnScreen": false,
		"ContentStrKey": "ST:127628"
	},
	{
		"ID": 2,
		"SystemMessageId": "SystemMessageId_InfectSelfHealingAlter",
		"Type": "SystemMessageType_GameEvent",
		"FormatStringParamTypeList": [
			"CommonFormatStringParamType_ServerStringValue"
		],
		"SortOrder": 0,
		"Time": 0.0,
		"Speed": 0.0,
		"Count": 0,
		"NotShowOnScreen": false,
		"ContentStrKey": "ST:122917"
	},
	{
		"ID": 3,
		"SystemMessageId": "SystemMessageId_CurrSolarSystemInfectFinalBattleStart",
		"Type": "SystemMessageType_GameEvent",
		"SortOrder": 0,
		"Time": 0.0,
		"Speed": 0.0,
		"Count": 0,
		"NotShowOnScreen": false,
		"ContentStrKey": "ST:72533"
	},
	{
		"ID": 4,
		"SystemMessageId": "SystemMessageId_CurrSolarSystemInfectFinalBattleShieldLeft",
		"Type": "SystemMessageType_GameEvent",
		"FormatStringParamTypeList": [
			"CommonFormatStringParamType_ServerStringValue"
		],
		"SortOrder": 0,
		"Time": 0.0,
		"Speed": 0.0,
		"Count": 0,
		"NotShowOnScreen": false,
		"ContentStrKey": "ST:72534"
	},
	{
		"ID": 5,
		"SystemMessageId": "SystemMessageId_CurrSolarSystemInfectFinalBattleArmorLeft",
		"Type": "SystemMessageType_GameEvent",
		"SortOrder": 0,
		"Time": 0.0,
		"Speed": 0.0,
		"Count": 0,
		"NotShowOnScreen": false,
		"ContentStrKey": "ST:72535"
	},
	{
		"ID": 6,
		"SystemMessageId": "SystemMessageId_CurrSolarSystemInfectFinalBattleEnd",
		"Type": "SystemMessageType_GameEvent",
		"SortOrder": 0,
		"Time": 0.0,
		"Speed": 0.0,
		"Count": 0,
		"NotShowOnScreen": false,
		"ContentStrKey": "ST:72536"
	},
	{
		"ID": 7,
		"SystemMessageId": "SystemMessageId_SepcailWormholeSceneCreate",
		"Type": "SystemMessageType_GameEvent",
		"FormatStringParamTypeList": [
			"CommonFormatStringParamType_ServerStringValue"
		],
		"SortOrder": 0,
		"Time": 0.0,
		"Speed": 0.0,
		"Count": 0,
		"NotShowOnScreen": false,
		"ContentStrKey": "ST:72537"
	},
	{
		"ID": 8,
		"SystemMessageId": "SystemMessageId_WormholePlayerKillByOtherPlayer",
		"Type": "SystemMessageType_GameEvent",
		"FormatStringParamTypeList": [
			"CommonFormatStringParamType_ServerStringValue",
			"CommonFormatStringParamType_ShipName",
			"CommonFormatStringParamType_ServerStringValue",
			"CommonFormatStringParamType_ShipName"
		],
		"SortOrder": 0,
		"Time": 0.0,
		"Speed": 0.0,
		"Count": 0,
		"NotShowOnScreen": false,
		"ContentStrKey": "ST:72538"
	},
	{
		"ID": 9,
		"SystemMessageId": "SystemMessageId_NormalSolarSystemPlayerKillByOtherPlayer",
		"Type": "SystemMessageType_GameEvent",
		"FormatStringParamTypeList": [
			"CommonFormatStringParamType_ServerStringValue",
			"CommonFormatStringParamType_ShipName",
			"CommonFormatStringParamType_ServerStringValue",
			"CommonFormatStringParamType_ShipName"
		],
		"SortOrder": 0,
		"Time": 0.0,
		"Speed": 0.0,
		"Count": 0,
		"NotShowOnScreen": false,
		"ContentStrKey": "ST:72538"
	},
	{
		"ID": 10,
		"SystemMessageId": "SystemMessageId_ContinousCriminalSet",
		"Type": "SystemMessageType_GameEvent",
		"FormatStringParamTypeList": [
			"CommonFormatStringParamType_ServerStringValue"
		],
		"SortOrder": 0,
		"Time": 0.0,
		"Speed": 0.0,
		"Count": 0,
		"NotShowOnScreen": false,
		"ContentStrKey": "ST:72539"
	},
	{
		"ID": 11,
		"SystemMessageId": "SystemMessageId_HighQunityShipProduce",
		"Type": "SystemMessageType_GameEvent",
		"FormatStringParamTypeList": [
			"CommonFormatStringParamType_ServerStringValue",
			"CommonFormatStringParamType_ItemName"
		],
		"SortOrder": 0,
		"Time": 0.0,
		"Speed": 0.0,
		"Count": 0,
		"NotShowOnScreen": false,
		"ContentStrKey": "ST:129550"
	},
	{
		"ID": 12,
		"SystemMessageId": "SystemMessageId_HighQunityWeaponEquipProduce",
		"Type": "SystemMessageType_GameEvent",
		"FormatStringParamTypeList": [
			"CommonFormatStringParamType_ServerStringValue",
			"CommonFormatStringParamType_ItemName"
		],
		"SortOrder": 0,
		"Time": 0.0,
		"Speed": 0.0,
		"Count": 0,
		"NotShowOnScreen": false,
		"ContentStrKey": "ST:129550"
	},
	{
		"ID": 13,
		"SystemMessageId": "SystemMessageId_WormholeSolarSystemPlayerEnter",
		"Type": "SystemMessageType_GameEvent",
		"FormatStringParamTypeList": [
			"CommonFormatStringParamType_ServerStringValue"
		],
		"SortOrder": 0,
		"Time": 0.0,
		"Speed": 0.0,
		"Count": 0,
		"NotShowOnScreen": false,
		"ContentStrKey": "ST:72541"
	},
	{
		"ID": 14,
		"SystemMessageId": "SystemMessageId_WormholeSolarSystemPlayerTeleport",
		"Type": "SystemMessageType_GameEvent",
		"FormatStringParamTypeList": [
			"CommonFormatStringParamType_ServerStringValue",
			"CommonFormatStringParamType_SolarSystemName"
		],
		"SortOrder": 0,
		"Time": 0.0,
		"Speed": 0.0,
		"Count": 0,
		"NotShowOnScreen": true,
		"ContentStrKey": "ST:72542"
	},
	{
		"ID": 15,
		"SystemMessageId": "SystemMessageId_WormholeSolarSystemPlayerLeave",
		"Type": "SystemMessageType_GameEvent",
		"FormatStringParamTypeList": [
			"CommonFormatStringParamType_ServerStringValue"
		],
		"SortOrder": 0,
		"Time": 0.0,
		"Speed": 0.0,
		"Count": 0,
		"NotShowOnScreen": true,
		"ContentStrKey": "ST:72543"
	},
	{
		"ID": 16,
		"Type": "SystemMessageType_ServerPush",
		"FormatStringParamTypeList": [
			"CommonFormatStringParamType_ServerStringValue"
		],
		"SortOrder": 0,
		"Time": 0.0,
		"Speed": 0.0,
		"Count": 0,
		"NotShowOnScreen": false,
		"ContentStrKey": "ST:72544"
	},
	{
		"ID": 17,
		"Type": "SystemMessageType_GameEvent",
		"FormatStringParamTypeList": [
			"CommonFormatStringParamType_GuildJobName",
			"CommonFormatStringParamType_ServerStringValue",
			"CommonFormatStringParamType_ServerStringValue"
		],
		"SortOrder": 0,
		"Time": 0.0,
		"Speed": 0.0,
		"Count": 0,
		"NotShowOnScreen": false,
		"ContentStrKey": "ST:110202"
	},
	{
		"ID": 18,
		"Type": "SystemMessageType_GameEvent",
		"FormatStringParamTypeList": [
			"CommonFormatStringParamType_GuildJobName",
			"CommonFormatStringParamType_ServerStringValue",
			"CommonFormatStringParamType_ServerStringValue"
		],
		"SortOrder": 0,
		"Time": 0.0,
		"Speed": 0.0,
		"Count": 0,
		"NotShowOnScreen": false,
		"ContentStrKey": "ST:110203"
	},
	{
		"ID": 19,
		"Type": "SystemMessageType_GameEvent",
		"FormatStringParamTypeList": [
			"CommonFormatStringParamType_ServerStringValue",
			"CommonFormatStringParamType_GuildJobName",
			"CommonFormatStringParamType_ServerStringValue"
		],
		"SortOrder": 0,
		"Time": 0.0,
		"Speed": 0.0,
		"Count": 0,
		"NotShowOnScreen": false,
		"ContentStrKey": "ST:110204"
	},
	{
		"ID": 20,
		"SystemMessageId": "SystemMessageId_GuildMemberAutoJoin",
		"Type": "SystemMessageType_GameEvent",
		"FormatStringParamTypeList": [
			"CommonFormatStringParamType_ServerStringValue"
		],
		"SortOrder": 0,
		"Time": 0.0,
		"Speed": 0.0,
		"Count": 0,
		"NotShowOnScreen": false,
		"ContentStrKey": "ST:96213"
	},
	{
		"ID": 21,
		"Type": "SystemMessageType_GameEvent",
		"FormatStringParamTypeList": [
			"CommonFormatStringParamType_ServerStringValue"
		],
		"SortOrder": 0,
		"Time": 0.0,
		"Speed": 0.0,
		"Count": 0,
		"NotShowOnScreen": false,
		"ContentStrKey": "ST:110205"
	},
	{
		"ID": 22,
		"Type": "SystemMessageType_GameEvent",
		"FormatStringParamTypeList": [
			"CommonFormatStringParamType_ServerStringValue",
			"CommonFormatStringParamType_GuildJobName",
			"CommonFormatStringParamType_ServerStringValue"
		],
		"SortOrder": 0,
		"Time": 0.0,
		"Speed": 0.0,
		"Count": 0,
		"NotShowOnScreen": false,
		"ContentStrKey": "ST:110206"
	},
	{
		"ID": 23,
		"Type": "SystemMessageType_GameEvent",
		"FormatStringParamTypeList": [
			"CommonFormatStringParamType_ServerStringValue",
			"CommonFormatStringParamType_GuildJobName",
			"CommonFormatStringParamType_ServerStringValue"
		],
		"SortOrder": 0,
		"Time": 0.0,
		"Speed": 0.0,
		"Count": 0,
		"NotShowOnScreen": false,
		"ContentStrKey": "ST:96209"
	},
	{
		"ID": 24,
		"Type": "SystemMessageType_GameEvent",
		"FormatStringParamTypeList": [
			"CommonFormatStringParamType_ServerStringValue",
			"CommonFormatStringParamType_GuildJobName",
			"CommonFormatStringParamType_ServerStringValue"
		],
		"SortOrder": 0,
		"Time": 0.0,
		"Speed": 0.0,
		"Count": 0,
		"NotShowOnScreen": false,
		"ContentStrKey": "ST:96210"
	},
	{
		"ID": 25,
		"Type": "SystemMessageType_GameEvent",
		"FormatStringParamTypeList": [
			"CommonFormatStringParamType_ServerStringValue",
			"CommonFormatStringParamType_GuildJobName",
			"CommonFormatStringParamType_ServerStringValue"
		],
		"SortOrder": 0,
		"Time": 0.0,
		"Speed": 0.0,
		"Count": 0,
		"NotShowOnScreen": false,
		"ContentStrKey": "ST:96211"
	},
	{
		"ID": 26,
		"Type": "SystemMessageType_GameEvent",
		"FormatStringParamTypeList": [
			"CommonFormatStringParamType_GuildJobName",
			"CommonFormatStringParamType_ServerStringValue",
			"CommonFormatStringParamType_ServerStringValue"
		],
		"SortOrder": 0,
		"Time": 0.0,
		"Speed": 0.0,
		"Count": 0,
		"NotShowOnScreen": false,
		"ContentStrKey": "ST:96212"
	},
	{
		"ID": 27,
		"Type": "SystemMessageType_GameEvent",
		"FormatStringParamTypeList": [
			"CommonFormatStringParamType_ServerStringValue"
		],
		"SortOrder": 0,
		"Time": 0.0,
		"Speed": 0.0,
		"Count": 0,
		"NotShowOnScreen": false,
		"ContentStrKey": "ST:96213"
	},
	{
		"ID": 28,
		"Type": "SystemMessageType_GameEvent",
		"FormatStringParamTypeList": [
			"CommonFormatStringParamType_GuildJobName",
			"CommonFormatStringParamType_ServerStringValue",
			"CommonFormatStringParamType_ServerStringValue",
			"CommonFormatStringParamType_GuildJobName"
		],
		"SortOrder": 0,
		"Time": 0.0,
		"Speed": 0.0,
		"Count": 0,
		"NotShowOnScreen": false,
		"ContentStrKey": "ST:96214"
	},
	{
		"ID": 29,
		"Type": "SystemMessageType_GameEvent",
		"FormatStringParamTypeList": [
			"CommonFormatStringParamType_GuildJobName",
			"CommonFormatStringParamType_ServerStringValue",
			"CommonFormatStringParamType_ServerStringValue",
			"CommonFormatStringParamType_GuildJobName"
		],
		"SortOrder": 0,
		"Time": 0.0,
		"Speed": 0.0,
		"Count": 0,
		"NotShowOnScreen": false,
		"ContentStrKey": "ST:96215"
	},
	{
		"ID": 30,
		"SystemMessageId": "SystemMessageId_GuildStaffingLogMemberLeave",
		"Type": "SystemMessageType_GameEvent",
		"FormatStringParamTypeList": [
			"CommonFormatStringParamType_ServerStringValue"
		],
		"SortOrder": 0,
		"Time": 0.0,
		"Speed": 0.0,
		"Count": 0,
		"NotShowOnScreen": false,
		"ContentStrKey": "ST:96216"
	},
	{
		"ID": 31,
		"Type": "SystemMessageType_GameEvent",
		"FormatStringParamTypeList": [
			"CommonFormatStringParamType_GuildJobName",
			"CommonFormatStringParamType_ServerStringValue",
			"CommonFormatStringParamType_ServerStringValue"
		],
		"SortOrder": 0,
		"Time": 0.0,
		"Speed": 0.0,
		"Count": 0,
		"NotShowOnScreen": false,
		"ContentStrKey": "ST:110207"
	},
	{
		"ID": 32,
		"Type": "SystemMessageType_GameEvent",
		"FormatStringParamTypeList": [
			"CommonFormatStringParamType_ServerStringValue",
			"CommonFormatStringParamType_ServerStringValue",
			"CommonFormatStringParamType_SolarSystemName"
		],
		"SortOrder": 0,
		"Time": 0.0,
		"Speed": 0.0,
		"Count": 0,
		"NotShowOnScreen": false,
		"ContentStrKey": "ST:129515"
	},
	{
		"ID": 33,
		"Type": "SystemMessageType_GameEvent",
		"FormatStringParamTypeList": [
			"CommonFormatStringParamType_ServerStringValue",
			"CommonFormatStringParamType_ServerStringValue",
			"CommonFormatStringParamType_SolarSystemName"
		],
		"SortOrder": 0,
		"Time": 0.0,
		"Speed": 0.0,
		"Count": 0,
		"NotShowOnScreen": false,
		"ContentStrKey": "ST:129516"
	},
	{
		"ID": 34,
		"Type": "SystemMessageType_GameEvent",
		"FormatStringParamTypeList": [
			"CommonFormatStringParamType_ServerStringValue",
			"CommonFormatStringParamType_ServerStringValue"
		],
		"SortOrder": 0,
		"Time": 8.0,
		"Speed": 0.0,
		"Count": 2,
		"NotShowOnScreen": false,
		"ContentStrKey": "ST:110404"
	},
	{
		"ID": 35,
		"Type": "SystemMessageType_GameEvent",
		"FormatStringParamTypeList": [
			"CommonFormatStringParamType_SolarSystemName"
		],
		"SortOrder": 0,
		"Time": 0.0,
		"Speed": 0.0,
		"Count": 0,
		"NotShowOnScreen": false,
		"ContentStrKey": "ST:129517"
	},
	{
		"ID": 36,
		"Type": "SystemMessageType_GameEvent",
		"FormatStringParamTypeList": [
			"CommonFormatStringParamType_ServerStringValue",
			"CommonFormatStringParamType_ServerStringValue",
			"CommonFormatStringParamType_SolarSystemName"
		],
		"SortOrder": 0,
		"Time": 0.0,
		"Speed": 0.0,
		"Count": 0,
		"NotShowOnScreen": false,
		"ContentStrKey": "ST:129518"
	},
	{
		"ID": 37,
		"Type": "SystemMessageType_GameEvent",
		"FormatStringParamTypeList": [
			"CommonFormatStringParamType_SolarSystemName"
		],
		"SortOrder": 0,
		"Time": 0.0,
		"Speed": 0.0,
		"Count": 0,
		"NotShowOnScreen": false,
		"ContentStrKey": "ST:110380"
	},
	{
		"ID": 38,
		"Type": "SystemMessageType_GameEvent",
		"FormatStringParamTypeList": [
			"CommonFormatStringParamType_ServerStringValue",
			"CommonFormatStringParamType_ServerStringValue",
			"CommonFormatStringParamType_SolarSystemName"
		],
		"SortOrder": 0,
		"Time": 0.0,
		"Speed": 0.0,
		"Count": 0,
		"NotShowOnScreen": false,
		"ContentStrKey": "ST:110381"
	},
	{
		"ID": 39,
		"Type": "SystemMessageType_GameEvent",
		"FormatStringParamTypeList": [
			"CommonFormatStringParamType_ServerStringValue",
			"CommonFormatStringParamType_ServerStringValue",
			"CommonFormatStringParamType_SolarSystemName"
		],
		"SortOrder": 0,
		"Time": 8.0,
		"Speed": 0.0,
		"Count": 2,
		"NotShowOnScreen": false,
		"ContentStrKey": "ST:122919"
	},
	{
		"ID": 40,
		"SystemMessageId": "SystemMessageId_GuildBuildingBattleEnterReinforcementForDefenderGuild",
		"Type": "SystemMessageType_GameEvent",
		"FormatStringParamTypeList": [
			"CommonFormatStringParamType_SolarSystemName"
		],
		"SortOrder": 0,
		"Time": 0.0,
		"Speed": 0.0,
		"Count": 0,
		"NotShowOnScreen": false,
		"ContentStrKey": "ST:122920"
	},
	{
		"ID": 41,
		"Type": "SystemMessageType_GameEvent",
		"FormatStringParamTypeList": [
			"CommonFormatStringParamType_ServerStringValue",
			"CommonFormatStringParamType_ServerStringValue",
			"CommonFormatStringParamType_SolarSystemName"
		],
		"SortOrder": 0,
		"Time": 0.0,
		"Speed": 0.0,
		"Count": 0,
		"NotShowOnScreen": false,
		"ContentStrKey": "ST:129519"
	},
	{
		"ID": 42,
		"Type": "SystemMessageType_GameEvent",
		"FormatStringParamTypeList": [
			"CommonFormatStringParamType_SolarSystemName",
			"CommonFormatStringParamType_ServerStringValue",
			"CommonFormatStringParamType_ServerStringValue"
		],
		"SortOrder": 0,
		"Time": 0.0,
		"Speed": 0.0,
		"Count": 0,
		"NotShowOnScreen": false,
		"ContentStrKey": "ST:129520"
	},
	{
		"ID": 43,
		"Type": "SystemMessageType_GameEvent",
		"FormatStringParamTypeList": [
			"CommonFormatStringParamType_ServerStringValue",
			"CommonFormatStringParamType_ServerStringValue",
			"CommonFormatStringParamType_SolarSystemName"
		],
		"SortOrder": 0,
		"Time": 0.0,
		"Speed": 0.0,
		"Count": 0,
		"NotShowOnScreen": false,
		"ContentStrKey": "ST:122923"
	},
	{
		"ID": 44,
		"Type": "SystemMessageType_GameEvent",
		"FormatStringParamTypeList": [
			"CommonFormatStringParamType_ServerStringValue",
			"CommonFormatStringParamType_ServerStringValue",
			"CommonFormatStringParamType_SolarSystemName"
		],
		"SortOrder": 0,
		"Time": 0.0,
		"Speed": 0.0,
		"Count": 0,
		"NotShowOnScreen": false,
		"ContentStrKey": "ST:122924"
	},
	{
		"ID": 45,
		"Type": "SystemMessageType_GameEvent",
		"FormatStringParamTypeList": [
			"CommonFormatStringParamType_ServerStringValue",
			"CommonFormatStringParamType_ServerStringValue",
			"CommonFormatStringParamType_SolarSystemName",
			"CommonFormatStringParamType_ServerStringValue",
			"CommonFormatStringParamType_ServerStringValue"
		],
		"SortOrder": 0,
		"Time": 0.0,
		"Speed": 0.0,
		"Count": 0,
		"NotShowOnScreen": false,
		"ContentStrKey": "ST:122925"
	},
	{
		"ID": 46,
		"Type": "SystemMessageType_GameEvent",
		"FormatStringParamTypeList": [
			"CommonFormatStringParamType_ServerStringValue",
			"CommonFormatStringParamType_ServerStringValue"
		],
		"SortOrder": 0,
		"Time": 8.0,
		"Speed": 0.0,
		"Count": 2,
		"NotShowOnScreen": false,
		"ContentStrKey": "ST:129500"
	},
	{
		"ID": 47,
		"Type": "SystemMessageType_GameEvent",
		"FormatStringParamTypeList": [
			"CommonFormatStringParamType_ServerStringValue",
			"CommonFormatStringParamType_ServerStringValue"
		],
		"SortOrder": 0,
		"Time": 8.0,
		"Speed": 0.0,
		"Count": 2,
		"NotShowOnScreen": false,
		"ContentStrKey": "ST:110414"
	},
	{
		"ID": 48,
		"Type": "SystemMessageType_GameEvent",
		"FormatStringParamTypeList": [
			"CommonFormatStringParamType_ServerStringValue",
			"CommonFormatStringParamType_ServerStringValue"
		],
		"SortOrder": 0,
		"Time": 8.0,
		"Speed": 0.0,
		"Count": 2,
		"NotShowOnScreen": false,
		"ContentStrKey": "ST:110414"
	},
	{
		"ID": 49,
		"Type": "SystemMessageType_GameEvent",
		"FormatStringParamTypeList": [
			"CommonFormatStringParamType_ServerStringValue"
		],
		"SortOrder": 0,
		"Time": 8.0,
		"Speed": 0.0,
		"Count": 2,
		"NotShowOnScreen": false,
		"ContentStrKey": "ST:110415"
	},
	{
		"ID": 50,
		"SystemMessageId": "SystemMessageId_GuildSovereignBattleAttackBuildingArmorLow",
		"Type": "SystemMessageType_GameEvent",
		"FormatStringParamTypeList": [
			"CommonFormatStringParamType_ServerStringValue"
		],
		"SortOrder": 0,
		"Time": 8.0,
		"Speed": 0.0,
		"Count": 2,
		"NotShowOnScreen": false,
		"ContentStrKey": "ST:110416"
	},
	{
		"ID": 51,
		"Type": "SystemMessageType_GameEvent",
		"SortOrder": 0,
		"Time": 8.0,
		"Speed": 0.0,
		"Count": 2,
		"NotShowOnScreen": false,
		"ContentStrKey": "ST:110417"
	},
	{
		"ID": 52,
		"Type": "SystemMessageType_GameEvent",
		"FormatStringParamTypeList": [
			"CommonFormatStringParamType_ServerStringValue",
			"CommonFormatStringParamType_ServerStringValue",
			"CommonFormatStringParamType_ServerStringValue",
			"CommonFormatStringParamType_ServerStringValue"
		],
		"SortOrder": 0,
		"Time": 8.0,
		"Speed": 0.0,
		"Count": 2,
		"NotShowOnScreen": false,
		"ContentStrKey": "ST:110385"
	},
	{
		"ID": 53,
		"Type": "SystemMessageType_GameEvent",
		"FormatStringParamTypeList": [
			"CommonFormatStringParamType_ServerStringValue"
		],
		"SortOrder": 0,
		"Time": 8.0,
		"Speed": 0.0,
		"Count": 2,
		"NotShowOnScreen": false,
		"ContentStrKey": "ST:109023"
	},
	{
		"ID": 54,
		"Type": "SystemMessageType_GameEvent",
		"FormatStringParamTypeList": [
			"CommonFormatStringParamType_ServerStringValue"
		],
		"SortOrder": 0,
		"Time": 8.0,
		"Speed": 0.0,
		"Count": 2,
		"NotShowOnScreen": false,
		"ContentStrKey": "ST:110418"
	},
	{
		"ID": 55,
		"Type": "SystemMessageType_GameEvent",
		"SortOrder": 0,
		"Time": 8.0,
		"Speed": 0.0,
		"Count": 2,
		"NotShowOnScreen": false,
		"ContentStrKey": "ST:110419"
	},
	{
		"ID": 56,
		"Type": "SystemMessageType_GameEvent",
		"SortOrder": 0,
		"Time": 8.0,
		"Speed": 0.0,
		"Count": 2,
		"NotShowOnScreen": false,
		"ContentStrKey": "ST:110420"
	},
	{
		"ID": 57,
		"Type": "SystemMessageType_GameEvent",
		"FormatStringParamTypeList": [
			"CommonFormatStringParamType_ServerStringValue",
			"CommonFormatStringParamType_ServerStringValue",
			"CommonFormatStringParamType_SolarSystemName"
		],
		"SortOrder": 0,
		"Time": 0.0,
		"Speed": 0.0,
		"Count": 0,
		"NotShowOnScreen": false,
		"ContentStrKey": "ST:122926"
	},
	{
		"ID": 58,
		"Type": "SystemMessageType_GameEvent",
		"FormatStringParamTypeList": [
			"CommonFormatStringParamType_SolarSystemName"
		],
		"SortOrder": 0,
		"Time": 0.0,
		"Speed": 0.0,
		"Count": 0,
		"NotShowOnScreen": false,
		"ContentStrKey": "ST:122927"
	},
	{
		"ID": 59,
		"Type": "SystemMessageType_GameEvent",
		"FormatStringParamTypeList": [
			"CommonFormatStringParamType_ServerStringValue",
			"CommonFormatStringParamType_ServerStringValue",
			"CommonFormatStringParamType_ServerStringValue",
			"CommonFormatStringParamType_SolarSystemName"
		],
		"SortOrder": 0,
		"Time": 8.0,
		"Speed": 0.0,
		"Count": 2,
		"NotShowOnScreen": false,
		"ContentStrKey": "ST:121944"
	},
	{
		"ID": 60,
		"SystemMessageId": "SystemMessageId_GuildSovereignBattleAutoDeclaration",
		"Type": "SystemMessageType_GameEvent",
		"FormatStringParamTypeList": [
			"CommonFormatStringParamType_ServerStringValue",
			"CommonFormatStringParamType_ServerStringValue",
			"CommonFormatStringParamType_SolarSystemName"
		],
		"SortOrder": 0,
		"Time": 8.0,
		"Speed": 0.0,
		"Count": 2,
		"NotShowOnScreen": false,
		"ContentStrKey": "ST:121945"
	},
	{
		"ID": 61,
		"Type": "SystemMessageType_GameEvent",
		"SortOrder": 0,
		"Time": 0.0,
		"Speed": 0.0,
		"Count": 0,
		"NotShowOnScreen": false,
		"ContentStrKey": "ST:129551"
	},
	{
		"ID": 62,
		"Type": "SystemMessageType_GameEvent",
		"SortOrder": 0,
		"Time": 0.0,
		"Speed": 0.0,
		"Count": 0,
		"NotShowOnScreen": false,
		"ContentStrKey": "ST:129552"
	},
	{
		"ID": 63,
		"Type": "SystemMessageType_GameEvent",
		"FormatStringParamTypeList": [
			"CommonFormatStringParamType_SolarSystemName"
		],
		"SortOrder": 0,
		"Time": 0.0,
		"Speed": 0.0,
		"Count": 0,
		"NotShowOnScreen": false,
		"ContentStrKey": "ST:129777"
	},
	{
		"ID": 64,
		"Type": "SystemMessageType_GameEvent",
		"FormatStringParamTypeList": [
			"CommonFormatStringParamType_SolarSystemName"
		],
		"SortOrder": 0,
		"Time": 0.0,
		"Speed": 0.0,
		"Count": 0,
		"NotShowOnScreen": false,
		"ContentStrKey": "ST:129778"
	},
	{
		"ID": 65,
		"Type": "SystemMessageType_GameEvent",
		"FormatStringParamTypeList": [
			"CommonFormatStringParamType_SolarSystemName"
		],
		"SortOrder": 0,
		"Time": 0.0,
		"Speed": 0.0,
		"Count": 0,
		"NotShowOnScreen": false,
		"ContentStrKey": "ST:129779"
	},
	{
		"ID": 66,
		"Type": "SystemMessageType_GameEvent",
		"FormatStringParamTypeList": [
			"CommonFormatStringParamType_SolarSystemName"
		],
		"SortOrder": 0,
		"Time": 8.0,
		"Speed": 0.0,
		"Count": 2,
		"NotShowOnScreen": false,
		"ContentStrKey": "ST:109026"
	},
	{
		"ID": 67,
		"Type": "SystemMessageType_GameEvent",
		"FormatStringParamTypeList": [
			"CommonFormatStringParamType_SolarSystemName"
		],
		"SortOrder": 0,
		"Time": 8.0,
		"Speed": 0.0,
		"Count": 2,
		"NotShowOnScreen": false,
		"ContentStrKey": "ST:109273"
	},
	{
		"ID": 68,
		"Type": "SystemMessageType_GameEvent",
		"FormatStringParamTypeList": [
			"CommonFormatStringParamType_ServerStringValue"
		],
		"SortOrder": 0,
		"Time": 0.0,
		"Speed": 0.0,
		"Count": 0,
		"NotShowOnScreen": false,
		"ContentStrKey": "ST:109185"
	},
	{
		"ID": 69,
		"Type": "SystemMessageType_GameEvent",
		"FormatStringParamTypeList": [
			"CommonFormatStringParamType_SolarSystemName"
		],
		"SortOrder": 0,
		"Time": 8.0,
		"Speed": 0.0,
		"Count": 2,
		"NotShowOnScreen": false,
		"ContentStrKey": "ST:111031"
	},
	{
		"ID": 70,
		"SystemMessageId": "SystemMessageId_GuildSovereignBattleEnterDeclarationForSolarSystem",
		"Type": "SystemMessageType_GameEvent",
		"FormatStringParamTypeList": [
			"CommonFormatStringParamType_SolarSystemName",
			"CommonFormatStringParamType_ServerStringValue"
		],
		"SortOrder": 0,
		"Time": 8.0,
		"Speed": 0.0,
		"Count": 2,
		"NotShowOnScreen": false,
		"ContentStrKey": "ST:122931"
	},
	{
		"ID": 71,
		"Type": "SystemMessageType_GameEvent",
		"FormatStringParamTypeList": [
			"CommonFormatStringParamType_SolarSystemName"
		],
		"SortOrder": 0,
		"Time": 0.0,
		"Speed": 0.0,
		"Count": 0,
		"NotShowOnScreen": false,
		"ContentStrKey": "ST:129780"
	},
	{
		"ID": 72,
		"Type": "SystemMessageType_GameEvent",
		"FormatStringParamTypeList": [
			"CommonFormatStringParamType_ServerStringValue",
			"CommonFormatStringParamType_ServerStringValue",
			"CommonFormatStringParamType_ServerStringValue",
			"CommonFormatStringParamType_SolarSystemName"
		],
		"SortOrder": 0,
		"Time": 8.0,
		"Speed": 0.0,
		"Count": 2,
		"NotShowOnScreen": false,
		"ContentStrKey": "ST:121946"
	},
	{
		"ID": 73,
		"Type": "SystemMessageType_GameEvent",
		"FormatStringParamTypeList": [
			"CommonFormatStringParamType_ServerStringValue",
			"CommonFormatStringParamType_ServerStringValue",
			"CommonFormatStringParamType_SolarSystemName"
		],
		"SortOrder": 0,
		"Time": 8.0,
		"Speed": 0.0,
		"Count": 2,
		"NotShowOnScreen": false,
		"ContentStrKey": "ST:121917"
	},
	{
		"ID": 74,
		"Type": "SystemMessageType_GameEvent",
		"FormatStringParamTypeList": [
			"CommonFormatStringParamType_ServerStringValue",
			"CommonFormatStringParamType_ServerStringValue",
			"CommonFormatStringParamType_ServerStringValue",
			"CommonFormatStringParamType_ServerStringValue"
		],
		"SortOrder": 0,
		"Time": 8.0,
		"Speed": 0.0,
		"Count": 2,
		"NotShowOnScreen": false,
		"ContentStrKey": "ST:121918"
	},
	{
		"ID": 75,
		"Type": "SystemMessageType_GameEvent",
		"FormatStringParamTypeList": [
			"CommonFormatStringParamType_SolarSystemName"
		],
		"SortOrder": 0,
		"Time": 0.0,
		"Speed": 0.0,
		"Count": 0,
		"NotShowOnScreen": false,
		"ContentStrKey": "ST:121947"
	},
	{
		"ID": 76,
		"Type": "SystemMessageType_GameEvent",
		"FormatStringParamTypeList": [
			"CommonFormatStringParamType_SolarSystemName"
		],
		"SortOrder": 0,
		"Time": 0.0,
		"Speed": 0.0,
		"Count": 0,
		"NotShowOnScreen": false,
		"ContentStrKey": "ST:121948"
	},
	{
		"ID": 77,
		"Type": "SystemMessageType_GameEvent",
		"FormatStringParamTypeList": [
			"CommonFormatStringParamType_SolarSystemName"
		],
		"SortOrder": 0,
		"Time": 0.0,
		"Speed": 0.0,
		"Count": 0,
		"NotShowOnScreen": false,
		"ContentStrKey": "ST:121949"
	},
	{
		"ID": 78,
		"Type": "SystemMessageType_GameEvent",
		"FormatStringParamTypeList": [
			"CommonFormatStringParamType_SolarSystemName"
		],
		"SortOrder": 0,
		"Time": 0.0,
		"Speed": 0.0,
		"Count": 0,
		"NotShowOnScreen": false,
		"ContentStrKey": "ST:121950"
	},
	{
		"ID": 79,
		"Type": "SystemMessageType_GameEvent",
		"FormatStringParamTypeList": [
			"CommonFormatStringParamType_SolarSystemName"
		],
		"SortOrder": 0,
		"Time": 0.0,
		"Speed": 0.0,
		"Count": 0,
		"NotShowOnScreen": false,
		"ContentStrKey": "ST:122932"
	},
	{
		"ID": 80,
		"SystemMessageId": "SystemMessageId_GuildSovereignBattleStartForDefenderGuildSimpleVersion",
		"Type": "SystemMessageType_GameEvent",
		"FormatStringParamTypeList": [
			"CommonFormatStringParamType_SolarSystemName"
		],
		"SortOrder": 0,
		"Time": 0.0,
		"Speed": 0.0,
		"Count": 0,
		"NotShowOnScreen": false,
		"ContentStrKey": "ST:121952"
	},
	{
		"ID": 81,
		"Type": "SystemMessageType_GameEvent",
		"FormatStringParamTypeList": [
			"CommonFormatStringParamType_SolarSystemName"
		],
		"SortOrder": 0,
		"Time": 0.0,
		"Speed": 0.0,
		"Count": 0,
		"NotShowOnScreen": false,
		"ContentStrKey": "ST:111786"
	},
	{
		"ID": 82,
		"Type": "SystemMessageType_GameEvent",
		"FormatStringParamTypeList": [
			"CommonFormatStringParamType_SolarSystemName"
		],
		"SortOrder": 0,
		"Time": 0.0,
		"Speed": 0.0,
		"Count": 0,
		"NotShowOnScreen": false,
		"ContentStrKey": "ST:129521"
	},
	{
		"ID": 83,
		"Type": "SystemMessageType_GameEvent",
		"FormatStringParamTypeList": [
			"CommonFormatStringParamType_SolarSystemName"
		],
		"SortOrder": 0,
		"Time": 0.0,
		"Speed": 0.0,
		"Count": 0,
		"NotShowOnScreen": false,
		"ContentStrKey": "ST:129522"
	},
	{
		"ID": 84,
		"Type": "SystemMessageType_GameEvent",
		"FormatStringParamTypeList": [
			"CommonFormatStringParamType_SolarSystemName"
		],
		"SortOrder": 0,
		"Time": 0.0,
		"Speed": 0.0,
		"Count": 0,
		"NotShowOnScreen": false,
		"ContentStrKey": "ST:121955"
	},
	{
		"ID": 85,
		"Type": "SystemMessageType_GameEvent",
		"FormatStringParamTypeList": [
			"CommonFormatStringParamType_SolarSystemName"
		],
		"SortOrder": 0,
		"Time": 0.0,
		"Speed": 0.0,
		"Count": 0,
		"NotShowOnScreen": false,
		"ContentStrKey": "ST:121956"
	},
	{
		"ID": 86,
		"Type": "SystemMessageType_GameEvent",
		"FormatStringParamTypeList": [
			"CommonFormatStringParamType_SolarSystemName"
		],
		"SortOrder": 0,
		"Time": 0.0,
		"Speed": 0.0,
		"Count": 0,
		"NotShowOnScreen": false,
		"ContentStrKey": "ST:121957"
	},
	{
		"ID": 87,
		"Type": "SystemMessageType_GameEvent",
		"FormatStringParamTypeList": [
			"CommonFormatStringParamType_SolarSystemName"
		],
		"SortOrder": 0,
		"Time": 0.0,
		"Speed": 0.0,
		"Count": 0,
		"NotShowOnScreen": false,
		"ContentStrKey": "ST:129523"
	},
	{
		"ID": 88,
		"Type": "SystemMessageType_GameEvent",
		"FormatStringParamTypeList": [
			"CommonFormatStringParamType_SolarSystemName"
		],
		"SortOrder": 0,
		"Time": 0.0,
		"Speed": 0.0,
		"Count": 0,
		"NotShowOnScreen": false,
		"ContentStrKey": "ST:129523"
	},
	{
		"ID": 89,
		"Type": "SystemMessageType_GameEvent",
		"FormatStringParamTypeList": [
			"CommonFormatStringParamType_ServerStringValue",
			"CommonFormatStringParamType_ServerStringValue",
			"CommonFormatStringParamType_ServerStringValue",
			"CommonFormatStringParamType_SolarSystemName"
		],
		"SortOrder": 0,
		"Time": 0.0,
		"Speed": 0.0,
		"Count": 0,
		"NotShowOnScreen": false,
		"ContentStrKey": "ST:121959"
	},
	{
		"ID": 90,
		"SystemMessageId": "SystemMessageId_GuildSovereignBattleAutoDeclarationSimpleVersion",
		"Type": "SystemMessageType_GameEvent",
		"FormatStringParamTypeList": [
			"CommonFormatStringParamType_ServerStringValue",
			"CommonFormatStringParamType_ServerStringValue",
			"CommonFormatStringParamType_SolarSystemName"
		],
		"SortOrder": 0,
		"Time": 0.0,
		"Speed": 0.0,
		"Count": 0,
		"NotShowOnScreen": false,
		"ContentStrKey": "ST:121960"
	},
	{
		"ID": 91,
		"Type": "SystemMessageType_GameEvent",
		"FormatStringParamTypeList": [
			"CommonFormatStringParamType_ServerStringValue",
			"CommonFormatStringParamType_ServerStringValue"
		],
		"SortOrder": 0,
		"Time": 0.0,
		"Speed": 0.0,
		"Count": 0,
		"NotShowOnScreen": false,
		"ContentStrKey": "ST:111434"
	},
	{
		"ID": 92,
		"Type": "SystemMessageType_GameEvent",
		"FormatStringParamTypeList": [
			"CommonFormatStringParamType_ServerStringValue",
			"CommonFormatStringParamType_ServerStringValue",
			"CommonFormatStringParamType_SolarSystemName",
			"CommonFormatStringParamType_ServerStringValue",
			"CommonFormatStringParamType_ServerStringValue"
		],
		"SortOrder": 0,
		"Time": 0.0,
		"Speed": 0.0,
		"Count": 0,
		"NotShowOnScreen": false,
		"ContentStrKey": "ST:122933"
	},
	{
		"ID": 93,
		"Type": "SystemMessageType_GameEvent",
		"FormatStringParamTypeList": [
			"CommonFormatStringParamType_ServerStringValue",
			"CommonFormatStringParamType_ServerStringValue",
			"CommonFormatStringParamType_ServerStringValue",
			"CommonFormatStringParamType_SolarSystemName"
		],
		"SortOrder": 0,
		"Time": 0.0,
		"Speed": 0.0,
		"Count": 0,
		"NotShowOnScreen": false,
		"ContentStrKey": "ST:121919"
	},
	{
		"ID": 94,
		"Type": "SystemMessageType_GameEvent",
		"FormatStringParamTypeList": [
			"CommonFormatStringParamType_ServerStringValue",
			"CommonFormatStringParamType_ServerStringValue",
			"CommonFormatStringParamType_SolarSystemName"
		],
		"SortOrder": 0,
		"Time": 0.0,
		"Speed": 0.0,
		"Count": 0,
		"NotShowOnScreen": false,
		"ContentStrKey": "ST:121920"
	},
	{
		"ID": 95,
		"Type": "SystemMessageType_GameEvent",
		"FormatStringParamTypeList": [
			"CommonFormatStringParamType_ServerStringValue",
			"CommonFormatStringParamType_ServerStringValue",
			"CommonFormatStringParamType_ServerStringValue",
			"CommonFormatStringParamType_ServerStringValue",
			"CommonFormatStringParamType_SolarSystemName"
		],
		"SortOrder": 0,
		"Time": 0.0,
		"Speed": 0.0,
		"Count": 0,
		"NotShowOnScreen": false,
		"ContentStrKey": "ST:121921"
	},
	{
		"ID": 96,
		"Type": "SystemMessageType_GameEvent",
		"FormatStringParamTypeList": [
			"CommonFormatStringParamType_ServerStringValue",
			"CommonFormatStringParamType_ServerStringValue",
			"CommonFormatStringParamType_ShipName"
		],
		"SortOrder": 0,
		"Time": 0.0,
		"Speed": 0.0,
		"Count": 0,
		"NotShowOnScreen": false,
		"ContentStrKey": "ST:128554"
	},
	{
		"ID": 97,
		"Type": "SystemMessageType_GameEvent",
		"FormatStringParamTypeList": [
			"CommonFormatStringParamType_ServerStringValue",
			"CommonFormatStringParamType_ServerStringValue"
		],
		"SortOrder": 0,
		"Time": 0.0,
		"Speed": 0.0,
		"Count": 0,
		"NotShowOnScreen": false,
		"ContentStrKey": "ST:128555"
	},
	{
		"ID": 98,
		"Type": "SystemMessageType_GameEvent",
		"FormatStringParamTypeList": [
			"CommonFormatStringParamType_SolarSystemName"
		],
		"SortOrder": 0,
		"Time": 0.0,
		"Speed": 0.0,
		"Count": 0,
		"NotShowOnScreen": false,
		"ContentStrKey": "ST:130690"
	}
]