[
	{
		"ID": 1,
		"CurrencyType": "CurrencyType_BindMoney",
		"Icon": "",
		"Name": "信用点",
		"ExchangeRate": 100.0,
		"IssuerDesc": "大议会联合结算中心",
		"MonetaryUsageDesc": "可在<color=#deb273ff>信用点商店</color>购买最基础的舰船和装备，及升级指挥官技能。",
		"AcquisitionPathDesc": "可通过<color=#deb273ff>联储币向下兑换</color>及<color=#deb273ff>完成星系任务<</color>获得。",
		"NameStrKey": "ST:53202",
		"IssuerDescStrKey": "ST:132189",
		"MonetaryUsageDescStrKey": "ST:132194",
		"AcquisitionPathDescStrKey": "ST:132199"
	},
	{
		"ID": 2,
		"CurrencyType": "CurrencyType_TradeMoney",
		"Icon": "",
		"Name": "联储币",
		"ExchangeRate": 100.0,
		"IssuerDesc": "大议会联合储备所",
		"MonetaryUsageDesc": "可在<color=#deb273ff>交易行</color>购买装备和物资，是游戏中唯一可流通的个人货币。",
		"AcquisitionPathDesc": "可通过<color=#deb273ff>铱金向下兑换</color>及<color=#deb273ff>在交易行出售物资</color>获得。",
		"NameStrKey": "ST:53203",
		"IssuerDescStrKey": "ST:132190",
		"MonetaryUsageDescStrKey": "ST:132195",
		"AcquisitionPathDescStrKey": "ST:132200"
	},
	{
		"ID": 3,
		"CurrencyType": "CurrencyType_RealMoney",
		"Icon": "",
		"Name": "铱金",
		"ExchangeRate": 1.0,
		"IssuerDesc": "银河通用贵金属",
		"MonetaryUsageDesc": "可在<color=#deb273ff>银河商城</color>内购买稀有物资及激活游戏提供的各项加速功能。",
		"AcquisitionPathDesc": "可在<color=#deb273ff>银河商城</color>通过支付现实货币进行购买。",
		"NameStrKey": "ST:53204",
		"IssuerDescStrKey": "ST:132191",
		"MonetaryUsageDescStrKey": "ST:132196",
		"AcquisitionPathDescStrKey": "ST:132201"
	},
	{
		"ID": 4,
		"CurrencyType": "CurrencyType_CreditCurrency_One",
		"Icon": "",
		"Name": "荣誉点",
		"ExchangeRate": 1.0,
		"IssuerDesc": "各国国家银行",
		"MonetaryUsageDesc": "可在五大国家的<color=#deb273ff>声望商店</color>兑换高科技和品质等级的舰船及装备。",
		"AcquisitionPathDesc": "可通过完成每周刷新的<color=#deb273ff>国家声望任务</color>获得。",
		"NameStrKey": "ST:130735",
		"IssuerDescStrKey": "ST:132192",
		"MonetaryUsageDescStrKey": "ST:132197",
		"AcquisitionPathDescStrKey": "ST:132202"
	},
	{
		"ID": 5,
		"CurrencyType": "CurrencyType_CreditCurrency_ECD",
		"Icon": "",
		"Name": "晨曦经合体荣誉点",
		"ExchangeRate": 1.0,
		"IssuerDesc": "各国国家银行",
		"MonetaryUsageDesc": "可在五大国家的<color=#deb273ff>声望商店</color>兑换高科技和品质等级的舰船及装备。",
		"AcquisitionPathDesc": "可通过完成每周刷新的<color=#deb273ff>国家声望任务</color>获得。",
		"NameStrKey": "ST:130736",
		"IssuerDescStrKey": "ST:132192",
		"MonetaryUsageDescStrKey": "ST:132197",
		"AcquisitionPathDescStrKey": "ST:132202"
	},
	{
		"ID": 6,
		"CurrencyType": "CurrencyType_CreditCurrency_NEF",
		"Icon": "",
		"Name": "新欧罗巴联邦荣誉点",
		"ExchangeRate": 1.0,
		"IssuerDesc": "各国国家银行",
		"MonetaryUsageDesc": "可在五大国家的<color=#deb273ff>声望商店</color>兑换高科技和品质等级的舰船及装备。",
		"AcquisitionPathDesc": "可通过完成每周刷新的<color=#deb273ff>国家声望任务</color>获得。",
		"NameStrKey": "ST:130737",
		"IssuerDescStrKey": "ST:132192",
		"MonetaryUsageDescStrKey": "ST:132197",
		"AcquisitionPathDescStrKey": "ST:132202"
	},
	{
		"ID": 7,
		"CurrencyType": "CurrencyType_CreditCurrency_RS",
		"Icon": "",
		"Name": "斯瓦罗斯共和国荣誉点",
		"ExchangeRate": 1.0,
		"IssuerDesc": "各国国家银行",
		"MonetaryUsageDesc": "可在五大国家的<color=#deb273ff>声望商店</color>兑换高科技和品质等级的舰船及装备。",
		"AcquisitionPathDesc": "可通过完成每周刷新的<color=#deb273ff>国家声望任务</color>获得。",
		"NameStrKey": "ST:130738",
		"IssuerDescStrKey": "ST:132192",
		"MonetaryUsageDescStrKey": "ST:132197",
		"AcquisitionPathDescStrKey": "ST:132202"
	},
	{
		"ID": 8,
		"CurrencyType": "CurrencyType_CreditCurrency_OE",
		"Icon": "",
		"Name": "天启帝国荣誉点",
		"ExchangeRate": 1.0,
		"IssuerDesc": "各国国家银行",
		"MonetaryUsageDesc": "可在五大国家的<color=#deb273ff>声望商店</color>兑换高科技和品质等级的舰船及装备。",
		"AcquisitionPathDesc": "可通过完成每周刷新的<color=#deb273ff>国家声望任务</color>获得。",
		"NameStrKey": "ST:130739",
		"IssuerDescStrKey": "ST:132192",
		"MonetaryUsageDescStrKey": "ST:132197",
		"AcquisitionPathDescStrKey": "ST:132202"
	},
	{
		"ID": 9,
		"CurrencyType": "CurrencyType_CreditCurrency_USG",
		"Icon": "",
		"Name": "星际合众国荣誉点",
		"ExchangeRate": 1.0,
		"IssuerDesc": "各国国家银行",
		"MonetaryUsageDesc": "可在五大国家的<color=#deb273ff>声望商店</color>兑换高科技和品质等级的舰船及装备。",
		"AcquisitionPathDesc": "可通过完成每周刷新的<color=#deb273ff>国家声望任务</color>获得。",
		"NameStrKey": "ST:130740",
		"IssuerDescStrKey": "ST:132192",
		"MonetaryUsageDescStrKey": "ST:132197",
		"AcquisitionPathDescStrKey": "ST:132202"
	},
	{
		"ID": 11,
		"CurrencyType": "CurrencyType_PanGala",
		"Icon": "",
		"Name": "物联币",
		"ExchangeRate": 100.0,
		"IssuerDesc": "泛银河商贸联盟",
		"MonetaryUsageDesc": "可在<color=#deb273ff>物联币商店</color>购买信用点，个人养成物资，开发及加速道具。",
		"AcquisitionPathDesc": "可通过<color=#deb273ff>个人贸易</color>将联储币转化为数倍的物联币。",
		"NameStrKey": "ST:128127",
		"IssuerDescStrKey": "ST:132193",
		"MonetaryUsageDescStrKey": "ST:132198",
		"AcquisitionPathDescStrKey": "ST:132203"
	},
	{
		"ID": 12,
		"CurrencyType": "CurrencyType_GuildGala",
		"Icon": "",
		"Name": "军团奖励点",
		"ExchangeRate": 200.0,
		"IssuerDesc": "联合拓殖银行",
		"MonetaryUsageDesc": "可在<color=#deb273ff>奖励点商店</color>兑换信用点，个人养成物资，开发及加速道具。",
		"AcquisitionPathDesc": "可通过向<color=#deb273ff>军团捐赠</color>联储币及通过<color=#deb273ff>军团福利</color>获得。",
		"NameStrKey": "ST:116126",
		"IssuerDescStrKey": "ST:132207",
		"MonetaryUsageDescStrKey": "ST:132208",
		"AcquisitionPathDescStrKey": "ST:132209"
	}
]